%!PS-Adobe-3.0 EPSF-3.0
%%Creator: (MATLAB, The Mathworks, Inc. Version 9.10.0.1669831 \(R2021a\) Update 2. Operating System: Windows 10)
%%Title: C:/Users/becka/Documents/Me_dokumenty/CVUT_FEjL/DIPLOMKA_V2/matlab/experiments/ILC_plotter/ILC_plotter_square_detail.eps
%%CreationDate: 2021-08-13T18:10:29
%%Pages: (atend)
%%BoundingBox:     0     0   312   283
%%LanguageLevel: 3
%%EndComments
%%BeginProlog
%%BeginResource: procset (Apache XML Graphics Std ProcSet) 1.2 0
%%Version: 1.2 0
%%Copyright: (Copyright 2001-2003,2010 The Apache Software Foundation. License terms: http://www.apache.org/licenses/LICENSE-2.0)
/bd{bind def}bind def
/ld{load def}bd
/GR/grestore ld
/GS/gsave ld
/RM/rmoveto ld
/C/curveto ld
/t/show ld
/L/lineto ld
/ML/setmiterlimit ld
/CT/concat ld
/f/fill ld
/N/newpath ld
/S/stroke ld
/CC/setcmykcolor ld
/A/ashow ld
/cp/closepath ld
/RC/setrgbcolor ld
/LJ/setlinejoin ld
/GC/setgray ld
/LW/setlinewidth ld
/M/moveto ld
/re {4 2 roll M
1 index 0 rlineto
0 exch rlineto
neg 0 rlineto
cp } bd
/_ctm matrix def
/_tm matrix def
/BT { _ctm currentmatrix pop matrix _tm copy pop 0 0 moveto } bd
/ET { _ctm setmatrix } bd
/iTm { _ctm setmatrix _tm concat } bd
/Tm { _tm astore pop iTm 0 0 moveto } bd
/ux 0.0 def
/uy 0.0 def
/F {
  /Tp exch def
  /Tf exch def
  Tf findfont Tp scalefont setfont
  /cf Tf def  /cs Tp def
} bd
/ULS {currentpoint /uy exch def /ux exch def} bd
/ULE {
  /Tcx currentpoint pop def
  gsave
  newpath
  cf findfont cs scalefont dup
  /FontMatrix get 0 get /Ts exch def /FontInfo get dup
  /UnderlinePosition get Ts mul /To exch def
  /UnderlineThickness get Ts mul /Tt exch def
  ux uy To add moveto  Tcx uy To add lineto
  Tt setlinewidth stroke
  grestore
} bd
/OLE {
  /Tcx currentpoint pop def
  gsave
  newpath
  cf findfont cs scalefont dup
  /FontMatrix get 0 get /Ts exch def /FontInfo get dup
  /UnderlinePosition get Ts mul /To exch def
  /UnderlineThickness get Ts mul /Tt exch def
  ux uy To add cs add moveto Tcx uy To add cs add lineto
  Tt setlinewidth stroke
  grestore
} bd
/SOE {
  /Tcx currentpoint pop def
  gsave
  newpath
  cf findfont cs scalefont dup
  /FontMatrix get 0 get /Ts exch def /FontInfo get dup
  /UnderlinePosition get Ts mul /To exch def
  /UnderlineThickness get Ts mul /Tt exch def
  ux uy To add cs 10 mul 26 idiv add moveto Tcx uy To add cs 10 mul 26 idiv add lineto
  Tt setlinewidth stroke
  grestore
} bd
/QT {
/Y22 exch store
/X22 exch store
/Y21 exch store
/X21 exch store
currentpoint
/Y21 load 2 mul add 3 div exch
/X21 load 2 mul add 3 div exch
/X21 load 2 mul /X22 load add 3 div
/Y21 load 2 mul /Y22 load add 3 div
/X22 load /Y22 load curveto
} bd
/SSPD {
dup length /d exch dict def
{
/v exch def
/k exch def
currentpagedevice k known {
/cpdv currentpagedevice k get def
v cpdv ne {
/upd false def
/nullv v type /nulltype eq def
/nullcpdv cpdv type /nulltype eq def
nullv nullcpdv or
{
/upd true def
} {
/sametype v type cpdv type eq def
sametype {
v type /arraytype eq {
/vlen v length def
/cpdvlen cpdv length def
vlen cpdvlen eq {
0 1 vlen 1 sub {
/i exch def
/obj v i get def
/cpdobj cpdv i get def
obj cpdobj ne {
/upd true def
exit
} if
} for
} {
/upd true def
} ifelse
} {
v type /dicttype eq {
v {
/dv exch def
/dk exch def
/cpddv cpdv dk get def
dv cpddv ne {
/upd true def
exit
} if
} forall
} {
/upd true def
} ifelse
} ifelse
} if
} ifelse
upd true eq {
d k v put
} if
} if
} if
} forall
d length 0 gt {
d setpagedevice
} if
} bd
/RE { % /NewFontName [NewEncodingArray] /FontName RE -
  findfont dup length dict begin
  {
    1 index /FID ne
    {def} {pop pop} ifelse
  } forall
  /Encoding exch def
  /FontName 1 index def
  currentdict definefont pop
  end
} bind def
%%EndResource
%%BeginResource: procset (Apache XML Graphics EPS ProcSet) 1.0 0
%%Version: 1.0 0
%%Copyright: (Copyright 2002-2003 The Apache Software Foundation. License terms: http://www.apache.org/licenses/LICENSE-2.0)
/BeginEPSF { %def
/b4_Inc_state save def         % Save state for cleanup
/dict_count countdictstack def % Count objects on dict stack
/op_count count 1 sub def      % Count objects on operand stack
userdict begin                 % Push userdict on dict stack
/showpage { } def              % Redefine showpage, { } = null proc
0 setgray 0 setlinecap         % Prepare graphics state
1 setlinewidth 0 setlinejoin
10 setmiterlimit [ ] 0 setdash newpath
/languagelevel where           % If level not equal to 1 then
{pop languagelevel             % set strokeadjust and
1 ne                           % overprint to their defaults.
{false setstrokeadjust false setoverprint
} if
} if
} bd
/EndEPSF { %def
count op_count sub {pop} repeat            % Clean up stacks
countdictstack dict_count sub {end} repeat
b4_Inc_state restore
} bd
%%EndResource
%FOPBeginFontDict
%%IncludeResource: font Courier-Oblique
%%IncludeResource: font Courier-BoldOblique
%%IncludeResource: font Courier-Bold
%%IncludeResource: font ZapfDingbats
%%IncludeResource: font Symbol
%%IncludeResource: font Helvetica
%%IncludeResource: font Helvetica-Oblique
%%IncludeResource: font Helvetica-Bold
%%IncludeResource: font Helvetica-BoldOblique
%%IncludeResource: font Times-Roman
%%IncludeResource: font Times-Italic
%%IncludeResource: font Times-Bold
%%IncludeResource: font Times-BoldItalic
%%IncludeResource: font Courier
%FOPEndFontDict
%%BeginResource: encoding WinAnsiEncoding
/WinAnsiEncoding [
/.notdef /.notdef /.notdef /.notdef /.notdef
/.notdef /.notdef /.notdef /.notdef /.notdef
/.notdef /.notdef /.notdef /.notdef /.notdef
/.notdef /.notdef /.notdef /.notdef /.notdef
/.notdef /.notdef /.notdef /.notdef /.notdef
/.notdef /.notdef /.notdef /.notdef /.notdef
/.notdef /.notdef /space /exclam /quotedbl
/numbersign /dollar /percent /ampersand /quotesingle
/parenleft /parenright /asterisk /plus /comma
/hyphen /period /slash /zero /one
/two /three /four /five /six
/seven /eight /nine /colon /semicolon
/less /equal /greater /question /at
/A /B /C /D /E
/F /G /H /I /J
/K /L /M /N /O
/P /Q /R /S /T
/U /V /W /X /Y
/Z /bracketleft /backslash /bracketright /asciicircum
/underscore /quoteleft /a /b /c
/d /e /f /g /h
/i /j /k /l /m
/n /o /p /q /r
/s /t /u /v /w
/x /y /z /braceleft /bar
/braceright /asciitilde /bullet /Euro /bullet
/quotesinglbase /florin /quotedblbase /ellipsis /dagger
/daggerdbl /circumflex /perthousand /Scaron /guilsinglleft
/OE /bullet /Zcaron /bullet /bullet
/quoteleft /quoteright /quotedblleft /quotedblright /bullet
/endash /emdash /asciitilde /trademark /scaron
/guilsinglright /oe /bullet /zcaron /Ydieresis
/space /exclamdown /cent /sterling /currency
/yen /brokenbar /section /dieresis /copyright
/ordfeminine /guillemotleft /logicalnot /sfthyphen /registered
/macron /degree /plusminus /twosuperior /threesuperior
/acute /mu /paragraph /middot /cedilla
/onesuperior /ordmasculine /guillemotright /onequarter /onehalf
/threequarters /questiondown /Agrave /Aacute /Acircumflex
/Atilde /Adieresis /Aring /AE /Ccedilla
/Egrave /Eacute /Ecircumflex /Edieresis /Igrave
/Iacute /Icircumflex /Idieresis /Eth /Ntilde
/Ograve /Oacute /Ocircumflex /Otilde /Odieresis
/multiply /Oslash /Ugrave /Uacute /Ucircumflex
/Udieresis /Yacute /Thorn /germandbls /agrave
/aacute /acircumflex /atilde /adieresis /aring
/ae /ccedilla /egrave /eacute /ecircumflex
/edieresis /igrave /iacute /icircumflex /idieresis
/eth /ntilde /ograve /oacute /ocircumflex
/otilde /odieresis /divide /oslash /ugrave
/uacute /ucircumflex /udieresis /yacute /thorn
/ydieresis
] def
%%EndResource
%FOPBeginFontReencode
/Courier-Oblique findfont
dup length dict begin
  {1 index /FID ne {def} {pop pop} ifelse} forall
  /Encoding WinAnsiEncoding def
  currentdict
end
/Courier-Oblique exch definefont pop
/Courier-BoldOblique findfont
dup length dict begin
  {1 index /FID ne {def} {pop pop} ifelse} forall
  /Encoding WinAnsiEncoding def
  currentdict
end
/Courier-BoldOblique exch definefont pop
/Courier-Bold findfont
dup length dict begin
  {1 index /FID ne {def} {pop pop} ifelse} forall
  /Encoding WinAnsiEncoding def
  currentdict
end
/Courier-Bold exch definefont pop
/Helvetica findfont
dup length dict begin
  {1 index /FID ne {def} {pop pop} ifelse} forall
  /Encoding WinAnsiEncoding def
  currentdict
end
/Helvetica exch definefont pop
/Helvetica-Oblique findfont
dup length dict begin
  {1 index /FID ne {def} {pop pop} ifelse} forall
  /Encoding WinAnsiEncoding def
  currentdict
end
/Helvetica-Oblique exch definefont pop
/Helvetica-Bold findfont
dup length dict begin
  {1 index /FID ne {def} {pop pop} ifelse} forall
  /Encoding WinAnsiEncoding def
  currentdict
end
/Helvetica-Bold exch definefont pop
/Helvetica-BoldOblique findfont
dup length dict begin
  {1 index /FID ne {def} {pop pop} ifelse} forall
  /Encoding WinAnsiEncoding def
  currentdict
end
/Helvetica-BoldOblique exch definefont pop
/Times-Roman findfont
dup length dict begin
  {1 index /FID ne {def} {pop pop} ifelse} forall
  /Encoding WinAnsiEncoding def
  currentdict
end
/Times-Roman exch definefont pop
/Times-Italic findfont
dup length dict begin
  {1 index /FID ne {def} {pop pop} ifelse} forall
  /Encoding WinAnsiEncoding def
  currentdict
end
/Times-Italic exch definefont pop
/Times-Bold findfont
dup length dict begin
  {1 index /FID ne {def} {pop pop} ifelse} forall
  /Encoding WinAnsiEncoding def
  currentdict
end
/Times-Bold exch definefont pop
/Times-BoldItalic findfont
dup length dict begin
  {1 index /FID ne {def} {pop pop} ifelse} forall
  /Encoding WinAnsiEncoding def
  currentdict
end
/Times-BoldItalic exch definefont pop
/Courier findfont
dup length dict begin
  {1 index /FID ne {def} {pop pop} ifelse} forall
  /Encoding WinAnsiEncoding def
  currentdict
end
/Courier exch definefont pop
%FOPEndFontReencode
%%EndProlog
%%Page: 1 1
%%PageBoundingBox: 0 0 312 283
%%BeginPageSetup
[1 0 0 -1 0 283] CT
%%EndPageSetup
GS
[0.74955 0 0 0.74991 0 -0.46457] CT
N
0 0 M
416 0 L
416 378 L
0 378 L
0 0 L
cp
clip
1 GC
N
0 0 416 378 re
f
GR
GS
[0.74955 0 0 0.74991 0 -0.46457] CT
1 GC
N
0 0 416 378 re
f
GR
GS
[0.74955 0 0 0.74991 0 -0.46457] CT
1 GC
N
59 336 M
376 336 L
376 28 L
59 28 L
cp
f
GR
GS
[0.74955 0 0 0.74991 0 -0.46457] CT
0.149 GC
2 setlinecap
1 LJ
0.667 LW
N
59 336 M
376 336 L
S
GR
GS
[0.74955 0 0 0.74991 0 -0.46457] CT
0.149 GC
2 setlinecap
1 LJ
0.667 LW
N
59 28 M
376 28 L
S
GR
GS
[0.74955 0 0 0.74991 0 -0.46457] CT
0.149 GC
2 setlinecap
1 LJ
0.667 LW
N
59 336 M
59 332.833 L
S
GR
GS
[0.74955 0 0 0.74991 0 -0.46457] CT
0.149 GC
2 setlinecap
1 LJ
0.667 LW
N
122.4 336 M
122.4 332.833 L
S
GR
GS
[0.74955 0 0 0.74991 0 -0.46457] CT
0.149 GC
2 setlinecap
1 LJ
0.667 LW
N
185.8 336 M
185.8 332.833 L
S
GR
GS
[0.74955 0 0 0.74991 0 -0.46457] CT
0.149 GC
2 setlinecap
1 LJ
0.667 LW
N
249.2 336 M
249.2 332.833 L
S
GR
GS
[0.74955 0 0 0.74991 0 -0.46457] CT
0.149 GC
2 setlinecap
1 LJ
0.667 LW
N
312.6 336 M
312.6 332.833 L
S
GR
GS
[0.74955 0 0 0.74991 0 -0.46457] CT
0.149 GC
2 setlinecap
1 LJ
0.667 LW
N
376 336 M
376 332.833 L
S
GR
GS
[0.74955 0 0 0.74991 0 -0.46457] CT
0.149 GC
2 setlinecap
1 LJ
0.667 LW
N
59 28 M
59 31.167 L
S
GR
GS
[0.74955 0 0 0.74991 0 -0.46457] CT
0.149 GC
2 setlinecap
1 LJ
0.667 LW
N
122.4 28 M
122.4 31.167 L
S
GR
GS
[0.74955 0 0 0.74991 0 -0.46457] CT
0.149 GC
2 setlinecap
1 LJ
0.667 LW
N
185.8 28 M
185.8 31.167 L
S
GR
GS
[0.74955 0 0 0.74991 0 -0.46457] CT
0.149 GC
2 setlinecap
1 LJ
0.667 LW
N
249.2 28 M
249.2 31.167 L
S
GR
GS
[0.74955 0 0 0.74991 0 -0.46457] CT
0.149 GC
2 setlinecap
1 LJ
0.667 LW
N
312.6 28 M
312.6 31.167 L
S
GR
GS
[0.74955 0 0 0.74991 0 -0.46457] CT
0.149 GC
2 setlinecap
1 LJ
0.667 LW
N
376 28 M
376 31.167 L
S
GR
GS
[0.74955 0 0 0.74991 44.22315 255.50344] CT
0.149 GC
/Helvetica 13.333 F
GS
[1 0 0 1 0 0] CT
-15.5 14 moveto 
1 -1 scale
(-0.99) t 
GR
GR
GS
[0.74955 0 0 0.74991 91.7443 255.50344] CT
0.149 GC
/Helvetica 13.333 F
GS
[1 0 0 1 0 0] CT
-15.5 14 moveto 
1 -1 scale
(-0.98) t 
GR
GR
GS
[0.74955 0 0 0.74991 139.26545 255.50344] CT
0.149 GC
/Helvetica 13.333 F
GS
[1 0 0 1 0 0] CT
-15.5 14 moveto 
1 -1 scale
(-0.97) t 
GR
GR
GS
[0.74955 0 0 0.74991 186.78689 255.50344] CT
0.149 GC
/Helvetica 13.333 F
GS
[1 0 0 1 0 0] CT
-15.5 14 moveto 
1 -1 scale
(-0.96) t 
GR
GR
GS
[0.74955 0 0 0.74991 234.30803 255.50344] CT
0.149 GC
/Helvetica 13.333 F
GS
[1 0 0 1 0 0] CT
-15.5 14 moveto 
1 -1 scale
(-0.95) t 
GR
GR
GS
[0.74955 0 0 0.74991 281.82918 255.50344] CT
0.149 GC
/Helvetica 13.333 F
GS
[1 0 0 1 0 0] CT
-15.5 14 moveto 
1 -1 scale
(-0.94) t 
GR
GR
GS
[0.74955 0 0 0.74991 163.02631 268.75185] CT
0.149 GC
/Helvetica 14.667 F
GS
[1 0 0 1 0 0] CT
-32 15 moveto 
1 -1 scale
(Position x) t 
GR
GR
GS
[0.74955 0 0 0.74991 0 -0.46457] CT
0.149 GC
2 setlinecap
1 LJ
0.667 LW
N
59 336 M
59 28 L
S
GR
GS
[0.74955 0 0 0.74991 0 -0.46457] CT
0.149 GC
2 setlinecap
1 LJ
0.667 LW
N
376 336 M
376 28 L
S
GR
GS
[0.74955 0 0 0.74991 0 -0.46457] CT
0.149 GC
2 setlinecap
1 LJ
0.667 LW
N
59 310.333 M
62.167 310.333 L
S
GR
GS
[0.74955 0 0 0.74991 0 -0.46457] CT
0.149 GC
2 setlinecap
1 LJ
0.667 LW
N
59 259 M
62.167 259 L
S
GR
GS
[0.74955 0 0 0.74991 0 -0.46457] CT
0.149 GC
2 setlinecap
1 LJ
0.667 LW
N
59 207.667 M
62.167 207.667 L
S
GR
GS
[0.74955 0 0 0.74991 0 -0.46457] CT
0.149 GC
2 setlinecap
1 LJ
0.667 LW
N
59 156.333 M
62.167 156.333 L
S
GR
GS
[0.74955 0 0 0.74991 0 -0.46457] CT
0.149 GC
2 setlinecap
1 LJ
0.667 LW
N
59 105 M
62.167 105 L
S
GR
GS
[0.74955 0 0 0.74991 0 -0.46457] CT
0.149 GC
2 setlinecap
1 LJ
0.667 LW
N
59 53.667 M
62.167 53.667 L
S
GR
GS
[0.74955 0 0 0.74991 0 -0.46457] CT
0.149 GC
2 setlinecap
1 LJ
0.667 LW
N
376 310.333 M
372.833 310.333 L
S
GR
GS
[0.74955 0 0 0.74991 0 -0.46457] CT
0.149 GC
2 setlinecap
1 LJ
0.667 LW
N
376 259 M
372.833 259 L
S
GR
GS
[0.74955 0 0 0.74991 0 -0.46457] CT
0.149 GC
2 setlinecap
1 LJ
0.667 LW
N
376 207.667 M
372.833 207.667 L
S
GR
GS
[0.74955 0 0 0.74991 0 -0.46457] CT
0.149 GC
2 setlinecap
1 LJ
0.667 LW
N
376 156.333 M
372.833 156.333 L
S
GR
GS
[0.74955 0 0 0.74991 0 -0.46457] CT
0.149 GC
2 setlinecap
1 LJ
0.667 LW
N
376 105 M
372.833 105 L
S
GR
GS
[0.74955 0 0 0.74991 0 -0.46457] CT
0.149 GC
2 setlinecap
1 LJ
0.667 LW
N
376 53.667 M
372.833 53.667 L
S
GR
GS
[0.74955 0 0 0.74991 40.22567 232.25635] CT
0.149 GC
/Helvetica 13.333 F
GS
[1 0 0 1 0 0] CT
-23 5.5 moveto 
1 -1 scale
(-0.5) t 
GR
GR
GS
[0.74955 0 0 0.74991 40.22567 193.7612] CT
0.149 GC
/Helvetica 13.333 F
GS
[1 0 0 1 0 0] CT
-31 5.5 moveto 
1 -1 scale
(-0.49) t 
GR
GR
GS
[0.74955 0 0 0.74991 40.22567 155.26592] CT
0.149 GC
/Helvetica 13.333 F
GS
[1 0 0 1 0 0] CT
-31 5.5 moveto 
1 -1 scale
(-0.48) t 
GR
GR
GS
[0.74955 0 0 0.74991 40.22567 116.77077] CT
0.149 GC
/Helvetica 13.333 F
GS
[1 0 0 1 0 0] CT
-31 5.5 moveto 
1 -1 scale
(-0.47) t 
GR
GR
GS
[0.74955 0 0 0.74991 40.22567 78.27562] CT
0.149 GC
/Helvetica 13.333 F
GS
[1 0 0 1 0 0] CT
-31 5.5 moveto 
1 -1 scale
(-0.46) t 
GR
GR
GS
[0.74955 0 0 0.74991 40.22567 39.78036] CT
0.149 GC
/Helvetica 13.333 F
GS
[1 0 0 1 0 0] CT
-31 5.5 moveto 
1 -1 scale
(-0.45) t 
GR
GR
GS
[0 -0.74991 0.74955 0 14.24131 136.01823] CT
0.149 GC
/Helvetica 14.667 F
GS
[1 0 0 1 0 0] CT
-32 -4 moveto 
1 -1 scale
(Position y) t 
GR
GR
GS
[0.74955 0 0 0.74991 0 -0.46457] CT
0 0.447 0.741 RC
1 LJ
1.333 LW
N
376.038 233.208 M
374.298 233.208 L
371.647 233.208 L
370.264 233.209 L
366.406 233.209 L
362.002 233.208 L
359.35 233.209 L
357.968 233.209 L
354.109 233.209 L
349.705 233.209 L
347.054 233.21 L
345.671 233.21 L
341.812 233.21 L
337.408 233.21 L
334.757 233.21 L
333.374 233.211 L
329.515 233.211 L
325.111 233.21 L
322.46 233.211 L
321.077 233.211 L
317.218 233.211 L
312.814 233.211 L
310.163 233.211 L
308.78 233.212 L
304.921 233.212 L
300.517 233.211 L
297.865 233.212 L
296.482 233.212 L
292.624 233.212 L
288.219 233.212 L
285.568 233.212 L
284.185 233.213 L
280.326 233.213 L
275.921 233.212 L
273.27 233.213 L
271.887 233.213 L
268.028 233.213 L
263.624 233.212 L
260.972 233.213 L
259.589 233.213 L
255.73 233.213 L
251.325 233.213 L
248.674 233.213 L
247.291 233.213 L
243.432 233.213 L
239.027 233.213 L
236.376 233.213 L
234.992 233.213 L
231.133 233.213 L
226.728 233.213 L
224.077 233.213 L
222.694 233.213 L
218.835 233.213 L
214.429 233.213 L
211.778 233.213 L
210.394 233.213 L
206.535 233.213 L
202.13 233.213 L
199.478 233.213 L
198.095 233.213 L
194.236 233.213 L
189.83 233.212 L
187.179 233.213 L
185.795 233.213 L
184.267 233.213 L
190.421 233.213 L
190.421 233.213 L
192.605 233.165 L
192.605 233.165 L
194.317 232.971 L
194.317 232.971 L
195.771 232.689 L
196.527 232.517 L
196.527 232.517 L
197.95 232.153 L
199.76 231.562 L
199.76 231.562 L
200.998 230.918 L
201.68 230.143 L
201.85 228.621 L
200.895 226.079 L
199.785 224.207 L
199.785 224.207 L
199.579 223.893 L
198.462 222.258 L
197.059 220.197 L
195.506 217.678 L
193.892 214.49 L
192.357 210.5 L
191.682 208.332 L
190.543 203.903 L
189.797 200.126 L
189.237 196.345 L
188.902 193.303 L
188.696 190.914 L
188.532 188.534 L
188.38 185.691 L
188.242 182.241 L
188.162 179.689 L
188.095 177.148 L
188.055 175.483 L
187.981 172.051 L
187.916 168.907 L
187.849 165.761 L
187.84 165.373 L
187.795 163.43 L
187.727 160.567 L
187.631 156.835 L
187.587 155.241 L
187.51 152.579 L
187.406 149.072 L
187.325 146.465 L
187.281 145.069 L
187.18 141.85 L
187.081 138.703 L
186.984 135.556 L
186.963 134.879 L
186.877 132.017 L
186.794 129.143 L
186.718 126.38 L
186.674 124.703 L
186.601 121.835 L
186.514 118.076 L
186.464 115.73 L
186.44 114.563 L
186.38 111.278 L
186.333 108.347 L
186.293 105.42 L
186.282 104.476 L
186.252 101.477 L
186.23 98.224 L
186.219 95.372 L
186.217 94.46 L
186.215 91.923 L
186.222 89.118 L
186.237 86.134 L
186.247 84.522 L
186.271 81.787 L
186.31 78.199 L
186.339 75.867 L
186.356 74.648 L
186.403 71.449 L
186.448 68.534 L
186.496 65.621 L
186.509 64.812 L
186.557 61.921 L
186.608 58.885 L
186.653 56.148 L
186.671 54.984 L
186.711 52.383 L
186.756 49.264 L
186.796 46.124 L
186.807 45.128 L
186.832 42.633 L
186.854 39.773 L
186.87 36.704 L
186.873 35.21 L
186.875 32.514 L
186.865 29.015 L
186.859 27.963 L
S
GR
%%Trailer
%%Pages: 1
%%EOF
