%!PS-Adobe-3.0 EPSF-3.0
%%Creator: (MATLAB, The Mathworks, Inc. Version 9.10.0.1669831 \(R2021a\) Update 2. Operating System: Windows 10)
%%Title: C:/Users/becka/Documents/Me_dokumenty/CVUT_FEjL/DIPLOMKA_V2/matlab/identification/ident_data/latex/current.eps
%%CreationDate: 2021-08-12T16:11:27
%%Pages: (atend)
%%BoundingBox:     0     0   624   283
%%LanguageLevel: 3
%%EndComments
%%BeginProlog
%%BeginResource: procset (Apache XML Graphics Std ProcSet) 1.2 0
%%Version: 1.2 0
%%Copyright: (Copyright 2001-2003,2010 The Apache Software Foundation. License terms: http://www.apache.org/licenses/LICENSE-2.0)
/bd{bind def}bind def
/ld{load def}bd
/GR/grestore ld
/GS/gsave ld
/RM/rmoveto ld
/C/curveto ld
/t/show ld
/L/lineto ld
/ML/setmiterlimit ld
/CT/concat ld
/f/fill ld
/N/newpath ld
/S/stroke ld
/CC/setcmykcolor ld
/A/ashow ld
/cp/closepath ld
/RC/setrgbcolor ld
/LJ/setlinejoin ld
/GC/setgray ld
/LW/setlinewidth ld
/M/moveto ld
/re {4 2 roll M
1 index 0 rlineto
0 exch rlineto
neg 0 rlineto
cp } bd
/_ctm matrix def
/_tm matrix def
/BT { _ctm currentmatrix pop matrix _tm copy pop 0 0 moveto } bd
/ET { _ctm setmatrix } bd
/iTm { _ctm setmatrix _tm concat } bd
/Tm { _tm astore pop iTm 0 0 moveto } bd
/ux 0.0 def
/uy 0.0 def
/F {
  /Tp exch def
  /Tf exch def
  Tf findfont Tp scalefont setfont
  /cf Tf def  /cs Tp def
} bd
/ULS {currentpoint /uy exch def /ux exch def} bd
/ULE {
  /Tcx currentpoint pop def
  gsave
  newpath
  cf findfont cs scalefont dup
  /FontMatrix get 0 get /Ts exch def /FontInfo get dup
  /UnderlinePosition get Ts mul /To exch def
  /UnderlineThickness get Ts mul /Tt exch def
  ux uy To add moveto  Tcx uy To add lineto
  Tt setlinewidth stroke
  grestore
} bd
/OLE {
  /Tcx currentpoint pop def
  gsave
  newpath
  cf findfont cs scalefont dup
  /FontMatrix get 0 get /Ts exch def /FontInfo get dup
  /UnderlinePosition get Ts mul /To exch def
  /UnderlineThickness get Ts mul /Tt exch def
  ux uy To add cs add moveto Tcx uy To add cs add lineto
  Tt setlinewidth stroke
  grestore
} bd
/SOE {
  /Tcx currentpoint pop def
  gsave
  newpath
  cf findfont cs scalefont dup
  /FontMatrix get 0 get /Ts exch def /FontInfo get dup
  /UnderlinePosition get Ts mul /To exch def
  /UnderlineThickness get Ts mul /Tt exch def
  ux uy To add cs 10 mul 26 idiv add moveto Tcx uy To add cs 10 mul 26 idiv add lineto
  Tt setlinewidth stroke
  grestore
} bd
/QT {
/Y22 exch store
/X22 exch store
/Y21 exch store
/X21 exch store
currentpoint
/Y21 load 2 mul add 3 div exch
/X21 load 2 mul add 3 div exch
/X21 load 2 mul /X22 load add 3 div
/Y21 load 2 mul /Y22 load add 3 div
/X22 load /Y22 load curveto
} bd
/SSPD {
dup length /d exch dict def
{
/v exch def
/k exch def
currentpagedevice k known {
/cpdv currentpagedevice k get def
v cpdv ne {
/upd false def
/nullv v type /nulltype eq def
/nullcpdv cpdv type /nulltype eq def
nullv nullcpdv or
{
/upd true def
} {
/sametype v type cpdv type eq def
sametype {
v type /arraytype eq {
/vlen v length def
/cpdvlen cpdv length def
vlen cpdvlen eq {
0 1 vlen 1 sub {
/i exch def
/obj v i get def
/cpdobj cpdv i get def
obj cpdobj ne {
/upd true def
exit
} if
} for
} {
/upd true def
} ifelse
} {
v type /dicttype eq {
v {
/dv exch def
/dk exch def
/cpddv cpdv dk get def
dv cpddv ne {
/upd true def
exit
} if
} forall
} {
/upd true def
} ifelse
} ifelse
} if
} ifelse
upd true eq {
d k v put
} if
} if
} if
} forall
d length 0 gt {
d setpagedevice
} if
} bd
/RE { % /NewFontName [NewEncodingArray] /FontName RE -
  findfont dup length dict begin
  {
    1 index /FID ne
    {def} {pop pop} ifelse
  } forall
  /Encoding exch def
  /FontName 1 index def
  currentdict definefont pop
  end
} bind def
%%EndResource
%%BeginResource: procset (Apache XML Graphics EPS ProcSet) 1.0 0
%%Version: 1.0 0
%%Copyright: (Copyright 2002-2003 The Apache Software Foundation. License terms: http://www.apache.org/licenses/LICENSE-2.0)
/BeginEPSF { %def
/b4_Inc_state save def         % Save state for cleanup
/dict_count countdictstack def % Count objects on dict stack
/op_count count 1 sub def      % Count objects on operand stack
userdict begin                 % Push userdict on dict stack
/showpage { } def              % Redefine showpage, { } = null proc
0 setgray 0 setlinecap         % Prepare graphics state
1 setlinewidth 0 setlinejoin
10 setmiterlimit [ ] 0 setdash newpath
/languagelevel where           % If level not equal to 1 then
{pop languagelevel             % set strokeadjust and
1 ne                           % overprint to their defaults.
{false setstrokeadjust false setoverprint
} if
} if
} bd
/EndEPSF { %def
count op_count sub {pop} repeat            % Clean up stacks
countdictstack dict_count sub {end} repeat
b4_Inc_state restore
} bd
%%EndResource
%FOPBeginFontDict
%%IncludeResource: font Courier-Oblique
%%IncludeResource: font Courier-BoldOblique
%%IncludeResource: font Courier-Bold
%%IncludeResource: font ZapfDingbats
%%IncludeResource: font Symbol
%%IncludeResource: font Helvetica
%%IncludeResource: font Helvetica-Oblique
%%IncludeResource: font Helvetica-Bold
%%IncludeResource: font Helvetica-BoldOblique
%%IncludeResource: font Times-Roman
%%IncludeResource: font Times-Italic
%%IncludeResource: font Times-Bold
%%IncludeResource: font Times-BoldItalic
%%IncludeResource: font Courier
%FOPEndFontDict
%%BeginResource: encoding WinAnsiEncoding
/WinAnsiEncoding [
/.notdef /.notdef /.notdef /.notdef /.notdef
/.notdef /.notdef /.notdef /.notdef /.notdef
/.notdef /.notdef /.notdef /.notdef /.notdef
/.notdef /.notdef /.notdef /.notdef /.notdef
/.notdef /.notdef /.notdef /.notdef /.notdef
/.notdef /.notdef /.notdef /.notdef /.notdef
/.notdef /.notdef /space /exclam /quotedbl
/numbersign /dollar /percent /ampersand /quotesingle
/parenleft /parenright /asterisk /plus /comma
/hyphen /period /slash /zero /one
/two /three /four /five /six
/seven /eight /nine /colon /semicolon
/less /equal /greater /question /at
/A /B /C /D /E
/F /G /H /I /J
/K /L /M /N /O
/P /Q /R /S /T
/U /V /W /X /Y
/Z /bracketleft /backslash /bracketright /asciicircum
/underscore /quoteleft /a /b /c
/d /e /f /g /h
/i /j /k /l /m
/n /o /p /q /r
/s /t /u /v /w
/x /y /z /braceleft /bar
/braceright /asciitilde /bullet /Euro /bullet
/quotesinglbase /florin /quotedblbase /ellipsis /dagger
/daggerdbl /circumflex /perthousand /Scaron /guilsinglleft
/OE /bullet /Zcaron /bullet /bullet
/quoteleft /quoteright /quotedblleft /quotedblright /bullet
/endash /emdash /asciitilde /trademark /scaron
/guilsinglright /oe /bullet /zcaron /Ydieresis
/space /exclamdown /cent /sterling /currency
/yen /brokenbar /section /dieresis /copyright
/ordfeminine /guillemotleft /logicalnot /sfthyphen /registered
/macron /degree /plusminus /twosuperior /threesuperior
/acute /mu /paragraph /middot /cedilla
/onesuperior /ordmasculine /guillemotright /onequarter /onehalf
/threequarters /questiondown /Agrave /Aacute /Acircumflex
/Atilde /Adieresis /Aring /AE /Ccedilla
/Egrave /Eacute /Ecircumflex /Edieresis /Igrave
/Iacute /Icircumflex /Idieresis /Eth /Ntilde
/Ograve /Oacute /Ocircumflex /Otilde /Odieresis
/multiply /Oslash /Ugrave /Uacute /Ucircumflex
/Udieresis /Yacute /Thorn /germandbls /agrave
/aacute /acircumflex /atilde /adieresis /aring
/ae /ccedilla /egrave /eacute /ecircumflex
/edieresis /igrave /iacute /icircumflex /idieresis
/eth /ntilde /ograve /oacute /ocircumflex
/otilde /odieresis /divide /oslash /ugrave
/uacute /ucircumflex /udieresis /yacute /thorn
/ydieresis
] def
%%EndResource
%FOPBeginFontReencode
/Courier-Oblique findfont
dup length dict begin
  {1 index /FID ne {def} {pop pop} ifelse} forall
  /Encoding WinAnsiEncoding def
  currentdict
end
/Courier-Oblique exch definefont pop
/Courier-BoldOblique findfont
dup length dict begin
  {1 index /FID ne {def} {pop pop} ifelse} forall
  /Encoding WinAnsiEncoding def
  currentdict
end
/Courier-BoldOblique exch definefont pop
/Courier-Bold findfont
dup length dict begin
  {1 index /FID ne {def} {pop pop} ifelse} forall
  /Encoding WinAnsiEncoding def
  currentdict
end
/Courier-Bold exch definefont pop
/Helvetica findfont
dup length dict begin
  {1 index /FID ne {def} {pop pop} ifelse} forall
  /Encoding WinAnsiEncoding def
  currentdict
end
/Helvetica exch definefont pop
/Helvetica-Oblique findfont
dup length dict begin
  {1 index /FID ne {def} {pop pop} ifelse} forall
  /Encoding WinAnsiEncoding def
  currentdict
end
/Helvetica-Oblique exch definefont pop
/Helvetica-Bold findfont
dup length dict begin
  {1 index /FID ne {def} {pop pop} ifelse} forall
  /Encoding WinAnsiEncoding def
  currentdict
end
/Helvetica-Bold exch definefont pop
/Helvetica-BoldOblique findfont
dup length dict begin
  {1 index /FID ne {def} {pop pop} ifelse} forall
  /Encoding WinAnsiEncoding def
  currentdict
end
/Helvetica-BoldOblique exch definefont pop
/Times-Roman findfont
dup length dict begin
  {1 index /FID ne {def} {pop pop} ifelse} forall
  /Encoding WinAnsiEncoding def
  currentdict
end
/Times-Roman exch definefont pop
/Times-Italic findfont
dup length dict begin
  {1 index /FID ne {def} {pop pop} ifelse} forall
  /Encoding WinAnsiEncoding def
  currentdict
end
/Times-Italic exch definefont pop
/Times-Bold findfont
dup length dict begin
  {1 index /FID ne {def} {pop pop} ifelse} forall
  /Encoding WinAnsiEncoding def
  currentdict
end
/Times-Bold exch definefont pop
/Times-BoldItalic findfont
dup length dict begin
  {1 index /FID ne {def} {pop pop} ifelse} forall
  /Encoding WinAnsiEncoding def
  currentdict
end
/Times-BoldItalic exch definefont pop
/Courier findfont
dup length dict begin
  {1 index /FID ne {def} {pop pop} ifelse} forall
  /Encoding WinAnsiEncoding def
  currentdict
end
/Courier exch definefont pop
%FOPEndFontReencode
%%EndProlog
%%Page: 1 1
%%PageBoundingBox: 0 0 624 283
%%BeginPageSetup
[1 0 0 -1 0 283] CT
%%EndPageSetup
GS
[0.75045 0 0 0.74991 0 -0.46457] CT
N
0 0 M
831 0 L
831 378 L
0 378 L
0 0 L
cp
clip
1 GC
N
0 0 831 378 re
f
GR
GS
[0.75045 0 0 0.74991 0 -0.46457] CT
1 GC
N
0 0 831 378 re
f
GR
GS
[0.75045 0 0 0.74991 0 -0.46457] CT
1 GC
N
108 325 M
753 325 L
753 28 L
108 28 L
cp
f
GR
GS
[0.75045 0 0 0.74991 0 -0.46457] CT
0.149 GC
2 setlinecap
1 LJ
0.667 LW
N
108 325 M
753 325 L
S
GR
GS
[0.75045 0 0 0.74991 0 -0.46457] CT
0.149 GC
2 setlinecap
1 LJ
0.667 LW
N
108 28 M
753 28 L
S
GR
GS
[0.75045 0 0 0.74991 0 -0.46457] CT
0.149 GC
2 setlinecap
1 LJ
0.667 LW
N
108 325 M
108 318.55 L
S
GR
GS
[0.75045 0 0 0.74991 0 -0.46457] CT
0.149 GC
2 setlinecap
1 LJ
0.667 LW
N
215.5 325 M
215.5 318.55 L
S
GR
GS
[0.75045 0 0 0.74991 0 -0.46457] CT
0.149 GC
2 setlinecap
1 LJ
0.667 LW
N
323 325 M
323 318.55 L
S
GR
GS
[0.75045 0 0 0.74991 0 -0.46457] CT
0.149 GC
2 setlinecap
1 LJ
0.667 LW
N
430.5 325 M
430.5 318.55 L
S
GR
GS
[0.75045 0 0 0.74991 0 -0.46457] CT
0.149 GC
2 setlinecap
1 LJ
0.667 LW
N
538 325 M
538 318.55 L
S
GR
GS
[0.75045 0 0 0.74991 0 -0.46457] CT
0.149 GC
2 setlinecap
1 LJ
0.667 LW
N
645.5 325 M
645.5 318.55 L
S
GR
GS
[0.75045 0 0 0.74991 0 -0.46457] CT
0.149 GC
2 setlinecap
1 LJ
0.667 LW
N
753 325 M
753 318.55 L
S
GR
GS
[0.75045 0 0 0.74991 0 -0.46457] CT
0.149 GC
2 setlinecap
1 LJ
0.667 LW
N
108 28 M
108 34.45 L
S
GR
GS
[0.75045 0 0 0.74991 0 -0.46457] CT
0.149 GC
2 setlinecap
1 LJ
0.667 LW
N
215.5 28 M
215.5 34.45 L
S
GR
GS
[0.75045 0 0 0.74991 0 -0.46457] CT
0.149 GC
2 setlinecap
1 LJ
0.667 LW
N
323 28 M
323 34.45 L
S
GR
GS
[0.75045 0 0 0.74991 0 -0.46457] CT
0.149 GC
2 setlinecap
1 LJ
0.667 LW
N
430.5 28 M
430.5 34.45 L
S
GR
GS
[0.75045 0 0 0.74991 0 -0.46457] CT
0.149 GC
2 setlinecap
1 LJ
0.667 LW
N
538 28 M
538 34.45 L
S
GR
GS
[0.75045 0 0 0.74991 0 -0.46457] CT
0.149 GC
2 setlinecap
1 LJ
0.667 LW
N
645.5 28 M
645.5 34.45 L
S
GR
GS
[0.75045 0 0 0.74991 0 -0.46457] CT
0.149 GC
2 setlinecap
1 LJ
0.667 LW
N
753 28 M
753 34.45 L
S
GR
GS
[0.75045 0 0 0.74991 81.04831 248.05436] CT
0.149 GC
/Times-Roman 18.667 F
GS
[1 0 0 1 0 0] CT
-12 18 moveto 
1 -1 scale
(2.8) t 
GR
GR
GS
[0.75045 0 0 0.74991 161.72155 248.05436] CT
0.149 GC
/Times-Roman 18.667 F
GS
[1 0 0 1 0 0] CT
-12 18 moveto 
1 -1 scale
(2.9) t 
GR
GR
GS
[0.75045 0 0 0.74991 242.3946 248.05436] CT
0.149 GC
/Times-Roman 18.667 F
GS
[1 0 0 1 0 0] CT
-5 18 moveto 
1 -1 scale
(3) t 
GR
GR
GS
[0.75045 0 0 0.74991 323.06765 248.05436] CT
0.149 GC
/Times-Roman 18.667 F
GS
[1 0 0 1 0 0] CT
-12 18 moveto 
1 -1 scale
(3.1) t 
GR
GR
GS
[0.75045 0 0 0.74991 403.74089 248.05436] CT
0.149 GC
/Times-Roman 18.667 F
GS
[1 0 0 1 0 0] CT
-12 18 moveto 
1 -1 scale
(3.2) t 
GR
GR
GS
[0.75045 0 0 0.74991 484.41392 248.05436] CT
0.149 GC
/Times-Roman 18.667 F
GS
[1 0 0 1 0 0] CT
-12 18 moveto 
1 -1 scale
(3.3) t 
GR
GR
GS
[0.75045 0 0 0.74991 565.08718 248.05436] CT
0.149 GC
/Times-Roman 18.667 F
GS
[1 0 0 1 0 0] CT
-12 18 moveto 
1 -1 scale
(3.4) t 
GR
GR
GS
[0.75045 0 0 0.74991 323.06802 265.00225] CT
0.149 GC
/Times-Roman 20.533 F
GS
[1 0 0 1 0 0] CT
-16.5 19 moveto 
1 -1 scale
(t [s]) t 
GR
GR
GS
[0.75045 0 0 0.74991 0 -0.46457] CT
0.149 GC
2 setlinecap
1 LJ
0.667 LW
N
108 325 M
108 28 L
S
GR
GS
[0.75045 0 0 0.74991 0 -0.46457] CT
0.149 GC
2 setlinecap
1 LJ
0.667 LW
N
753 325 M
753 28 L
S
GR
GS
[0.75045 0 0 0.74991 0 -0.46457] CT
0.149 GC
2 setlinecap
1 LJ
0.667 LW
N
108 278.105 M
114.45 278.105 L
S
GR
GS
[0.75045 0 0 0.74991 0 -0.46457] CT
0.149 GC
2 setlinecap
1 LJ
0.667 LW
N
108 199.947 M
114.45 199.947 L
S
GR
GS
[0.75045 0 0 0.74991 0 -0.46457] CT
0.149 GC
2 setlinecap
1 LJ
0.667 LW
N
108 121.789 M
114.45 121.789 L
S
GR
GS
[0.75045 0 0 0.74991 0 -0.46457] CT
0.149 GC
2 setlinecap
1 LJ
0.667 LW
N
108 43.632 M
114.45 43.632 L
S
GR
GS
[0.75045 0 0 0.74991 0 -0.46457] CT
0.149 GC
2 setlinecap
1 LJ
0.667 LW
N
753 278.105 M
746.55 278.105 L
S
GR
GS
[0.75045 0 0 0.74991 0 -0.46457] CT
0.149 GC
2 setlinecap
1 LJ
0.667 LW
N
753 199.947 M
746.55 199.947 L
S
GR
GS
[0.75045 0 0 0.74991 0 -0.46457] CT
0.149 GC
2 setlinecap
1 LJ
0.667 LW
N
753 121.789 M
746.55 121.789 L
S
GR
GS
[0.75045 0 0 0.74991 0 -0.46457] CT
0.149 GC
2 setlinecap
1 LJ
0.667 LW
N
753 43.632 M
746.55 43.632 L
S
GR
GS
[0.75045 0 0 0.74991 76.2454 208.0883] CT
0.149 GC
/Times-Roman 18.667 F
GS
[1 0 0 1 0 0] CT
-39 7 moveto 
1 -1 scale
(-0.05) t 
GR
GR
GS
[0.75045 0 0 0.74991 76.2454 149.47722] CT
0.149 GC
/Times-Roman 18.667 F
GS
[1 0 0 1 0 0] CT
-10 7 moveto 
1 -1 scale
(0) t 
GR
GR
GS
[0.75045 0 0 0.74991 76.2454 90.86612] CT
0.149 GC
/Times-Roman 18.667 F
GS
[1 0 0 1 0 0] CT
-33 7 moveto 
1 -1 scale
(0.05) t 
GR
GR
GS
[0.75045 0 0 0.74991 76.2454 32.25502] CT
0.149 GC
/Times-Roman 18.667 F
GS
[1 0 0 1 0 0] CT
-24 7 moveto 
1 -1 scale
(0.1) t 
GR
GR
GS
[0 -0.74991 0.75045 0 43.97617 131.89378] CT
0.149 GC
/Times-Roman 20.533 F
GS
[1 0 0 1 0 0] CT
-20.5 -5 moveto 
1 -1 scale
(I [A]) t 
GR
GR
GS
[0.75045 0 0 0.74991 0 -0.46457] CT
0 0.447 0.741 RC
1 LJ
1.333 LW
N
107.923 134.425 M
108 135.818 L
110.15 96.882 L
112.3 133.527 L
114.45 99.172 L
116.6 131.237 L
118.75 103.753 L
120.9 229.722 L
123.05 215.98 L
125.2 280.109 L
127.35 234.303 L
129.5 280.109 L
131.65 243.464 L
133.8 277.819 L
135.95 261.787 L
138.1 177.044 L
140.25 133.527 L
142.4 99.172 L
144.55 126.656 L
146.7 163.302 L
148.85 254.916 L
151 227.431 L
153.15 264.077 L
155.3 183.915 L
157.45 108.334 L
159.6 133.527 L
161.75 76.269 L
163.9 220.561 L
166.05 215.98 L
168.2 266.367 L
170.35 266.367 L
172.5 170.173 L
174.65 161.011 L
176.8 103.753 L
178.95 122.076 L
181.1 206.819 L
183.25 227.431 L
185.4 275.529 L
187.55 241.174 L
189.7 280.109 L
191.85 264.077 L
194 245.754 L
196.15 296.142 L
198.3 186.205 L
200.45 122.076 L
202.6 140.398 L
204.75 112.914 L
206.9 92.301 L
209.05 122.076 L
211.2 96.882 L
213.35 115.205 L
215.5 119.785 L
217.65 87.72 L
219.8 138.108 L
221.95 108.334 L
224.1 101.463 L
226.25 131.237 L
228.4 90.011 L
230.55 138.108 L
232.7 103.753 L
234.85 115.205 L
237 112.914 L
239.15 99.172 L
241.3 218.27 L
243.45 204.528 L
245.6 277.819 L
247.75 250.335 L
249.9 177.044 L
252.05 151.85 L
254.2 85.43 L
256.35 133.527 L
258.5 177.044 L
260.65 238.883 L
262.8 257.206 L
264.95 227.431 L
267.1 286.98 L
269.25 245.754 L
271.4 234.303 L
273.55 275.529 L
275.7 229.722 L
277.85 243.464 L
280 273.238 L
282.15 222.851 L
284.3 225.141 L
286.45 273.238 L
288.6 261.787 L
290.75 220.561 L
292.9 264.077 L
295.05 300.722 L
297.2 261.787 L
299.35 261.787 L
301.5 296.142 L
303.65 314.464 L
305.8 286.98 L
307.95 252.625 L
310.1 179.334 L
312.25 167.883 L
314.4 149.56 L
316.55 108.334 L
318.7 172.463 L
320.85 245.754 L
323 293.852 L
325.15 291.561 L
327.3 174.753 L
329.45 110.624 L
331.6 110.624 L
333.75 135.818 L
335.9 131.237 L
338.05 108.334 L
340.2 83.14 L
342.35 106.043 L
344.5 142.689 L
346.65 115.205 L
348.8 87.72 L
350.95 101.463 L
353.1 126.656 L
355.25 131.237 L
357.4 87.72 L
359.55 94.592 L
361.7 220.561 L
363.85 264.077 L
366 232.012 L
368.15 257.206 L
370.3 284.69 L
372.45 293.852 L
374.6 270.948 L
376.75 243.464 L
378.9 261.787 L
381.05 282.4 L
383.2 286.98 L
385.35 259.496 L
387.5 158.721 L
389.65 110.624 L
391.8 110.624 L
393.95 135.818 L
396.1 133.527 L
398.25 110.624 L
400.4 92.301 L
402.55 78.559 L
404.7 101.463 L
406.85 133.527 L
409 128.947 L
411.15 99.172 L
413.3 73.978 L
415.45 108.334 L
417.6 138.108 L
419.75 101.463 L
421.9 80.85 L
424.05 92.301 L
426.2 122.076 L
428.35 117.495 L
430.5 179.334 L
432.65 220.561 L
434.8 273.238 L
436.95 296.142 L
439.1 257.206 L
441.25 234.303 L
443.4 270.948 L
445.55 303.013 L
447.7 296.142 L
449.85 270.948 L
452 248.045 L
454.15 266.367 L
456.3 199.947 L
458.45 170.173 L
460.6 138.108 L
462.75 108.334 L
464.9 85.43 L
467.05 83.14 L
469.2 106.043 L
471.35 126.656 L
473.5 122.076 L
475.65 106.043 L
477.8 73.978 L
479.95 83.14 L
482.1 213.689 L
484.25 266.367 L
486.4 261.787 L
488.55 245.754 L
490.7 170.173 L
492.85 156.431 L
495 151.85 L
497.15 128.947 L
499.3 99.172 L
501.45 69.398 L
503.6 90.011 L
505.75 119.785 L
507.9 227.431 L
510.05 241.174 L
512.2 232.012 L
514.35 259.496 L
516.5 204.528 L
518.65 158.721 L
520.8 117.495 L
522.95 85.43 L
525.1 80.85 L
527.25 115.205 L
529.4 138.108 L
531.55 117.495 L
533.7 90.011 L
535.85 76.269 L
538 119.785 L
540.15 126.656 L
542.3 103.753 L
544.45 90.011 L
546.6 90.011 L
548.75 135.818 L
550.9 218.27 L
553.05 218.27 L
555.2 252.625 L
557.35 286.98 L
559.5 213.689 L
561.65 142.689 L
563.8 92.301 L
565.95 110.624 L
568.1 142.689 L
570.25 110.624 L
572.4 90.011 L
574.55 99.172 L
576.7 227.431 L
578.85 257.206 L
581 234.303 L
583.15 254.916 L
585.3 199.947 L
587.45 156.431 L
589.6 119.785 L
591.75 85.43 L
593.9 103.753 L
596.05 140.398 L
598.2 103.753 L
600.35 85.43 L
602.5 186.205 L
604.65 270.948 L
606.8 261.787 L
608.95 238.883 L
611.1 257.206 L
613.25 286.98 L
615.4 289.271 L
617.55 266.367 L
619.7 163.302 L
621.85 128.947 L
624 140.398 L
626.15 135.818 L
628.3 209.109 L
630.45 211.399 L
632.6 229.722 L
634.75 266.367 L
636.9 289.271 L
639.05 286.98 L
641.2 257.206 L
643.35 238.883 L
645.5 156.431 L
647.65 135.818 L
649.8 133.527 L
651.95 133.527 L
654.1 124.366 L
656.25 103.753 L
658.4 87.72 L
660.55 78.559 L
662.7 96.882 L
664.85 119.785 L
667 119.785 L
669.15 101.463 L
671.3 174.753 L
673.45 209.109 L
675.6 254.916 L
677.75 284.69 L
679.9 286.98 L
682.05 266.367 L
684.2 245.754 L
686.35 238.883 L
688.5 174.753 L
690.65 140.398 L
692.8 138.108 L
694.95 135.818 L
697.1 225.141 L
699.25 236.593 L
701.4 229.722 L
703.55 234.303 L
705.7 261.787 L
707.85 266.367 L
710 286.98 L
712.15 282.4 L
714.3 202.238 L
716.45 151.85 L
718.6 138.108 L
720.75 112.914 L
722.9 199.947 L
725.05 213.689 L
727.2 241.174 L
729.35 252.625 L
731.5 158.721 L
733.65 128.947 L
735.8 115.205 L
737.95 131.237 L
740.1 220.561 L
742.25 266.367 L
744.4 289.271 L
746.55 286.98 L
748.7 284.69 L
750.85 291.561 L
S
GR
GS
[0.75045 0 0 0.74991 0 -0.46457] CT
0.851 0.325 0.098 RC
1 LJ
1.333 LW
N
107.923 102.851 M
108 102.837 L
110.15 102.456 L
112.3 102.084 L
114.45 101.72 L
116.6 101.118 L
118.75 209.207 L
120.9 249.453 L
123.05 261.596 L
125.2 265.313 L
127.35 266.949 L
129.5 268.128 L
131.65 269.205 L
133.8 270.494 L
135.95 163.076 L
138.1 123.484 L
140.25 111.981 L
142.4 108.641 L
144.55 216.049 L
146.7 256.05 L
148.85 268.027 L
151 271.839 L
153.15 164.891 L
155.3 125.34 L
157.45 113.803 L
159.6 110.419 L
161.75 217.785 L
163.9 257.745 L
166.05 269.681 L
168.2 273.454 L
170.35 166.468 L
172.5 126.88 L
174.65 115.305 L
176.8 111.886 L
178.95 219.217 L
181.1 259.143 L
183.25 271.046 L
185.4 274.539 L
187.55 275.957 L
189.7 276.922 L
191.85 277.791 L
194 278.876 L
196.15 171.259 L
198.3 131.473 L
200.45 119.78 L
202.6 116.502 L
204.75 115.295 L
206.9 114.535 L
209.05 113.867 L
211.2 113.224 L
213.35 112.597 L
215.5 111.985 L
217.65 111.387 L
219.8 110.802 L
221.95 110.232 L
224.1 109.676 L
226.25 109.132 L
228.4 108.602 L
230.55 108.084 L
232.7 107.578 L
234.85 107.084 L
237 106.355 L
239.15 214.319 L
241.3 254.444 L
243.45 266.469 L
245.6 270.318 L
247.75 163.406 L
249.9 123.89 L
252.05 112.386 L
254.2 109.036 L
256.35 216.435 L
258.5 256.427 L
260.65 268.394 L
262.8 271.951 L
264.95 273.429 L
267.1 274.455 L
269.25 275.382 L
271.4 276.277 L
273.55 277.151 L
275.7 278.004 L
277.85 278.837 L
280 279.651 L
282.15 280.445 L
284.3 281.22 L
286.45 281.977 L
288.6 282.716 L
290.75 283.438 L
292.9 284.142 L
295.05 284.83 L
297.2 285.501 L
299.35 286.156 L
301.5 286.796 L
303.65 287.421 L
305.8 288.278 L
307.95 180.438 L
310.1 140.435 L
312.25 128.53 L
314.4 124.797 L
316.55 231.822 L
318.7 271.449 L
320.85 283.061 L
323 286.516 L
325.15 179.22 L
327.3 139.329 L
329.45 127.46 L
331.6 123.999 L
333.75 122.614 L
335.9 121.68 L
338.05 120.842 L
340.2 120.034 L
342.35 119.246 L
344.5 118.475 L
346.65 117.723 L
348.8 116.989 L
350.95 116.272 L
353.1 115.572 L
355.25 114.888 L
357.4 113.974 L
359.55 221.758 L
361.7 261.706 L
363.85 273.559 L
366 276.992 L
368.15 278.351 L
370.3 279.259 L
372.45 280.072 L
374.6 280.856 L
376.75 281.621 L
378.9 282.368 L
381.05 283.098 L
383.2 284.057 L
385.35 176.318 L
387.5 136.412 L
389.65 124.603 L
391.8 121.21 L
393.95 119.892 L
396.1 119.023 L
398.25 118.248 L
400.4 117.501 L
402.55 116.773 L
404.7 116.061 L
406.85 115.366 L
409 114.688 L
411.15 114.025 L
413.3 113.379 L
415.45 112.747 L
417.6 112.131 L
419.75 111.529 L
421.9 110.942 L
424.05 110.368 L
426.2 109.561 L
428.35 217.449 L
430.5 257.5 L
432.65 269.452 L
434.8 272.983 L
436.95 274.437 L
439.1 275.438 L
441.25 276.342 L
443.4 277.214 L
445.55 278.066 L
447.7 278.897 L
449.85 279.709 L
452 280.749 L
454.15 173.088 L
456.3 133.259 L
458.45 121.524 L
460.6 118.205 L
462.75 116.958 L
464.9 116.158 L
467.05 115.451 L
469.2 114.771 L
471.35 114.107 L
473.5 113.459 L
475.65 112.826 L
477.8 111.96 L
479.95 219.792 L
482.1 259.787 L
484.25 271.685 L
486.4 275.41 L
488.55 168.377 L
490.7 128.743 L
492.85 117.124 L
495 113.909 L
497.15 112.763 L
499.3 112.063 L
501.45 111.454 L
503.6 110.621 L
505.75 218.485 L
507.9 258.511 L
510.05 270.439 L
512.2 274.194 L
514.35 167.19 L
516.5 127.584 L
518.65 115.993 L
520.8 112.805 L
522.95 111.685 L
525.1 111.01 L
527.25 110.426 L
529.4 109.865 L
531.55 109.317 L
533.7 108.782 L
535.85 108.26 L
538 107.75 L
540.15 107.252 L
542.3 106.766 L
544.45 106.292 L
546.6 105.582 L
548.75 213.564 L
550.9 253.707 L
553.05 265.749 L
555.2 269.615 L
557.35 162.72 L
559.5 123.22 L
561.65 111.732 L
563.8 108.645 L
565.95 107.624 L
568.1 107.046 L
570.25 106.555 L
572.4 105.839 L
574.55 213.816 L
576.7 253.953 L
578.85 265.99 L
581 269.85 L
583.15 162.949 L
585.3 123.443 L
587.45 111.951 L
589.6 108.858 L
591.75 107.832 L
593.9 107.249 L
596.05 106.754 L
598.2 106.033 L
600.35 214.005 L
602.5 254.138 L
604.65 266.17 L
606.8 269.778 L
608.95 271.308 L
611.1 272.383 L
613.25 273.36 L
615.4 274.55 L
617.55 167.036 L
619.7 127.35 L
621.85 115.755 L
624 112.325 L
626.15 219.647 L
628.3 259.562 L
630.45 271.456 L
632.6 274.939 L
634.75 276.347 L
636.9 277.303 L
639.05 278.163 L
641.2 279.239 L
643.35 171.613 L
645.5 131.819 L
647.65 120.118 L
649.8 116.832 L
651.95 115.617 L
654.1 114.85 L
656.25 114.174 L
658.4 113.524 L
660.55 112.89 L
662.7 112.27 L
664.85 111.665 L
667 110.828 L
669.15 218.686 L
671.3 258.707 L
673.45 270.631 L
675.6 274.133 L
677.75 275.56 L
679.9 276.534 L
682.05 277.412 L
684.2 278.506 L
686.35 170.898 L
688.5 131.121 L
690.65 119.436 L
692.8 115.92 L
694.95 223.156 L
697.1 262.988 L
699.25 274.8 L
701.4 278.204 L
703.55 279.535 L
705.7 280.415 L
707.85 281.201 L
710 282.205 L
712.15 174.509 L
714.3 134.646 L
716.45 122.878 L
718.6 119.28 L
720.75 226.436 L
722.9 266.19 L
725.05 277.927 L
727.2 281.504 L
729.35 174.327 L
731.5 134.552 L
733.65 122.796 L
735.8 119.199 L
737.95 226.357 L
740.1 266.113 L
742.25 277.851 L
744.4 281.183 L
746.55 282.442 L
748.7 283.254 L
750.85 283.972 L
S
GR
GS
[0.75045 0 0 0.74991 0 -0.46457] CT
1 GC
N
742 83 M
742 39 L
647 39 L
647 83 L
cp
f
GR
GS
[0.75045 0 0 0.74991 520.81068 37.67954] CT
/Times-Roman 16.8 F
GS
[1 0 0 1 0 0] CT
0 6 moveto 
1 -1 scale
(Motor) t 
GR
GR
GS
[0.75045 0 0 0.74991 0 -0.46457] CT
0 0.447 0.741 RC
1 LJ
1.333 LW
N
651 50.865 M
691 50.865 L
S
GR
GS
[0.75045 0 0 0.74991 520.81068 52.87989] CT
/Times-Roman 16.8 F
GS
[1 0 0 1 0 0] CT
0 6 moveto 
1 -1 scale
(Model) t 
GR
GR
GS
[0.75045 0 0 0.74991 0 -0.46457] CT
0.851 0.325 0.098 RC
1 LJ
1.333 LW
N
651 71.135 M
691 71.135 L
S
GR
GS
[0.75045 0 0 0.74991 0 -0.46457] CT
0.149 GC
10.0 ML
0.667 LW
N
647 83 M
647 39 L
742 39 L
742 83 L
cp
S
GR
%%Trailer
%%Pages: 1
%%EOF
