%!PS-Adobe-3.0 EPSF-3.0
%%Creator: (MATLAB, The Mathworks, Inc. Version 9.10.0.1669831 \(R2021a\) Update 2. Operating System: Windows 10)
%%Title: C:/Users/becka/Documents/Me_dokumenty/CVUT_FEjL/DIPLOMKA_V2/matlab/simple_experiments/1st_experiment_model/1st_experiment_drawing.eps
%%CreationDate: 2021-08-11T22:52:01
%%Pages: (atend)
%%BoundingBox:     0     0   312   283
%%LanguageLevel: 3
%%EndComments
%%BeginProlog
%%BeginResource: procset (Apache XML Graphics Std ProcSet) 1.2 0
%%Version: 1.2 0
%%Copyright: (Copyright 2001-2003,2010 The Apache Software Foundation. License terms: http://www.apache.org/licenses/LICENSE-2.0)
/bd{bind def}bind def
/ld{load def}bd
/GR/grestore ld
/GS/gsave ld
/RM/rmoveto ld
/C/curveto ld
/t/show ld
/L/lineto ld
/ML/setmiterlimit ld
/CT/concat ld
/f/fill ld
/N/newpath ld
/S/stroke ld
/CC/setcmykcolor ld
/A/ashow ld
/cp/closepath ld
/RC/setrgbcolor ld
/LJ/setlinejoin ld
/GC/setgray ld
/LW/setlinewidth ld
/M/moveto ld
/re {4 2 roll M
1 index 0 rlineto
0 exch rlineto
neg 0 rlineto
cp } bd
/_ctm matrix def
/_tm matrix def
/BT { _ctm currentmatrix pop matrix _tm copy pop 0 0 moveto } bd
/ET { _ctm setmatrix } bd
/iTm { _ctm setmatrix _tm concat } bd
/Tm { _tm astore pop iTm 0 0 moveto } bd
/ux 0.0 def
/uy 0.0 def
/F {
  /Tp exch def
  /Tf exch def
  Tf findfont Tp scalefont setfont
  /cf Tf def  /cs Tp def
} bd
/ULS {currentpoint /uy exch def /ux exch def} bd
/ULE {
  /Tcx currentpoint pop def
  gsave
  newpath
  cf findfont cs scalefont dup
  /FontMatrix get 0 get /Ts exch def /FontInfo get dup
  /UnderlinePosition get Ts mul /To exch def
  /UnderlineThickness get Ts mul /Tt exch def
  ux uy To add moveto  Tcx uy To add lineto
  Tt setlinewidth stroke
  grestore
} bd
/OLE {
  /Tcx currentpoint pop def
  gsave
  newpath
  cf findfont cs scalefont dup
  /FontMatrix get 0 get /Ts exch def /FontInfo get dup
  /UnderlinePosition get Ts mul /To exch def
  /UnderlineThickness get Ts mul /Tt exch def
  ux uy To add cs add moveto Tcx uy To add cs add lineto
  Tt setlinewidth stroke
  grestore
} bd
/SOE {
  /Tcx currentpoint pop def
  gsave
  newpath
  cf findfont cs scalefont dup
  /FontMatrix get 0 get /Ts exch def /FontInfo get dup
  /UnderlinePosition get Ts mul /To exch def
  /UnderlineThickness get Ts mul /Tt exch def
  ux uy To add cs 10 mul 26 idiv add moveto Tcx uy To add cs 10 mul 26 idiv add lineto
  Tt setlinewidth stroke
  grestore
} bd
/QT {
/Y22 exch store
/X22 exch store
/Y21 exch store
/X21 exch store
currentpoint
/Y21 load 2 mul add 3 div exch
/X21 load 2 mul add 3 div exch
/X21 load 2 mul /X22 load add 3 div
/Y21 load 2 mul /Y22 load add 3 div
/X22 load /Y22 load curveto
} bd
/SSPD {
dup length /d exch dict def
{
/v exch def
/k exch def
currentpagedevice k known {
/cpdv currentpagedevice k get def
v cpdv ne {
/upd false def
/nullv v type /nulltype eq def
/nullcpdv cpdv type /nulltype eq def
nullv nullcpdv or
{
/upd true def
} {
/sametype v type cpdv type eq def
sametype {
v type /arraytype eq {
/vlen v length def
/cpdvlen cpdv length def
vlen cpdvlen eq {
0 1 vlen 1 sub {
/i exch def
/obj v i get def
/cpdobj cpdv i get def
obj cpdobj ne {
/upd true def
exit
} if
} for
} {
/upd true def
} ifelse
} {
v type /dicttype eq {
v {
/dv exch def
/dk exch def
/cpddv cpdv dk get def
dv cpddv ne {
/upd true def
exit
} if
} forall
} {
/upd true def
} ifelse
} ifelse
} if
} ifelse
upd true eq {
d k v put
} if
} if
} if
} forall
d length 0 gt {
d setpagedevice
} if
} bd
/RE { % /NewFontName [NewEncodingArray] /FontName RE -
  findfont dup length dict begin
  {
    1 index /FID ne
    {def} {pop pop} ifelse
  } forall
  /Encoding exch def
  /FontName 1 index def
  currentdict definefont pop
  end
} bind def
%%EndResource
%%BeginResource: procset (Apache XML Graphics EPS ProcSet) 1.0 0
%%Version: 1.0 0
%%Copyright: (Copyright 2002-2003 The Apache Software Foundation. License terms: http://www.apache.org/licenses/LICENSE-2.0)
/BeginEPSF { %def
/b4_Inc_state save def         % Save state for cleanup
/dict_count countdictstack def % Count objects on dict stack
/op_count count 1 sub def      % Count objects on operand stack
userdict begin                 % Push userdict on dict stack
/showpage { } def              % Redefine showpage, { } = null proc
0 setgray 0 setlinecap         % Prepare graphics state
1 setlinewidth 0 setlinejoin
10 setmiterlimit [ ] 0 setdash newpath
/languagelevel where           % If level not equal to 1 then
{pop languagelevel             % set strokeadjust and
1 ne                           % overprint to their defaults.
{false setstrokeadjust false setoverprint
} if
} if
} bd
/EndEPSF { %def
count op_count sub {pop} repeat            % Clean up stacks
countdictstack dict_count sub {end} repeat
b4_Inc_state restore
} bd
%%EndResource
%FOPBeginFontDict
%%IncludeResource: font Courier-Oblique
%%IncludeResource: font Courier-BoldOblique
%%IncludeResource: font Courier-Bold
%%IncludeResource: font ZapfDingbats
%%IncludeResource: font Symbol
%%IncludeResource: font Helvetica
%%IncludeResource: font Helvetica-Oblique
%%IncludeResource: font Helvetica-Bold
%%IncludeResource: font Helvetica-BoldOblique
%%IncludeResource: font Times-Roman
%%IncludeResource: font Times-Italic
%%IncludeResource: font Times-Bold
%%IncludeResource: font Times-BoldItalic
%%IncludeResource: font Courier
%FOPEndFontDict
%%BeginResource: encoding WinAnsiEncoding
/WinAnsiEncoding [
/.notdef /.notdef /.notdef /.notdef /.notdef
/.notdef /.notdef /.notdef /.notdef /.notdef
/.notdef /.notdef /.notdef /.notdef /.notdef
/.notdef /.notdef /.notdef /.notdef /.notdef
/.notdef /.notdef /.notdef /.notdef /.notdef
/.notdef /.notdef /.notdef /.notdef /.notdef
/.notdef /.notdef /space /exclam /quotedbl
/numbersign /dollar /percent /ampersand /quotesingle
/parenleft /parenright /asterisk /plus /comma
/hyphen /period /slash /zero /one
/two /three /four /five /six
/seven /eight /nine /colon /semicolon
/less /equal /greater /question /at
/A /B /C /D /E
/F /G /H /I /J
/K /L /M /N /O
/P /Q /R /S /T
/U /V /W /X /Y
/Z /bracketleft /backslash /bracketright /asciicircum
/underscore /quoteleft /a /b /c
/d /e /f /g /h
/i /j /k /l /m
/n /o /p /q /r
/s /t /u /v /w
/x /y /z /braceleft /bar
/braceright /asciitilde /bullet /Euro /bullet
/quotesinglbase /florin /quotedblbase /ellipsis /dagger
/daggerdbl /circumflex /perthousand /Scaron /guilsinglleft
/OE /bullet /Zcaron /bullet /bullet
/quoteleft /quoteright /quotedblleft /quotedblright /bullet
/endash /emdash /asciitilde /trademark /scaron
/guilsinglright /oe /bullet /zcaron /Ydieresis
/space /exclamdown /cent /sterling /currency
/yen /brokenbar /section /dieresis /copyright
/ordfeminine /guillemotleft /logicalnot /sfthyphen /registered
/macron /degree /plusminus /twosuperior /threesuperior
/acute /mu /paragraph /middot /cedilla
/onesuperior /ordmasculine /guillemotright /onequarter /onehalf
/threequarters /questiondown /Agrave /Aacute /Acircumflex
/Atilde /Adieresis /Aring /AE /Ccedilla
/Egrave /Eacute /Ecircumflex /Edieresis /Igrave
/Iacute /Icircumflex /Idieresis /Eth /Ntilde
/Ograve /Oacute /Ocircumflex /Otilde /Odieresis
/multiply /Oslash /Ugrave /Uacute /Ucircumflex
/Udieresis /Yacute /Thorn /germandbls /agrave
/aacute /acircumflex /atilde /adieresis /aring
/ae /ccedilla /egrave /eacute /ecircumflex
/edieresis /igrave /iacute /icircumflex /idieresis
/eth /ntilde /ograve /oacute /ocircumflex
/otilde /odieresis /divide /oslash /ugrave
/uacute /ucircumflex /udieresis /yacute /thorn
/ydieresis
] def
%%EndResource
%FOPBeginFontReencode
/Courier-Oblique findfont
dup length dict begin
  {1 index /FID ne {def} {pop pop} ifelse} forall
  /Encoding WinAnsiEncoding def
  currentdict
end
/Courier-Oblique exch definefont pop
/Courier-BoldOblique findfont
dup length dict begin
  {1 index /FID ne {def} {pop pop} ifelse} forall
  /Encoding WinAnsiEncoding def
  currentdict
end
/Courier-BoldOblique exch definefont pop
/Courier-Bold findfont
dup length dict begin
  {1 index /FID ne {def} {pop pop} ifelse} forall
  /Encoding WinAnsiEncoding def
  currentdict
end
/Courier-Bold exch definefont pop
/Helvetica findfont
dup length dict begin
  {1 index /FID ne {def} {pop pop} ifelse} forall
  /Encoding WinAnsiEncoding def
  currentdict
end
/Helvetica exch definefont pop
/Helvetica-Oblique findfont
dup length dict begin
  {1 index /FID ne {def} {pop pop} ifelse} forall
  /Encoding WinAnsiEncoding def
  currentdict
end
/Helvetica-Oblique exch definefont pop
/Helvetica-Bold findfont
dup length dict begin
  {1 index /FID ne {def} {pop pop} ifelse} forall
  /Encoding WinAnsiEncoding def
  currentdict
end
/Helvetica-Bold exch definefont pop
/Helvetica-BoldOblique findfont
dup length dict begin
  {1 index /FID ne {def} {pop pop} ifelse} forall
  /Encoding WinAnsiEncoding def
  currentdict
end
/Helvetica-BoldOblique exch definefont pop
/Times-Roman findfont
dup length dict begin
  {1 index /FID ne {def} {pop pop} ifelse} forall
  /Encoding WinAnsiEncoding def
  currentdict
end
/Times-Roman exch definefont pop
/Times-Italic findfont
dup length dict begin
  {1 index /FID ne {def} {pop pop} ifelse} forall
  /Encoding WinAnsiEncoding def
  currentdict
end
/Times-Italic exch definefont pop
/Times-Bold findfont
dup length dict begin
  {1 index /FID ne {def} {pop pop} ifelse} forall
  /Encoding WinAnsiEncoding def
  currentdict
end
/Times-Bold exch definefont pop
/Times-BoldItalic findfont
dup length dict begin
  {1 index /FID ne {def} {pop pop} ifelse} forall
  /Encoding WinAnsiEncoding def
  currentdict
end
/Times-BoldItalic exch definefont pop
/Courier findfont
dup length dict begin
  {1 index /FID ne {def} {pop pop} ifelse} forall
  /Encoding WinAnsiEncoding def
  currentdict
end
/Courier exch definefont pop
%FOPEndFontReencode
%%EndProlog
%%Page: 1 1
%%PageBoundingBox: 0 0 312 283
%%BeginPageSetup
[1 0 0 -1 0 283] CT
%%EndPageSetup
GS
[0.74955 0 0 0.74991 0 -0.46457] CT
N
0 0 M
416 0 L
416 378 L
0 378 L
0 0 L
cp
clip
1 GC
N
0 0 416 378 re
f
GR
GS
[0.74955 0 0 0.74991 0 -0.46457] CT
1 GC
N
0 0 416 378 re
f
GR
GS
[0.74955 0 0 0.74991 0 -0.46457] CT
1 GC
N
64 325 M
376 325 L
376 28 L
64 28 L
cp
f
GR
GS
[0.74955 0 0 0.74991 0 -0.46457] CT
0.149 GC
2 setlinecap
1 LJ
0.667 LW
N
64 325 M
376 325 L
S
GR
GS
[0.74955 0 0 0.74991 0 -0.46457] CT
0.149 GC
2 setlinecap
1 LJ
0.667 LW
N
64 28 M
376 28 L
S
GR
GS
[0.74955 0 0 0.74991 0 -0.46457] CT
0.149 GC
2 setlinecap
1 LJ
0.667 LW
N
95.2 325 M
95.2 321.884 L
S
GR
GS
[0.74955 0 0 0.74991 0 -0.46457] CT
0.149 GC
2 setlinecap
1 LJ
0.667 LW
N
157.6 325 M
157.6 321.884 L
S
GR
GS
[0.74955 0 0 0.74991 0 -0.46457] CT
0.149 GC
2 setlinecap
1 LJ
0.667 LW
N
220 325 M
220 321.884 L
S
GR
GS
[0.74955 0 0 0.74991 0 -0.46457] CT
0.149 GC
2 setlinecap
1 LJ
0.667 LW
N
282.4 325 M
282.4 321.884 L
S
GR
GS
[0.74955 0 0 0.74991 0 -0.46457] CT
0.149 GC
2 setlinecap
1 LJ
0.667 LW
N
344.8 325 M
344.8 321.884 L
S
GR
GS
[0.74955 0 0 0.74991 0 -0.46457] CT
0.149 GC
2 setlinecap
1 LJ
0.667 LW
N
95.2 28 M
95.2 31.116 L
S
GR
GS
[0.74955 0 0 0.74991 0 -0.46457] CT
0.149 GC
2 setlinecap
1 LJ
0.667 LW
N
157.6 28 M
157.6 31.116 L
S
GR
GS
[0.74955 0 0 0.74991 0 -0.46457] CT
0.149 GC
2 setlinecap
1 LJ
0.667 LW
N
220 28 M
220 31.116 L
S
GR
GS
[0.74955 0 0 0.74991 0 -0.46457] CT
0.149 GC
2 setlinecap
1 LJ
0.667 LW
N
282.4 28 M
282.4 31.116 L
S
GR
GS
[0.74955 0 0 0.74991 0 -0.46457] CT
0.149 GC
2 setlinecap
1 LJ
0.667 LW
N
344.8 28 M
344.8 31.116 L
S
GR
GS
[0.74955 0 0 0.74991 71.35674 248.05436] CT
0.149 GC
/Times-Roman 18.667 F
GS
[1 0 0 1 0 0] CT
-15 18 moveto 
1 -1 scale
(-0.6) t 
GR
GR
GS
[0.74955 0 0 0.74991 118.12839 248.05436] CT
0.149 GC
/Times-Roman 18.667 F
GS
[1 0 0 1 0 0] CT
-15 18 moveto 
1 -1 scale
(-0.4) t 
GR
GR
GS
[0.74955 0 0 0.74991 164.90005 248.05436] CT
0.149 GC
/Times-Roman 18.667 F
GS
[1 0 0 1 0 0] CT
-15 18 moveto 
1 -1 scale
(-0.2) t 
GR
GR
GS
[0.74955 0 0 0.74991 211.6717 248.05436] CT
0.149 GC
/Times-Roman 18.667 F
GS
[1 0 0 1 0 0] CT
-5 18 moveto 
1 -1 scale
(0) t 
GR
GR
GS
[0.74955 0 0 0.74991 258.44334 248.05436] CT
0.149 GC
/Times-Roman 18.667 F
GS
[1 0 0 1 0 0] CT
-12 18 moveto 
1 -1 scale
(0.2) t 
GR
GR
GS
[0.74955 0 0 0.74991 164.90016 265.00225] CT
0.149 GC
/Times-Roman 20.533 F
GS
[1 0 0 1 0 0] CT
-41.5 19 moveto 
1 -1 scale
(Position x) t 
GR
GR
GS
[0.74955 0 0 0.74991 0 -0.46457] CT
0.149 GC
2 setlinecap
1 LJ
0.667 LW
N
64 325 M
64 28 L
S
GR
GS
[0.74955 0 0 0.74991 0 -0.46457] CT
0.149 GC
2 setlinecap
1 LJ
0.667 LW
N
376 325 M
376 28 L
S
GR
GS
[0.74955 0 0 0.74991 0 -0.46457] CT
0.149 GC
2 setlinecap
1 LJ
0.667 LW
N
64 295.3 M
67.116 295.3 L
S
GR
GS
[0.74955 0 0 0.74991 0 -0.46457] CT
0.149 GC
2 setlinecap
1 LJ
0.667 LW
N
64 235.9 M
67.116 235.9 L
S
GR
GS
[0.74955 0 0 0.74991 0 -0.46457] CT
0.149 GC
2 setlinecap
1 LJ
0.667 LW
N
64 176.5 M
67.116 176.5 L
S
GR
GS
[0.74955 0 0 0.74991 0 -0.46457] CT
0.149 GC
2 setlinecap
1 LJ
0.667 LW
N
64 117.1 M
67.116 117.1 L
S
GR
GS
[0.74955 0 0 0.74991 0 -0.46457] CT
0.149 GC
2 setlinecap
1 LJ
0.667 LW
N
64 57.7 M
67.116 57.7 L
S
GR
GS
[0.74955 0 0 0.74991 0 -0.46457] CT
0.149 GC
2 setlinecap
1 LJ
0.667 LW
N
376 295.3 M
372.884 295.3 L
S
GR
GS
[0.74955 0 0 0.74991 0 -0.46457] CT
0.149 GC
2 setlinecap
1 LJ
0.667 LW
N
376 235.9 M
372.884 235.9 L
S
GR
GS
[0.74955 0 0 0.74991 0 -0.46457] CT
0.149 GC
2 setlinecap
1 LJ
0.667 LW
N
376 176.5 M
372.884 176.5 L
S
GR
GS
[0.74955 0 0 0.74991 0 -0.46457] CT
0.149 GC
2 setlinecap
1 LJ
0.667 LW
N
376 117.1 M
372.884 117.1 L
S
GR
GS
[0.74955 0 0 0.74991 0 -0.46457] CT
0.149 GC
2 setlinecap
1 LJ
0.667 LW
N
376 57.7 M
372.884 57.7 L
S
GR
GS
[0.74955 0 0 0.74991 43.17383 220.98277] CT
0.149 GC
/Times-Roman 18.667 F
GS
[1 0 0 1 0 0] CT
-30 7 moveto 
1 -1 scale
(-0.6) t 
GR
GR
GS
[0.74955 0 0 0.74991 43.17383 176.43833] CT
0.149 GC
/Times-Roman 18.667 F
GS
[1 0 0 1 0 0] CT
-30 7 moveto 
1 -1 scale
(-0.4) t 
GR
GR
GS
[0.74955 0 0 0.74991 43.17383 131.89389] CT
0.149 GC
/Times-Roman 18.667 F
GS
[1 0 0 1 0 0] CT
-30 7 moveto 
1 -1 scale
(-0.2) t 
GR
GR
GS
[0.74955 0 0 0.74991 43.17383 87.34945] CT
0.149 GC
/Times-Roman 18.667 F
GS
[1 0 0 1 0 0] CT
-10 7 moveto 
1 -1 scale
(0) t 
GR
GR
GS
[0.74955 0 0 0.74991 43.17383 42.80502] CT
0.149 GC
/Times-Roman 18.667 F
GS
[1 0 0 1 0 0] CT
-24 7 moveto 
1 -1 scale
(0.2) t 
GR
GR
GS
[0 -0.74991 0.74955 0 17.9891 131.89377] CT
0.149 GC
/Times-Roman 20.533 F
GS
[1 0 0 1 0 0] CT
-41.5 -5 moveto 
1 -1 scale
(Position y) t 
GR
GR
GS
[0.74955 0 0 0.74991 0 -0.46457] CT
0 0.447 0.741 RC
1 LJ
1.333 LW
N
282.4 117.1 M
282.4 117.1 L
282.4 117.1 L
282.4 117.1 L
282.4 117.101 L
282.4 117.102 L
282.399 117.105 L
282.399 117.105 L
282.396 117.111 L
282.394 117.114 L
282.378 117.13 L
282.344 117.155 L
282.282 117.192 L
282.183 117.242 L
282.046 117.308 L
281.871 117.391 L
281.66 117.493 L
281.415 117.614 L
281.133 117.754 L
280.807 117.914 L
280.427 118.092 L
279.986 118.287 L
279.483 118.5 L
278.926 118.732 L
278.326 118.982 L
277.697 119.254 L
277.05 119.55 L
276.39 119.87 L
275.715 120.216 L
275.02 120.588 L
274.303 120.985 L
273.566 121.406 L
272.816 121.85 L
272.062 122.316 L
271.316 122.803 L
270.582 123.311 L
269.86 123.837 L
269.145 124.382 L
268.43 124.945 L
267.71 125.527 L
266.984 126.127 L
266.257 126.746 L
265.533 127.385 L
264.82 128.042 L
264.123 128.717 L
263.443 129.407 L
262.781 130.111 L
262.137 130.827 L
261.509 131.554 L
260.899 132.289 L
260.309 133.032 L
259.741 133.782 L
259.198 134.537 L
258.682 135.297 L
258.195 136.061 L
257.737 136.829 L
257.306 137.6 L
256.898 138.374 L
256.509 139.15 L
256.132 139.928 L
255.762 140.705 L
255.396 141.479 L
255.034 142.248 L
254.677 143.011 L
254.326 143.765 L
253.982 144.511 L
253.643 145.247 L
253.305 145.973 L
252.962 146.69 L
252.61 147.398 L
252.248 148.096 L
251.879 148.783 L
251.507 149.459 L
251.137 150.124 L
250.771 150.777 L
250.409 151.416 L
250.046 152.041 L
249.676 152.65 L
249.294 153.242 L
248.898 153.817 L
248.488 154.376 L
248.066 154.918 L
247.636 155.445 L
247.2 155.957 L
246.757 156.454 L
246.304 156.937 L
245.836 157.406 L
245.35 157.861 L
244.847 158.302 L
244.327 158.728 L
243.794 159.14 L
243.254 159.538 L
242.71 159.921 L
242.165 160.291 L
241.618 160.646 L
241.069 160.988 L
240.519 161.319 L
239.965 161.638 L
239.409 161.948 L
238.851 162.25 L
238.294 162.545 L
237.74 162.833 L
237.19 163.114 L
236.646 163.389 L
236.106 163.658 L
235.569 163.921 L
235.033 164.178 L
234.497 164.431 L
233.959 164.68 L
233.42 164.926 L
232.882 165.171 L
232.348 165.414 L
231.82 165.659 L
231.302 165.905 L
230.791 166.154 L
230.288 166.406 L
229.79 166.663 L
229.294 166.924 L
228.802 167.188 L
228.314 167.458 L
227.832 167.731 L
227.36 168.01 L
226.898 168.295 L
226.446 168.586 L
226 168.885 L
225.556 169.191 L
225.112 169.507 L
224.666 169.832 L
224.217 170.167 L
223.768 170.512 L
223.32 170.868 L
222.875 171.234 L
222.431 171.611 L
221.989 171.998 L
221.545 172.395 L
221.098 172.801 L
220.646 173.217 L
220.19 173.643 L
219.731 174.078 L
219.272 174.524 L
218.814 174.981 L
218.357 175.448 L
217.902 175.926 L
217.446 176.415 L
216.989 176.914 L
216.527 177.423 L
216.061 177.941 L
215.59 178.468 L
215.115 179.002 L
214.637 179.544 L
214.158 180.092 L
213.677 180.647 L
213.194 181.208 L
212.708 181.775 L
212.219 182.348 L
211.725 182.926 L
211.225 183.511 L
210.722 184.101 L
210.215 184.695 L
209.709 185.292 L
209.203 185.893 L
208.7 186.496 L
208.199 187.1 L
207.699 187.704 L
207.198 188.309 L
206.696 188.913 L
206.193 189.517 L
205.689 190.12 L
205.185 190.721 L
204.685 191.321 L
204.187 191.92 L
203.693 192.516 L
203.2 193.11 L
202.707 193.701 L
202.213 194.288 L
201.718 194.871 L
201.22 195.449 L
200.723 196.021 L
200.228 196.588 L
199.736 197.148 L
199.247 197.702 L
198.762 198.25 L
198.278 198.791 L
197.795 199.327 L
197.312 199.856 L
196.83 200.379 L
196.347 200.895 L
195.867 201.405 L
195.39 201.908 L
194.915 202.404 L
194.443 202.893 L
193.973 203.373 L
193.504 203.847 L
193.033 204.312 L
192.561 204.771 L
192.087 205.222 L
191.612 205.667 L
191.137 206.105 L
190.663 206.537 L
190.189 206.964 L
189.716 207.385 L
189.243 207.8 L
188.769 208.21 L
188.293 208.615 L
187.815 209.015 L
187.336 209.41 L
186.856 209.8 L
186.376 210.185 L
185.898 210.566 L
185.42 210.943 L
184.943 211.317 L
184.466 211.689 L
183.988 212.058 L
183.508 212.426 L
183.025 212.792 L
182.541 213.158 L
182.055 213.522 L
181.57 213.886 L
181.085 214.249 L
180.6 214.612 L
180.116 214.975 L
179.63 215.338 L
179.142 215.702 L
178.652 216.067 L
178.161 216.434 L
177.669 216.802 L
177.178 217.173 L
176.687 217.547 L
176.198 217.924 L
175.711 218.304 L
175.224 218.688 L
174.736 219.075 L
174.248 219.466 L
173.76 219.86 L
173.27 220.259 L
172.781 220.66 L
172.293 221.066 L
171.807 221.477 L
171.321 221.891 L
170.837 222.311 L
170.352 222.735 L
169.867 223.164 L
169.381 223.599 L
168.894 224.038 L
168.407 224.483 L
167.92 224.933 L
167.434 225.387 L
166.95 225.846 L
166.467 226.309 L
165.985 226.777 L
165.503 227.249 L
165.021 227.725 L
164.538 228.205 L
164.056 228.69 L
163.573 229.178 L
163.091 229.671 L
162.61 230.168 L
162.13 230.669 L
161.651 231.173 L
161.172 231.68 L
160.693 232.19 L
160.212 232.703 L
159.731 233.218 L
159.248 233.735 L
158.766 234.254 L
158.283 234.775 L
157.802 235.297 L
157.321 235.82 L
156.84 236.345 L
156.359 236.871 L
155.877 237.397 L
155.395 237.924 L
154.911 238.452 L
154.427 238.98 L
153.943 239.507 L
153.46 240.033 L
152.977 240.559 L
152.496 241.084 L
152.014 241.607 L
151.531 242.129 L
151.048 242.649 L
150.564 243.167 L
150.079 243.683 L
149.594 244.198 L
149.108 244.71 L
148.624 245.22 L
148.139 245.728 L
147.655 246.234 L
147.171 246.736 L
146.686 247.236 L
146.2 247.733 L
145.714 248.226 L
145.227 248.716 L
144.741 249.203 L
144.255 249.686 L
143.769 250.166 L
143.285 250.643 L
142.801 251.117 L
142.317 251.588 L
141.832 252.055 L
141.347 252.52 L
140.862 252.981 L
140.376 253.44 L
139.891 253.895 L
139.406 254.347 L
138.922 254.796 L
138.439 255.242 L
137.955 255.685 L
137.472 256.125 L
136.988 256.562 L
136.503 256.997 L
136.018 257.43 L
135.533 257.861 L
135.048 258.29 L
134.564 258.717 L
134.081 259.143 L
133.598 259.566 L
133.116 259.989 L
132.633 260.41 L
132.149 260.829 L
131.665 261.248 L
131.182 261.665 L
130.698 262.082 L
130.215 262.498 L
129.732 262.914 L
129.25 263.329 L
128.767 263.745 L
128.285 264.161 L
127.802 264.577 L
127.319 264.994 L
126.835 265.411 L
126.35 265.829 L
125.866 266.248 L
125.383 266.668 L
124.9 267.089 L
124.417 267.511 L
123.934 267.934 L
123.45 268.358 L
122.967 268.784 L
122.482 269.212 L
121.998 269.641 L
121.513 270.073 L
121.029 270.507 L
120.546 270.942 L
120.062 271.38 L
119.579 271.82 L
119.096 272.261 L
118.612 272.705 L
118.128 273.151 L
117.643 273.599 L
117.158 274.049 L
116.674 274.502 L
116.189 274.956 L
115.705 275.413 L
115.221 275.872 L
114.737 276.333 L
114.253 276.797 L
113.769 277.263 L
113.284 277.731 L
112.799 278.2 L
112.314 278.672 L
111.829 279.146 L
111.345 279.621 L
110.861 280.098 L
110.377 280.576 L
109.893 281.056 L
109.409 281.537 L
108.925 282.02 L
108.441 282.504 L
107.956 282.989 L
107.471 283.476 L
106.987 283.963 L
106.503 284.452 L
106.02 284.941 L
105.536 285.431 L
105.052 285.921 L
104.568 286.412 L
104.084 286.903 L
103.6 287.394 L
103.115 287.885 L
102.631 288.376 L
102.147 288.867 L
101.663 289.355 L
101.182 289.838 L
100.709 290.311 L
100.256 290.769 L
99.84 291.208 L
99.482 291.623 L
99.194 292.01 L
98.984 292.365 L
98.851 292.685 L
98.788 292.966 L
98.795 293.209 L
98.875 293.41 L
99.044 293.573 L
99.321 293.697 L
99.719 293.784 L
100.24 293.835 L
100.871 293.849 L
101.587 293.823 L
102.36 293.752 L
103.17 293.633 L
104.006 293.463 L
104.873 293.24 L
105.778 292.964 L
106.728 292.636 L
107.718 292.258 L
108.735 291.832 L
109.757 291.361 L
110.766 290.847 L
111.749 290.291 L
112.709 289.695 L
113.656 289.061 L
114.602 288.389 L
115.558 287.679 L
116.525 286.931 L
117.496 286.143 L
118.459 285.315 L
119.4 284.45 L
120.311 283.548 L
121.186 282.614 L
122.025 281.651 L
122.831 280.663 L
123.602 279.654 L
124.338 278.626 L
125.034 277.583 L
125.686 276.526 L
126.288 275.457 L
126.835 274.378 L
127.324 273.291 L
127.757 272.197 L
128.135 271.095 L
128.467 269.987 L
128.762 268.875 L
129.031 267.76 L
129.287 266.646 L
129.533 265.538 L
129.773 264.44 L
130.004 263.356 L
130.222 262.289 L
130.426 261.24 L
130.62 260.21 L
130.812 259.2 L
131.014 258.209 L
131.233 257.238 L
131.472 256.288 L
131.727 255.359 L
131.987 254.452 L
132.243 253.57 L
132.491 252.712 L
132.731 251.883 L
132.973 251.083 L
133.229 250.316 L
133.508 249.584 L
133.817 248.886 L
134.153 248.222 L
134.512 247.592 L
134.887 246.995 L
135.275 246.428 L
135.677 245.892 L
136.101 245.384 L
136.553 244.906 L
137.04 244.457 L
137.563 244.038 L
138.118 243.648 L
138.699 243.287 L
139.295 242.956 L
139.899 242.655 L
140.506 242.383 L
141.116 242.139 L
141.728 241.923 L
142.346 241.731 L
142.969 241.562 L
143.598 241.412 L
144.229 241.279 L
144.858 241.161 L
145.482 241.057 L
146.098 240.967 L
146.703 240.89 L
147.299 240.826 L
147.889 240.773 L
148.476 240.732 L
149.064 240.701 L
149.656 240.677 L
150.25 240.66 L
150.842 240.646 L
151.426 240.634 L
151.996 240.62 L
152.549 240.603 L
153.086 240.579 L
153.608 240.549 L
154.121 240.51 L
154.627 240.463 L
155.128 240.407 L
155.62 240.342 L
156.099 240.268 L
156.559 240.183 L
156.998 240.086 L
157.42 239.976 L
157.828 239.851 L
158.23 239.708 L
158.634 239.548 L
159.043 239.368 L
159.456 239.167 L
159.87 238.945 L
160.282 238.702 L
160.689 238.436 L
161.091 238.149 L
161.491 237.842 L
161.895 237.514 L
162.305 237.166 L
162.725 236.798 L
163.153 236.411 L
163.586 236.002 L
164.02 235.572 L
164.453 235.12 L
164.882 234.646 L
165.308 234.15 L
165.736 233.631 L
166.167 233.092 L
166.606 232.532 L
167.054 231.954 L
167.512 231.358 L
167.977 230.745 L
168.449 230.118 L
168.924 229.477 L
169.402 228.822 L
169.883 228.155 L
170.37 227.475 L
170.865 226.783 L
171.369 226.078 L
171.884 225.362 L
172.407 224.635 L
172.935 223.9 L
173.464 223.156 L
173.991 222.407 L
174.513 221.653 L
175.031 220.897 L
175.548 220.139 L
176.065 219.381 L
176.584 218.624 L
177.107 217.868 L
177.631 217.114 L
178.153 216.362 L
178.671 215.614 L
179.181 214.869 L
179.686 214.129 L
180.188 213.393 L
180.689 212.663 L
181.193 211.941 L
181.7 211.229 L
182.21 210.526 L
182.72 209.835 L
183.226 209.156 L
183.726 208.489 L
184.219 207.836 L
184.706 207.195 L
185.189 206.567 L
185.671 205.952 L
186.153 205.35 L
186.634 204.761 L
187.114 204.186 L
187.591 203.624 L
188.062 203.075 L
188.526 202.542 L
188.985 202.024 L
189.441 201.521 L
189.897 201.034 L
190.354 200.563 L
190.814 200.108 L
191.277 199.666 L
191.743 199.239 L
192.209 198.824 L
192.674 198.422 L
193.137 198.032 L
193.599 197.653 L
194.061 197.286 L
194.525 196.93 L
194.992 196.585 L
195.463 196.25 L
195.938 195.926 L
196.413 195.611 L
196.889 195.306 L
197.362 195.01 L
197.833 194.722 L
198.302 194.44 L
198.772 194.164 L
199.244 193.892 L
199.721 193.623 L
200.202 193.357 L
200.687 193.094 L
201.173 192.832 L
201.66 192.572 L
202.146 192.313 L
202.631 192.054 L
203.116 191.795 L
203.604 191.536 L
204.095 191.275 L
204.59 191.013 L
205.088 190.747 L
205.588 190.477 L
206.087 190.202 L
206.583 189.921 L
207.077 189.633 L
207.568 189.339 L
208.058 189.038 L
208.548 188.729 L
209.04 188.413 L
209.534 188.09 L
210.028 187.759 L
210.522 187.42 L
211.013 187.073 L
211.502 186.716 L
211.989 186.351 L
212.474 185.976 L
212.959 185.591 L
213.445 185.195 L
213.934 184.789 L
214.423 184.372 L
214.913 183.945 L
215.402 183.508 L
215.889 183.061 L
216.374 182.604 L
216.856 182.138 L
217.336 181.663 L
217.815 181.18 L
218.295 180.688 L
218.776 180.187 L
219.258 179.677 L
219.739 179.159 L
220.219 178.632 L
220.697 178.098 L
221.173 177.555 L
221.646 177.005 L
222.12 176.448 L
222.594 175.886 L
223.071 175.318 L
223.55 174.745 L
224.03 174.168 L
224.511 173.587 L
224.992 173.003 L
225.471 172.416 L
225.948 171.826 L
226.426 171.234 L
226.903 170.639 L
227.383 170.042 L
227.864 169.444 L
228.347 168.846 L
228.831 168.247 L
229.315 167.649 L
229.797 167.053 L
230.277 166.458 L
230.757 165.865 L
231.236 165.276 L
231.717 164.689 L
232.199 164.107 L
232.684 163.527 L
233.169 162.952 L
233.656 162.38 L
234.142 161.813 L
234.627 161.25 L
235.112 160.692 L
235.596 160.139 L
236.08 159.592 L
236.566 159.051 L
237.053 158.516 L
237.542 157.988 L
238.031 157.467 L
238.52 156.952 L
239.008 156.445 L
239.494 155.944 L
239.979 155.45 L
240.463 154.962 L
240.947 154.481 L
241.432 154.006 L
241.917 153.538 L
242.404 153.076 L
242.891 152.62 L
243.377 152.171 L
243.862 151.728 L
244.346 151.292 L
244.829 150.862 L
245.311 150.438 L
245.794 150.02 L
246.279 149.607 L
246.764 149.2 L
247.25 148.796 L
247.736 148.398 L
248.22 148.003 L
248.704 147.612 L
249.186 147.224 L
249.668 146.84 L
250.149 146.458 L
250.631 146.08 L
251.113 145.704 L
251.597 145.331 L
252.08 144.96 L
252.563 144.591 L
253.046 144.222 L
253.527 143.855 L
254.007 143.488 L
254.487 143.12 L
254.968 142.752 L
255.45 142.383 L
255.933 142.013 L
256.416 141.642 L
256.9 141.27 L
257.384 140.896 L
257.867 140.52 L
258.349 140.142 L
258.831 139.762 L
259.313 139.379 L
259.795 138.994 L
260.279 138.605 L
260.763 138.213 L
261.248 137.817 L
261.732 137.416 L
262.216 137.012 L
262.699 136.604 L
263.182 136.191 L
263.664 135.774 L
264.147 135.352 L
264.63 134.927 L
265.114 134.497 L
265.599 134.062 L
266.085 133.624 L
266.57 133.181 L
267.055 132.733 L
267.539 132.281 L
268.022 131.824 L
268.506 131.362 L
268.99 130.896 L
269.475 130.425 L
269.96 129.95 L
270.446 129.47 L
270.932 128.987 L
271.417 128.5 L
271.902 128.01 L
272.385 127.516 L
272.868 127.02 L
273.352 126.52 L
273.835 126.016 L
274.32 125.511 L
274.804 125.002 L
275.289 124.491 L
275.774 123.977 L
276.259 123.461 L
276.742 122.943 L
277.225 122.424 L
277.708 121.903 L
278.191 121.381 L
278.675 120.859 L
279.16 120.336 L
279.644 119.813 L
280.129 119.29 L
280.613 118.766 L
281.097 118.243 L
281.581 117.721 L
282.063 117.198 L
282.546 116.677 L
283.029 116.156 L
283.512 115.637 L
283.996 115.118 L
284.48 114.602 L
284.964 114.087 L
285.448 113.575 L
285.931 113.064 L
286.414 112.556 L
286.897 112.051 L
287.379 111.548 L
287.863 111.047 L
288.346 110.549 L
288.831 110.054 L
289.315 109.562 L
289.8 109.072 L
290.284 108.585 L
290.767 108.101 L
291.25 107.62 L
291.733 107.143 L
292.217 106.668 L
292.7 106.197 L
293.185 105.729 L
293.669 105.264 L
294.154 104.803 L
294.638 104.344 L
295.122 103.888 L
295.605 103.435 L
296.089 102.985 L
296.572 102.537 L
297.056 102.092 L
297.54 101.65 L
298.024 101.209 L
298.509 100.772 L
298.994 100.336 L
299.478 99.903 L
299.962 99.472 L
300.446 99.043 L
300.929 98.616 L
301.413 98.19 L
301.897 97.766 L
302.382 97.343 L
302.866 96.921 L
303.351 96.5 L
303.836 96.08 L
304.32 95.66 L
304.804 95.241 L
305.287 94.822 L
305.771 94.404 L
306.254 93.986 L
306.738 93.567 L
307.223 93.149 L
307.707 92.731 L
308.192 92.312 L
308.676 91.892 L
309.16 91.471 L
309.643 91.05 L
310.127 90.627 L
310.61 90.203 L
311.094 89.778 L
311.578 89.352 L
312.063 88.924 L
312.547 88.495 L
313.032 88.064 L
313.516 87.631 L
313.999 87.197 L
314.483 86.761 L
314.966 86.323 L
315.45 85.883 L
315.934 85.441 L
316.418 84.997 L
316.902 84.551 L
317.386 84.103 L
317.87 83.652 L
318.354 83.2 L
318.838 82.745 L
319.321 82.288 L
319.805 81.829 L
320.289 81.369 L
320.773 80.906 L
321.257 80.442 L
321.741 79.975 L
322.226 79.507 L
322.71 79.036 L
323.194 78.564 L
323.677 78.09 L
324.161 77.614 L
324.645 77.137 L
325.129 76.658 L
325.613 76.178 L
326.097 75.697 L
326.582 75.214 L
327.066 74.73 L
327.55 74.245 L
328.034 73.76 L
328.518 73.273 L
329.001 72.786 L
329.485 72.298 L
329.969 71.81 L
330.454 71.321 L
330.938 70.831 L
331.422 70.342 L
331.907 69.852 L
332.391 69.362 L
332.875 68.872 L
333.359 68.383 L
333.842 67.893 L
334.326 67.405 L
334.811 66.916 L
335.295 66.429 L
335.779 65.942 L
336.264 65.455 L
336.748 64.97 L
337.232 64.485 L
337.716 64.001 L
338.199 63.518 L
338.683 63.036 L
339.167 62.555 L
339.651 62.075 L
340.136 61.597 L
340.62 61.12 L
341.104 60.644 L
341.588 60.17 L
342.072 59.7 L
342.554 59.236 L
343.027 58.783 L
343.481 58.346 L
343.897 57.929 L
344.255 57.536 L
344.543 57.173 L
344.753 56.841 L
344.887 56.546 L
344.949 56.288 L
344.943 56.07 L
344.863 55.893 L
344.695 55.756 L
344.418 55.657 L
344.02 55.594 L
343.499 55.568 L
342.869 55.579 L
342.153 55.63 L
341.379 55.725 L
340.57 55.867 L
339.733 56.06 L
338.867 56.306 L
337.962 56.603 L
337.012 56.952 L
336.022 57.35 L
335.005 57.794 L
333.983 58.283 L
332.974 58.815 L
331.99 59.387 L
331.031 59.998 L
330.084 60.646 L
329.138 61.331 L
328.182 62.053 L
327.215 62.812 L
326.244 63.61 L
325.281 64.445 L
324.339 65.317 L
323.429 66.225 L
322.554 67.163 L
321.714 68.129 L
320.909 69.119 L
320.138 70.129 L
319.402 71.156 L
318.705 72.198 L
318.053 73.253 L
317.451 74.318 L
316.904 75.391 L
316.414 76.472 L
315.982 77.56 L
315.604 78.653 L
315.273 79.752 L
314.978 80.854 L
314.708 81.958 L
314.453 83.06 L
314.206 84.156 L
313.966 85.24 L
313.735 86.311 L
313.518 87.364 L
313.314 88.398 L
313.12 89.412 L
312.927 90.407 L
312.725 91.382 L
312.506 92.336 L
312.267 93.27 L
312.013 94.182 L
311.753 95.071 L
311.496 95.937 L
311.249 96.777 L
311.008 97.59 L
310.767 98.372 L
310.511 99.123 L
310.232 99.839 L
309.924 100.521 L
309.587 101.169 L
309.228 101.783 L
308.853 102.366 L
308.465 102.918 L
308.063 103.441 L
307.64 103.935 L
307.188 104.4 L
306.701 104.837 L
306.178 105.245 L
305.623 105.624 L
305.042 105.975 L
304.446 106.296 L
303.842 106.589 L
303.235 106.854 L
302.625 107.09 L
302.013 107.301 L
301.395 107.487 L
300.772 107.652 L
300.144 107.799 L
299.513 107.929 L
298.883 108.045 L
298.259 108.148 L
297.644 108.237 L
297.038 108.315 L
296.442 108.381 L
295.853 108.435 L
295.266 108.479 L
294.677 108.514 L
294.085 108.542 L
293.491 108.565 L
292.899 108.584 L
292.315 108.603 L
291.745 108.624 L
291.192 108.649 L
290.656 108.68 L
290.133 108.719 L
289.62 108.766 L
289.114 108.823 L
288.613 108.889 L
288.121 108.964 L
287.642 109.048 L
287.182 109.144 L
286.743 109.252 L
286.322 109.373 L
285.914 109.51 L
285.511 109.664 L
285.107 109.836 L
284.699 110.028 L
284.286 110.24 L
283.871 110.473 L
283.46 110.728 L
283.053 111.004 L
282.651 111.302 L
282.25 111.621 L
281.847 111.959 L
281.436 112.317 L
281.017 112.695 L
280.589 113.092 L
280.155 113.51 L
279.721 113.949 L
279.289 114.409 L
278.86 114.891 L
278.433 115.396 L
278.006 115.921 L
277.575 116.467 L
277.136 117.033 L
276.687 117.616 L
276.23 118.218 L
275.764 118.834 L
275.293 119.466 L
274.818 120.11 L
274.34 120.768 L
273.859 121.437 L
273.372 122.119 L
272.877 122.812 L
272.373 123.517 L
271.858 124.233 L
271.335 124.959 L
270.807 125.694 L
270.278 126.436 L
269.751 127.183 L
269.229 127.934 L
268.711 128.687 L
268.195 129.441 L
267.678 130.195 L
267.158 130.948 L
266.635 131.699 L
266.111 132.448 L
265.589 133.194 L
265.072 133.936 L
264.561 134.675 L
264.056 135.409 L
263.555 136.138 L
263.054 136.86 L
262.55 137.575 L
262.042 138.28 L
261.532 138.975 L
261.022 139.659 L
260.516 140.33 L
260.016 140.989 L
259.523 141.635 L
259.036 142.268 L
258.553 142.888 L
258.071 143.495 L
257.59 144.089 L
257.108 144.671 L
256.628 145.239 L
256.152 145.794 L
255.681 146.335 L
255.216 146.861 L
254.757 147.373 L
254.301 147.869 L
253.846 148.35 L
253.389 148.815 L
252.929 149.265 L
252.465 149.701 L
252 150.123 L
251.534 150.533 L
251.069 150.931 L
250.605 151.317 L
250.143 151.692 L
249.681 152.056 L
249.217 152.409 L
248.75 152.752 L
248.279 153.085 L
247.805 153.407 L
247.329 153.72 L
246.854 154.024 L
246.381 154.32 L
245.91 154.608 L
245.44 154.89 L
244.971 155.167 L
244.498 155.44 L
244.022 155.709 L
243.541 155.977 L
243.056 156.242 L
242.569 156.506 L
242.083 156.769 L
241.597 157.031 L
241.112 157.293 L
240.627 157.555 L
240.139 157.818 L
239.648 158.082 L
239.153 158.349 L
238.655 158.619 L
238.155 158.894 L
237.656 159.173 L
237.159 159.459 L
236.666 159.751 L
236.175 160.051 L
235.685 160.357 L
235.195 160.671 L
234.703 160.992 L
234.209 161.321 L
233.715 161.657 L
233.221 162.001 L
232.729 162.354 L
232.24 162.715 L
231.754 163.086 L
231.269 163.466 L
230.784 163.856 L
230.297 164.256 L
229.809 164.667 L
229.32 165.089 L
228.83 165.52 L
228.341 165.962 L
227.853 166.413 L
227.369 166.874 L
226.887 167.343 L
226.407 167.822 L
225.928 168.308 L
225.448 168.804 L
224.967 169.307 L
224.485 169.82 L
224.004 170.34 L
223.524 170.869 L
223.046 171.406 L
222.57 171.95 L
222.097 172.501 L
221.623 173.059 L
221.149 173.622 L
220.672 174.191 L
220.193 174.764 L
219.713 175.341 L
219.232 175.922 L
218.751 176.505 L
218.272 177.092 L
217.795 177.681 L
217.317 178.272 L
216.84 178.865 L
216.36 179.46 L
215.879 180.056 L
215.396 180.653 L
214.912 181.249 L
214.428 181.845 L
213.946 182.439 L
213.466 183.031 L
212.986 183.621 L
212.507 184.207 L
212.026 184.791 L
211.544 185.37 L
211.06 185.947 L
210.574 186.519 L
210.087 187.087 L
209.601 187.651 L
209.116 188.21 L
208.631 188.765 L
208.147 189.314 L
207.663 189.858 L
207.177 190.395 L
206.69 190.926 L
206.202 191.451 L
205.712 191.968 L
205.223 192.479 L
204.736 192.984 L
204.249 193.481 L
203.765 193.972 L
203.281 194.457 L
202.796 194.935 L
202.312 195.407 L
201.826 195.872 L
201.339 196.332 L
200.852 196.785 L
200.366 197.232 L
199.881 197.673 L
199.397 198.107 L
198.915 198.535 L
198.432 198.957 L
197.949 199.373 L
197.465 199.785 L
196.979 200.191 L
196.494 200.593 L
196.008 200.991 L
195.523 201.385 L
195.039 201.776 L
194.557 202.163 L
194.076 202.548 L
193.595 202.929 L
193.113 203.307 L
192.63 203.683 L
192.147 204.057 L
191.663 204.429 L
191.18 204.799 L
190.698 205.168 L
190.217 205.537 L
189.736 205.906 L
189.256 206.275 L
188.775 206.644 L
188.294 207.015 L
187.811 207.386 L
187.327 207.759 L
186.843 208.133 L
186.359 208.509 L
185.876 208.887 L
185.394 209.267 L
184.912 209.65 L
184.431 210.035 L
183.948 210.423 L
183.465 210.814 L
182.98 211.209 L
182.496 211.607 L
182.011 212.01 L
181.527 212.416 L
181.044 212.827 L
180.562 213.243 L
180.079 213.662 L
179.597 214.086 L
179.113 214.514 L
178.629 214.946 L
178.144 215.382 L
177.659 215.823 L
177.173 216.268 L
176.689 216.718 L
176.205 217.172 L
175.721 217.631 L
175.238 218.094 L
174.754 218.562 L
174.269 219.035 L
173.783 219.511 L
173.298 219.992 L
172.812 220.476 L
172.327 220.964 L
171.842 221.456 L
171.358 221.95 L
170.875 222.448 L
170.392 222.949 L
169.908 223.452 L
169.424 223.958 L
168.939 224.467 L
168.454 224.979 L
167.969 225.493 L
167.485 226.009 L
167.001 226.526 L
166.518 227.045 L
166.035 227.566 L
165.552 228.087 L
165.068 228.608 L
164.584 229.131 L
164.099 229.653 L
163.615 230.175 L
163.13 230.698 L
162.646 231.22 L
162.163 231.741 L
161.68 232.262 L
161.198 232.783 L
160.715 233.302 L
160.231 233.82 L
159.747 234.337 L
159.263 234.852 L
158.779 235.365 L
158.295 235.876 L
157.812 236.385 L
157.329 236.891 L
156.847 237.395 L
156.364 237.896 L
155.881 238.395 L
155.397 238.892 L
154.913 239.385 L
154.428 239.876 L
153.944 240.364 L
153.46 240.849 L
152.977 241.332 L
152.493 241.811 L
152.01 242.287 L
151.527 242.76 L
151.043 243.23 L
150.559 243.697 L
150.075 244.16 L
149.59 244.621 L
149.106 245.078 L
148.622 245.533 L
148.138 245.985 L
147.655 246.434 L
147.172 246.881 L
146.688 247.325 L
146.204 247.767 L
145.719 248.207 L
145.235 248.644 L
144.75 249.079 L
144.266 249.511 L
143.782 249.942 L
143.298 250.371 L
142.814 250.798 L
142.331 251.223 L
141.846 251.648 L
141.362 252.071 L
140.877 252.493 L
140.393 252.914 L
139.908 253.335 L
139.424 253.755 L
138.94 254.174 L
138.456 254.594 L
137.973 255.013 L
137.489 255.431 L
137.005 255.85 L
136.521 256.269 L
136.037 256.688 L
135.552 257.108 L
135.068 257.529 L
134.584 257.95 L
134.1 258.373 L
133.617 258.796 L
133.133 259.221 L
132.65 259.647 L
132.165 260.075 L
131.681 260.504 L
131.197 260.934 L
130.712 261.366 L
130.228 261.8 L
129.744 262.235 L
129.261 262.672 L
128.777 263.111 L
128.294 263.552 L
127.81 263.995 L
127.326 264.44 L
126.842 264.888 L
126.358 265.337 L
125.873 265.788 L
125.39 266.242 L
124.906 266.698 L
124.422 267.155 L
123.939 267.615 L
123.455 268.076 L
122.971 268.54 L
122.487 269.005 L
122.003 269.472 L
121.518 269.941 L
121.034 270.412 L
120.55 270.885 L
120.066 271.359 L
119.583 271.836 L
119.099 272.313 L
118.615 272.792 L
118.131 273.273 L
117.647 273.755 L
117.162 274.237 L
116.678 274.721 L
116.194 275.206 L
115.71 275.692 L
115.226 276.178 L
114.742 276.665 L
114.259 277.153 L
113.775 277.641 L
113.29 278.13 L
112.806 278.619 L
112.321 279.108 L
111.837 279.598 L
111.353 280.087 L
110.869 280.576 L
110.385 281.065 L
109.901 281.554 L
109.417 282.042 L
108.933 282.53 L
108.449 283.017 L
107.964 283.503 L
107.48 283.989 L
106.996 284.474 L
106.512 284.958 L
106.028 285.441 L
105.544 285.924 L
105.061 286.405 L
104.577 286.885 L
104.092 287.364 L
103.608 287.842 L
103.124 288.318 L
102.639 288.793 L
102.155 289.266 L
101.672 289.736 L
101.19 290.199 L
100.717 290.651 L
100.263 291.088 L
99.847 291.504 L
99.488 291.896 L
99.201 292.259 L
98.991 292.59 L
98.857 292.885 L
98.795 293.142 L
98.8 293.359 L
98.88 293.535 L
99.049 293.672 L
99.326 293.771 L
99.724 293.833 L
100.245 293.859 L
100.875 293.848 L
101.591 293.797 L
102.365 293.702 L
103.174 293.559 L
104.01 293.366 L
104.877 293.12 L
105.782 292.822 L
106.732 292.474 L
107.722 292.076 L
108.739 291.632 L
109.761 291.143 L
110.77 290.611 L
111.753 290.039 L
112.713 289.428 L
113.66 288.78 L
114.606 288.095 L
115.562 287.374 L
116.529 286.615 L
117.5 285.818 L
118.463 284.983 L
119.404 284.111 L
120.315 283.204 L
121.19 282.266 L
122.03 281.3 L
122.835 280.311 L
123.606 279.301 L
124.342 278.275 L
125.039 277.233 L
125.691 276.179 L
126.293 275.115 L
126.84 274.041 L
127.329 272.961 L
127.762 271.874 L
128.14 270.781 L
128.471 269.683 L
128.766 268.581 L
129.036 267.477 L
129.291 266.376 L
129.538 265.281 L
129.778 264.197 L
130.008 263.127 L
130.226 262.074 L
130.43 261.041 L
130.624 260.026 L
130.817 259.032 L
131.018 258.058 L
131.238 257.104 L
131.477 256.171 L
131.731 255.259 L
131.991 254.37 L
132.248 253.504 L
132.495 252.664 L
132.735 251.852 L
132.977 251.07 L
133.233 250.32 L
133.512 249.603 L
133.82 248.921 L
134.157 248.274 L
134.516 247.66 L
134.891 247.077 L
135.279 246.525 L
135.681 246.002 L
136.104 245.508 L
136.556 245.043 L
137.042 244.606 L
137.566 244.198 L
138.121 243.819 L
138.702 243.468 L
139.298 243.146 L
139.902 242.853 L
140.509 242.589 L
141.119 242.352 L
141.731 242.141 L
142.349 241.954 L
142.972 241.789 L
143.6 241.642 L
144.231 241.512 L
144.861 241.396 L
145.485 241.293 L
146.1 241.203 L
146.706 241.125 L
147.302 241.059 L
147.891 241.004 L
148.478 240.96 L
149.067 240.924 L
149.659 240.896 L
150.253 240.873 L
150.845 240.853 L
151.428 240.834 L
151.999 240.813 L
152.552 240.788 L
153.088 240.756 L
153.611 240.717 L
154.124 240.669 L
154.63 240.612 L
155.131 240.546 L
155.623 240.471 L
156.102 240.386 L
156.562 240.29 L
157.001 240.182 L
157.422 240.06 L
157.83 239.923 L
158.233 239.769 L
158.637 239.596 L
159.045 239.405 L
159.458 239.192 L
159.873 238.959 L
160.284 238.704 L
160.691 238.427 L
161.093 238.129 L
161.494 237.811 L
161.897 237.472 L
162.308 237.114 L
162.727 236.736 L
163.155 236.339 L
163.589 235.921 L
164.023 235.483 L
164.455 235.022 L
164.884 234.54 L
165.311 234.036 L
165.738 233.51 L
166.169 232.965 L
166.608 232.399 L
167.057 231.815 L
167.514 231.214 L
167.98 230.598 L
168.451 229.966 L
168.926 229.322 L
169.404 228.665 L
169.885 227.996 L
170.372 227.314 L
170.867 226.621 L
171.371 225.916 L
171.886 225.2 L
172.409 224.475 L
172.937 223.74 L
173.466 222.999 L
173.993 222.252 L
174.515 221.501 L
175.033 220.748 L
175.549 219.994 L
176.066 219.24 L
176.586 218.488 L
177.109 217.737 L
177.633 216.988 L
178.155 216.243 L
178.672 215.5 L
179.183 214.762 L
179.688 214.028 L
180.189 213.299 L
180.69 212.577 L
181.194 211.863 L
181.702 211.157 L
182.212 210.462 L
182.722 209.779 L
183.228 209.108 L
183.728 208.449 L
184.221 207.804 L
184.708 207.171 L
185.191 206.551 L
185.673 205.944 L
186.154 205.35 L
186.636 204.768 L
187.116 204.2 L
187.592 203.645 L
188.063 203.104 L
188.528 202.578 L
188.987 202.066 L
189.443 201.57 L
189.898 201.09 L
190.355 200.625 L
190.815 200.174 L
191.279 199.738 L
191.744 199.316 L
192.21 198.906 L
192.675 198.508 L
193.139 198.122 L
193.601 197.747 L
194.063 197.383 L
194.526 197.029 L
194.994 196.686 L
195.465 196.354 L
195.939 196.031 L
196.415 195.718 L
196.89 195.414 L
197.363 195.118 L
197.834 194.83 L
198.304 194.548 L
198.773 194.271 L
199.246 193.998 L
199.722 193.728 L
200.203 193.46 L
200.688 193.195 L
201.175 192.931 L
201.661 192.668 L
202.147 192.406 L
202.632 192.144 L
203.117 191.881 L
203.605 191.618 L
204.096 191.354 L
204.591 191.087 L
205.089 190.816 L
205.589 190.542 L
206.088 190.262 L
206.585 189.976 L
207.078 189.684 L
207.569 189.384 L
208.059 189.078 L
208.549 188.764 L
209.041 188.442 L
209.535 188.114 L
210.029 187.777 L
210.523 187.433 L
211.015 187.08 L
211.504 186.719 L
211.99 186.349 L
212.475 185.968 L
212.96 185.578 L
213.447 185.178 L
213.935 184.767 L
214.424 184.345 L
214.914 183.914 L
215.403 183.472 L
215.891 183.021 L
216.375 182.56 L
216.857 182.09 L
217.337 181.612 L
217.816 181.126 L
218.296 180.63 L
218.777 180.127 L
219.259 179.615 L
219.74 179.094 L
220.22 178.565 L
220.698 178.028 L
221.174 177.484 L
221.647 176.933 L
222.121 176.376 L
222.595 175.812 L
223.072 175.244 L
223.551 174.67 L
224.031 174.093 L
224.512 173.513 L
224.993 172.93 L
225.472 172.343 L
225.949 171.754 L
226.427 171.163 L
226.904 170.57 L
227.384 169.975 L
227.865 169.379 L
228.348 168.783 L
228.832 168.187 L
229.316 167.591 L
229.798 166.997 L
230.278 166.405 L
230.758 165.816 L
231.237 165.229 L
231.718 164.646 L
232.2 164.066 L
232.684 163.49 L
233.17 162.918 L
233.657 162.35 L
234.143 161.786 L
234.628 161.227 L
235.113 160.672 L
235.597 160.123 L
236.081 159.58 L
236.567 159.042 L
237.054 158.511 L
237.542 157.987 L
238.032 157.469 L
238.52 156.958 L
239.008 156.454 L
239.495 155.956 L
239.979 155.465 L
240.463 154.981 L
240.948 154.503 L
241.432 154.031 L
241.918 153.565 L
242.405 153.105 L
242.892 152.652 L
243.378 152.205 L
243.863 151.765 L
244.347 151.331 L
244.829 150.903 L
245.312 150.48 L
245.795 150.064 L
246.279 149.653 L
246.765 149.246 L
247.25 148.844 L
247.736 148.446 L
248.221 148.052 L
248.705 147.661 L
249.187 147.274 L
249.668 146.889 L
250.149 146.508 L
250.631 146.129 L
251.114 145.753 L
251.597 145.38 L
252.081 145.008 L
252.564 144.637 L
253.046 144.268 L
253.527 143.899 L
254.008 143.53 L
254.488 143.161 L
254.969 142.792 L
255.45 142.421 L
255.933 142.05 L
256.417 141.677 L
256.901 141.302 L
257.385 140.926 L
257.868 140.548 L
258.35 140.168 L
258.832 139.786 L
259.313 139.401 L
259.796 139.013 L
260.279 138.622 L
260.763 138.227 L
261.248 137.828 L
261.733 137.426 L
262.217 137.019 L
262.7 136.608 L
263.182 136.193 L
263.665 135.773 L
264.147 135.349 L
264.631 134.921 L
265.115 134.489 L
265.6 134.053 L
266.085 133.612 L
266.57 133.167 L
267.055 132.717 L
267.539 132.263 L
268.023 131.804 L
268.506 131.341 L
268.99 130.873 L
269.475 130.4 L
269.961 129.924 L
270.446 129.443 L
270.932 128.959 L
271.417 128.471 L
271.902 127.98 L
272.386 127.485 L
272.869 126.987 L
273.352 126.487 L
273.836 125.983 L
274.32 125.477 L
274.805 124.968 L
275.29 124.456 L
275.775 123.943 L
276.259 123.427 L
276.743 122.909 L
277.226 122.39 L
277.709 121.87 L
278.192 121.349 L
278.676 120.827 L
279.16 120.305 L
279.645 119.783 L
280.129 119.26 L
280.614 118.738 L
281.098 118.216 L
281.581 117.695 L
282.064 117.174 L
282.546 116.654 L
283.029 116.134 L
283.513 115.616 L
283.997 115.099 L
284.481 114.585 L
284.965 114.071 L
285.449 113.56 L
285.932 113.052 L
286.414 112.545 L
286.897 112.041 L
287.38 111.54 L
287.863 111.041 L
288.347 110.545 L
288.831 110.051 L
289.315 109.561 L
289.8 109.072 L
290.284 108.587 L
290.767 108.105 L
291.25 107.626 L
291.734 107.149 L
292.217 106.677 L
292.701 106.207 L
293.185 105.74 L
293.669 105.277 L
294.154 104.816 L
294.638 104.359 L
295.122 103.904 L
295.606 103.452 L
296.089 103.003 L
296.572 102.556 L
297.056 102.111 L
297.54 101.67 L
298.025 101.23 L
298.509 100.793 L
298.994 100.358 L
299.478 99.925 L
299.962 99.495 L
300.446 99.066 L
300.93 98.639 L
301.413 98.213 L
301.898 97.789 L
302.382 97.366 L
302.867 96.944 L
303.351 96.522 L
303.836 96.102 L
304.32 95.681 L
304.804 95.262 L
305.288 94.843 L
305.771 94.424 L
306.255 94.005 L
306.739 93.586 L
307.223 93.167 L
307.707 92.747 L
308.192 92.328 L
308.676 91.907 L
309.16 91.485 L
309.644 91.063 L
310.127 90.639 L
310.611 90.214 L
311.094 89.788 L
311.579 89.361 L
312.063 88.932 L
312.547 88.501 L
313.032 88.069 L
313.516 87.636 L
314 87.2 L
314.483 86.763 L
314.966 86.324 L
315.45 85.883 L
315.934 85.44 L
316.418 84.995 L
316.902 84.548 L
317.386 84.099 L
317.871 83.647 L
318.354 83.194 L
318.838 82.738 L
319.322 82.28 L
319.805 81.821 L
320.289 81.359 L
320.773 80.896 L
321.257 80.43 L
321.741 79.963 L
322.226 79.494 L
322.71 79.023 L
323.194 78.551 L
323.678 78.076 L
324.161 77.6 L
324.645 77.122 L
325.129 76.643 L
325.613 76.163 L
326.097 75.681 L
326.582 75.198 L
327.066 74.715 L
327.55 74.23 L
328.034 73.744 L
328.518 73.258 L
329.002 72.771 L
329.485 72.283 L
329.969 71.795 L
330.454 71.306 L
330.938 70.817 L
331.423 70.328 L
331.907 69.838 L
332.391 69.349 L
332.875 68.86 L
333.359 68.371 L
333.843 67.882 L
334.327 67.394 L
334.811 66.906 L
335.295 66.419 L
335.78 65.933 L
336.264 65.447 L
336.748 64.962 L
337.232 64.478 L
337.716 63.995 L
338.2 63.512 L
338.683 63.031 L
339.167 62.551 L
339.652 62.072 L
340.136 61.595 L
340.62 61.118 L
341.105 60.643 L
341.589 60.17 L
342.072 59.701 L
342.554 59.237 L
343.027 58.785 L
343.481 58.349 L
343.897 57.932 L
344.256 57.541 L
344.543 57.178 L
344.753 56.847 L
344.887 56.552 L
344.949 56.295 L
344.944 56.077 L
344.864 55.901 L
344.695 55.764 L
344.418 55.665 L
344.02 55.603 L
343.499 55.577 L
342.869 55.588 L
342.153 55.64 L
341.379 55.734 L
340.57 55.877 L
339.734 56.071 L
338.867 56.316 L
337.962 56.614 L
337.012 56.962 L
336.022 57.36 L
335.005 57.804 L
333.983 58.293 L
332.974 58.825 L
331.991 59.397 L
331.031 60.008 L
330.084 60.656 L
329.138 61.341 L
328.182 62.062 L
327.215 62.821 L
326.244 63.618 L
325.281 64.453 L
324.339 65.325 L
323.429 66.232 L
322.554 67.17 L
321.714 68.136 L
320.909 69.125 L
320.138 70.135 L
319.402 71.161 L
318.705 72.203 L
318.053 73.257 L
317.451 74.321 L
316.904 75.394 L
316.415 76.475 L
315.982 77.562 L
315.604 78.655 L
315.273 79.753 L
314.978 80.855 L
314.708 81.959 L
314.453 83.06 L
314.206 84.155 L
313.966 85.239 L
313.736 86.309 L
313.518 87.362 L
313.314 88.395 L
313.12 89.409 L
312.927 90.404 L
312.726 91.378 L
312.506 92.332 L
312.267 93.265 L
312.013 94.177 L
311.753 95.066 L
311.496 95.932 L
311.249 96.771 L
311.009 97.584 L
310.767 98.366 L
310.511 99.116 L
310.232 99.833 L
309.924 100.514 L
309.587 101.162 L
309.228 101.776 L
308.853 102.359 L
308.465 102.911 L
308.063 103.434 L
307.64 103.928 L
307.188 104.393 L
306.702 104.83 L
306.178 105.238 L
305.623 105.617 L
305.042 105.968 L
304.446 106.29 L
303.842 106.583 L
303.235 106.847 L
302.625 107.084 L
302.013 107.295 L
301.395 107.482 L
300.772 107.647 L
300.144 107.794 L
299.513 107.924 L
298.883 108.04 L
298.259 108.143 L
297.644 108.234 L
297.038 108.311 L
296.442 108.377 L
295.853 108.432 L
295.266 108.476 L
294.677 108.512 L
294.085 108.54 L
293.491 108.563 L
292.899 108.583 L
292.316 108.602 L
291.745 108.623 L
291.192 108.648 L
290.656 108.68 L
290.133 108.719 L
289.62 108.767 L
289.114 108.824 L
288.613 108.89 L
288.121 108.966 L
287.642 109.051 L
287.182 109.146 L
286.743 109.254 L
286.322 109.376 L
285.914 109.513 L
285.511 109.667 L
285.107 109.84 L
284.699 110.031 L
284.286 110.244 L
283.871 110.477 L
283.46 110.732 L
283.053 111.009 L
282.651 111.307 L
282.25 111.625 L
281.847 111.964 L
281.436 112.322 L
281.017 112.7 L
280.589 113.097 L
280.155 113.515 L
279.721 113.953 L
279.289 114.414 L
278.86 114.896 L
278.433 115.4 L
278.006 115.926 L
277.575 116.471 L
277.136 117.037 L
276.688 117.621 L
276.23 118.222 L
275.764 118.838 L
275.293 119.47 L
274.818 120.114 L
274.34 120.771 L
273.859 121.44 L
273.372 122.122 L
272.877 122.815 L
272.373 123.52 L
271.858 124.236 L
271.335 124.961 L
270.807 125.696 L
270.278 126.437 L
269.751 127.184 L
269.229 127.935 L
268.711 128.688 L
268.195 129.442 L
267.678 130.195 L
267.158 130.948 L
266.635 131.699 L
266.111 132.448 L
265.589 133.193 L
265.072 133.935 L
264.561 134.674 L
264.056 135.408 L
263.555 136.137 L
263.054 136.859 L
262.55 137.573 L
262.042 138.279 L
261.532 138.973 L
261.022 139.657 L
260.516 140.328 L
260.016 140.987 L
259.523 141.632 L
259.036 142.265 L
258.553 142.885 L
258.071 143.492 L
257.59 144.086 L
257.108 144.668 L
256.628 145.236 L
256.152 145.791 L
255.681 146.332 L
255.216 146.858 L
254.757 147.37 L
254.301 147.866 L
253.846 148.346 L
253.389 148.811 L
252.929 149.262 L
252.465 149.698 L
252 150.12 L
251.534 150.53 L
251.069 150.928 L
250.605 151.314 L
250.143 151.689 L
249.681 152.053 L
249.218 152.407 L
248.75 152.75 L
248.279 153.082 L
247.805 153.405 L
247.329 153.718 L
246.854 154.022 L
246.381 154.318 L
245.91 154.606 L
245.44 154.888 L
244.971 155.165 L
244.498 155.438 L
244.022 155.708 L
243.541 155.976 L
243.056 156.241 L
242.569 156.505 L
242.083 156.768 L
241.597 157.03 L
241.112 157.292 L
240.627 157.555 L
240.139 157.818 L
239.648 158.082 L
239.153 158.35 L
238.655 158.62 L
238.155 158.894 L
237.656 159.174 L
237.159 159.46 L
236.666 159.752 L
236.175 160.052 L
235.685 160.358 L
235.195 160.672 L
234.703 160.994 L
234.209 161.322 L
233.715 161.659 L
233.221 162.003 L
232.729 162.356 L
232.24 162.717 L
231.754 163.088 L
231.269 163.468 L
230.784 163.858 L
230.297 164.258 L
229.809 164.669 L
229.32 165.091 L
228.83 165.522 L
228.341 165.964 L
227.853 166.415 L
227.369 166.876 L
226.887 167.346 L
226.407 167.824 L
225.928 168.31 L
225.448 168.806 L
224.967 169.309 L
224.485 169.822 L
224.004 170.342 L
223.524 170.871 L
223.046 171.408 L
222.57 171.952 L
222.097 172.503 L
221.623 173.06 L
221.149 173.624 L
220.672 174.192 L
220.193 174.766 L
219.713 175.343 L
219.232 175.923 L
218.751 176.506 L
218.272 177.093 L
217.795 177.682 L
217.317 178.273 L
216.84 178.866 L
216.36 179.461 L
215.879 180.057 L
215.396 180.653 L
214.912 181.249 L
214.428 181.845 L
213.946 182.439 L
213.466 183.031 L
212.986 183.62 L
212.507 184.207 L
212.026 184.79 L
211.544 185.37 L
211.06 185.946 L
210.574 186.518 L
210.087 187.086 L
209.601 187.65 L
209.116 188.209 L
208.631 188.764 L
208.147 189.313 L
207.663 189.856 L
207.177 190.394 L
206.69 190.925 L
206.202 191.449 L
205.712 191.967 L
205.224 192.478 L
204.736 192.982 L
204.249 193.48 L
203.765 193.971 L
203.281 194.455 L
202.796 194.933 L
202.312 195.405 L
201.826 195.871 L
201.339 196.33 L
200.852 196.784 L
200.366 197.231 L
199.881 197.671 L
199.397 198.105 L
198.915 198.533 L
198.432 198.956 L
197.949 199.372 L
197.465 199.783 L
196.979 200.19 L
196.494 200.592 L
196.008 200.99 L
195.523 201.384 L
195.039 201.775 L
194.557 202.162 L
194.076 202.547 L
193.595 202.928 L
193.113 203.307 L
192.63 203.683 L
192.147 204.057 L
191.663 204.428 L
191.18 204.799 L
190.698 205.168 L
190.217 205.537 L
189.736 205.906 L
189.256 206.275 L
188.775 206.644 L
188.294 207.015 L
187.811 207.386 L
187.327 207.759 L
186.843 208.134 L
186.359 208.51 L
185.876 208.888 L
185.394 209.268 L
184.912 209.65 L
184.431 210.035 L
183.948 210.423 L
183.465 210.815 L
182.981 211.209 L
182.496 211.608 L
182.011 212.01 L
181.527 212.417 L
181.044 212.828 L
180.562 213.243 L
180.079 213.663 L
179.597 214.087 L
179.113 214.515 L
178.629 214.947 L
178.144 215.383 L
177.659 215.824 L
177.173 216.269 L
176.689 216.719 L
176.205 217.173 L
175.721 217.632 L
175.238 218.095 L
174.754 218.563 L
174.269 219.036 L
173.783 219.512 L
173.298 219.993 L
172.812 220.477 L
172.327 220.965 L
171.842 221.456 L
171.358 221.951 L
170.875 222.449 L
170.392 222.949 L
169.908 223.453 L
169.424 223.959 L
168.939 224.468 L
168.454 224.98 L
167.969 225.493 L
167.485 226.009 L
167.001 226.527 L
166.518 227.046 L
166.035 227.566 L
165.552 228.087 L
165.068 228.609 L
164.584 229.131 L
164.099 229.653 L
163.615 230.176 L
163.13 230.698 L
162.646 231.22 L
162.163 231.741 L
161.68 232.262 L
161.198 232.782 L
160.715 233.302 L
160.231 233.82 L
159.747 234.336 L
159.263 234.851 L
158.779 235.365 L
158.295 235.876 L
157.812 236.384 L
157.329 236.891 L
156.847 237.395 L
156.364 237.896 L
155.881 238.395 L
155.397 238.891 L
154.913 239.385 L
154.428 239.875 L
153.944 240.364 L
153.46 240.849 L
152.977 241.331 L
152.493 241.81 L
152.01 242.286 L
151.527 242.759 L
151.043 243.229 L
150.559 243.696 L
150.075 244.159 L
149.59 244.62 L
149.106 245.077 L
148.622 245.532 L
148.138 245.984 L
147.655 246.433 L
147.172 246.88 L
146.688 247.325 L
146.204 247.766 L
145.719 248.206 L
145.235 248.643 L
144.75 249.078 L
144.266 249.511 L
143.782 249.941 L
143.298 250.37 L
142.814 250.797 L
142.331 251.223 L
141.846 251.647 L
141.362 252.07 L
140.877 252.492 L
140.393 252.914 L
139.908 253.334 L
139.424 253.755 L
138.94 254.174 L
138.456 254.593 L
137.973 255.012 L
137.489 255.431 L
137.005 255.85 L
136.521 256.269 L
136.037 256.689 L
135.552 257.108 L
135.068 257.529 L
134.584 257.951 L
134.1 258.373 L
133.617 258.797 L
133.133 259.222 L
132.65 259.648 L
132.165 260.075 L
131.681 260.504 L
131.197 260.935 L
130.712 261.367 L
130.228 261.8 L
129.744 262.236 L
129.261 262.673 L
128.778 263.112 L
128.294 263.553 L
127.81 263.996 L
127.326 264.441 L
126.842 264.888 L
126.358 265.337 L
125.873 265.789 L
125.39 266.242 L
124.906 266.698 L
124.422 267.156 L
123.939 267.615 L
123.455 268.077 L
122.971 268.54 L
122.487 269.006 L
122.003 269.473 L
121.518 269.942 L
121.034 270.413 L
120.55 270.885 L
120.066 271.36 L
119.583 271.836 L
119.099 272.314 L
118.615 272.793 L
118.131 273.273 L
117.647 273.755 L
117.162 274.238 L
116.678 274.721 L
116.194 275.206 L
115.71 275.692 L
115.226 276.178 L
114.742 276.665 L
114.259 277.153 L
113.775 277.641 L
113.29 278.13 L
112.806 278.619 L
112.321 279.108 L
111.837 279.598 L
111.353 280.087 L
110.869 280.576 L
110.385 281.065 L
109.901 281.554 L
109.417 282.042 L
108.933 282.53 L
108.449 283.017 L
107.964 283.503 L
107.48 283.989 L
106.996 284.474 L
106.512 284.958 L
106.028 285.441 L
105.544 285.924 L
105.061 286.405 L
104.577 286.885 L
104.092 287.364 L
103.608 287.841 L
103.124 288.318 L
102.639 288.793 L
102.155 289.266 L
101.672 289.735 L
101.19 290.199 L
100.717 290.651 L
100.263 291.087 L
99.847 291.504 L
99.488 291.895 L
99.201 292.258 L
98.991 292.589 L
98.857 292.884 L
98.795 293.142 L
98.8 293.359 L
98.88 293.535 L
99.049 293.672 L
99.326 293.771 L
99.724 293.833 L
100.245 293.859 L
100.875 293.848 L
101.591 293.796 L
102.365 293.702 L
103.174 293.559 L
104.01 293.365 L
104.877 293.12 L
105.782 292.822 L
106.732 292.474 L
107.722 292.076 L
108.739 291.632 L
109.761 291.143 L
110.77 290.611 L
111.753 290.039 L
112.713 289.428 L
113.66 288.78 L
114.606 288.095 L
115.562 287.374 L
116.529 286.615 L
117.5 285.818 L
118.463 284.983 L
119.405 284.111 L
120.315 283.204 L
121.19 282.266 L
122.03 281.3 L
122.835 280.311 L
123.606 279.301 L
124.342 278.275 L
125.039 277.233 L
125.691 276.179 L
126.293 275.115 L
126.84 274.042 L
127.329 272.961 L
127.762 271.874 L
128.14 270.781 L
128.471 269.683 L
128.766 268.581 L
129.036 267.477 L
129.291 266.376 L
129.538 265.281 L
129.778 264.197 L
130.008 263.127 L
130.226 262.074 L
130.43 261.041 L
130.624 260.027 L
130.817 259.032 L
131.018 258.058 L
131.238 257.104 L
131.477 256.171 L
131.731 255.259 L
131.991 254.37 L
132.248 253.504 L
132.495 252.665 L
132.735 251.852 L
132.977 251.07 L
133.233 250.32 L
133.512 249.603 L
133.82 248.922 L
134.157 248.274 L
134.516 247.66 L
134.891 247.077 L
135.279 246.525 L
135.681 246.002 L
136.104 245.508 L
136.556 245.043 L
137.042 244.606 L
137.566 244.198 L
138.121 243.819 L
138.702 243.468 L
139.298 243.146 L
139.902 242.853 L
140.509 242.589 L
141.119 242.352 L
141.731 242.141 L
142.349 241.954 L
142.972 241.789 L
143.6 241.642 L
144.231 241.512 L
144.861 241.396 L
145.485 241.293 L
146.1 241.202 L
146.706 241.125 L
147.302 241.059 L
147.891 241.004 L
148.478 240.96 L
149.067 240.924 L
149.659 240.896 L
150.253 240.873 L
150.845 240.853 L
151.428 240.834 L
151.999 240.813 L
152.552 240.788 L
153.088 240.756 L
153.611 240.717 L
154.124 240.669 L
154.63 240.612 L
155.131 240.546 L
155.623 240.47 L
156.102 240.385 L
156.562 240.29 L
157.001 240.182 L
157.422 240.06 L
157.83 239.923 L
158.233 239.769 L
158.637 239.596 L
159.045 239.405 L
159.458 239.192 L
159.873 238.959 L
160.284 238.704 L
160.691 238.427 L
161.093 238.129 L
161.494 237.811 L
161.897 237.472 L
162.308 237.114 L
162.727 236.736 L
163.155 236.339 L
163.589 235.921 L
164.023 235.483 L
164.455 235.022 L
164.884 234.54 L
165.311 234.036 L
165.738 233.51 L
166.169 232.965 L
166.608 232.399 L
167.057 231.815 L
167.514 231.214 L
167.98 230.598 L
168.451 229.966 L
168.926 229.322 L
169.404 228.665 L
169.885 227.996 L
170.372 227.314 L
170.867 226.621 L
171.371 225.916 L
171.886 225.2 L
172.409 224.475 L
172.937 223.74 L
173.466 222.999 L
173.993 222.252 L
174.515 221.501 L
175.033 220.748 L
175.549 219.994 L
176.066 219.241 L
176.586 218.488 L
177.109 217.737 L
177.633 216.988 L
178.155 216.243 L
178.672 215.501 L
179.183 214.762 L
179.688 214.028 L
180.189 213.299 L
180.69 212.577 L
181.194 211.863 L
181.702 211.157 L
182.212 210.463 L
182.722 209.779 L
183.228 209.108 L
183.728 208.449 L
184.221 207.804 L
184.708 207.171 L
185.191 206.551 L
185.673 205.944 L
186.154 205.35 L
186.636 204.768 L
187.116 204.2 L
187.592 203.645 L
188.063 203.104 L
188.528 202.578 L
188.987 202.066 L
189.443 201.57 L
189.898 201.09 L
190.355 200.625 L
190.815 200.174 L
191.279 199.738 L
191.744 199.316 L
192.21 198.906 L
192.675 198.508 L
193.139 198.122 L
193.601 197.747 L
194.063 197.383 L
194.526 197.029 L
194.994 196.686 L
195.465 196.354 L
195.939 196.031 L
196.415 195.718 L
196.89 195.414 L
197.363 195.118 L
197.834 194.83 L
198.304 194.548 L
198.773 194.271 L
199.246 193.998 L
199.722 193.728 L
200.203 193.46 L
200.688 193.195 L
201.175 192.931 L
201.661 192.668 L
202.147 192.406 L
202.632 192.144 L
203.117 191.881 L
203.605 191.618 L
204.096 191.354 L
204.591 191.086 L
205.089 190.816 L
205.589 190.542 L
206.088 190.262 L
206.585 189.976 L
207.078 189.684 L
207.569 189.384 L
208.059 189.078 L
208.549 188.764 L
209.041 188.442 L
209.535 188.114 L
210.029 187.777 L
210.523 187.433 L
211.015 187.08 L
211.504 186.719 L
211.99 186.348 L
212.475 185.968 L
212.96 185.578 L
213.447 185.178 L
213.935 184.767 L
214.424 184.345 L
214.914 183.914 L
215.403 183.472 L
215.891 183.021 L
216.375 182.56 L
216.857 182.09 L
217.337 181.612 L
217.816 181.126 L
218.296 180.63 L
218.777 180.127 L
219.259 179.614 L
219.74 179.094 L
220.22 178.565 L
220.698 178.028 L
221.174 177.484 L
221.647 176.933 L
222.121 176.376 L
222.595 175.812 L
223.072 175.244 L
223.551 174.67 L
224.031 174.093 L
224.512 173.513 L
224.993 172.93 L
225.472 172.343 L
225.949 171.754 L
226.427 171.163 L
226.904 170.57 L
227.384 169.975 L
227.865 169.379 L
228.348 168.783 L
228.832 168.187 L
229.316 167.591 L
229.798 166.997 L
230.278 166.405 L
230.758 165.816 L
231.237 165.229 L
231.718 164.646 L
232.2 164.066 L
232.684 163.49 L
233.17 162.918 L
233.657 162.35 L
234.143 161.786 L
234.628 161.227 L
235.113 160.672 L
235.597 160.123 L
236.081 159.58 L
236.567 159.042 L
237.054 158.511 L
237.542 157.987 L
238.032 157.469 L
238.52 156.958 L
239.008 156.454 L
239.495 155.956 L
239.979 155.465 L
240.463 154.981 L
240.948 154.503 L
241.432 154.031 L
241.918 153.565 L
242.405 153.106 L
242.892 152.652 L
243.378 152.205 L
243.863 151.765 L
244.347 151.331 L
244.829 150.903 L
245.312 150.48 L
245.795 150.064 L
246.279 149.653 L
246.765 149.246 L
247.25 148.844 L
247.736 148.446 L
248.221 148.052 L
248.705 147.661 L
249.187 147.274 L
249.668 146.889 L
250.149 146.508 L
250.631 146.129 L
251.114 145.753 L
251.597 145.379 L
252.081 145.008 L
252.564 144.637 L
253.046 144.268 L
253.527 143.899 L
254.008 143.53 L
254.488 143.161 L
254.969 142.792 L
255.45 142.421 L
255.933 142.05 L
256.417 141.677 L
256.901 141.302 L
257.385 140.926 L
257.868 140.548 L
258.35 140.168 L
258.832 139.786 L
259.313 139.401 L
259.796 139.013 L
260.279 138.621 L
260.763 138.227 L
261.248 137.828 L
261.733 137.426 L
262.217 137.019 L
262.7 136.608 L
263.182 136.193 L
263.665 135.773 L
264.147 135.349 L
264.631 134.921 L
265.115 134.489 L
265.6 134.053 L
266.085 133.612 L
266.57 133.167 L
267.055 132.717 L
267.539 132.263 L
268.023 131.804 L
268.506 131.341 L
268.99 130.873 L
269.475 130.4 L
269.961 129.924 L
270.446 129.443 L
270.932 128.959 L
271.417 128.471 L
271.902 127.98 L
272.386 127.485 L
272.869 126.987 L
273.352 126.487 L
273.836 125.983 L
274.32 125.477 L
274.805 124.968 L
275.29 124.456 L
275.775 123.943 L
276.259 123.427 L
276.743 122.909 L
277.226 122.39 L
277.709 121.87 L
278.192 121.349 L
278.676 120.827 L
279.16 120.305 L
279.645 119.783 L
280.129 119.26 L
280.614 118.738 L
281.098 118.216 L
281.581 117.695 L
282.064 117.174 L
282.546 116.654 L
283.029 116.134 L
283.513 115.616 L
283.997 115.1 L
284.481 114.585 L
284.965 114.071 L
285.449 113.56 L
285.932 113.052 L
286.414 112.545 L
286.897 112.041 L
287.38 111.54 L
287.863 111.041 L
288.347 110.545 L
288.831 110.051 L
289.315 109.561 L
289.8 109.072 L
290.284 108.587 L
290.767 108.105 L
291.25 107.626 L
291.734 107.149 L
292.217 106.677 L
292.701 106.207 L
293.185 105.74 L
293.669 105.277 L
294.154 104.816 L
294.638 104.359 L
295.122 103.904 L
295.606 103.452 L
296.089 103.003 L
296.572 102.556 L
297.056 102.111 L
297.54 101.67 L
298.025 101.23 L
298.509 100.793 L
298.994 100.358 L
299.478 99.925 L
299.962 99.495 L
300.446 99.066 L
300.93 98.639 L
301.413 98.213 L
301.898 97.789 L
302.382 97.366 L
302.867 96.944 L
303.351 96.522 L
303.836 96.102 L
304.32 95.681 L
304.804 95.262 L
305.288 94.843 L
305.771 94.424 L
306.255 94.005 L
306.739 93.586 L
307.223 93.167 L
307.707 92.747 L
308.192 92.328 L
308.676 91.907 L
309.16 91.485 L
309.644 91.063 L
310.127 90.639 L
310.611 90.214 L
311.094 89.788 L
311.579 89.361 L
312.063 88.932 L
312.547 88.501 L
313.032 88.069 L
313.516 87.636 L
314 87.2 L
314.483 86.763 L
314.966 86.324 L
315.45 85.883 L
315.934 85.44 L
316.418 84.995 L
316.902 84.548 L
317.386 84.099 L
317.871 83.647 L
318.354 83.193 L
318.838 82.738 L
319.322 82.28 L
319.805 81.821 L
320.289 81.359 L
320.773 80.896 L
321.257 80.43 L
321.741 79.963 L
322.226 79.494 L
322.71 79.023 L
323.194 78.551 L
323.678 78.076 L
324.161 77.6 L
324.645 77.122 L
325.129 76.643 L
325.613 76.163 L
326.097 75.681 L
326.582 75.198 L
327.066 74.715 L
327.55 74.23 L
328.034 73.744 L
328.518 73.258 L
329.002 72.771 L
329.485 72.283 L
329.969 71.795 L
330.454 71.306 L
330.938 70.817 L
331.423 70.328 L
331.907 69.838 L
332.391 69.349 L
332.875 68.86 L
333.359 68.371 L
333.843 67.882 L
334.327 67.394 L
334.811 66.906 L
335.295 66.419 L
335.78 65.933 L
336.264 65.447 L
336.748 64.962 L
337.232 64.478 L
337.716 63.995 L
338.2 63.512 L
338.683 63.031 L
339.167 62.551 L
339.652 62.072 L
340.136 61.595 L
340.62 61.118 L
341.105 60.643 L
341.589 60.17 L
342.072 59.701 L
342.554 59.237 L
343.027 58.785 L
343.481 58.349 L
343.897 57.932 L
344.256 57.541 L
344.543 57.178 L
344.753 56.847 L
344.887 56.552 L
344.949 56.295 L
344.944 56.077 L
344.864 55.901 L
344.695 55.764 L
344.418 55.665 L
344.02 55.603 L
343.499 55.577 L
342.869 55.588 L
342.153 55.64 L
341.379 55.734 L
340.57 55.877 L
339.734 56.071 L
338.867 56.316 L
337.962 56.614 L
337.012 56.962 L
336.022 57.36 L
335.005 57.804 L
333.983 58.293 L
332.974 58.825 L
331.991 59.397 L
331.031 60.008 L
330.084 60.656 L
329.138 61.341 L
328.182 62.062 L
327.215 62.821 L
326.244 63.618 L
325.281 64.453 L
324.34 65.325 L
323.429 66.232 L
322.554 67.17 L
321.714 68.136 L
320.909 69.125 L
320.138 70.135 L
319.402 71.161 L
318.705 72.203 L
318.053 73.257 L
317.451 74.321 L
316.904 75.394 L
316.415 76.475 L
315.982 77.562 L
315.604 78.655 L
315.273 79.753 L
314.978 80.855 L
314.708 81.959 L
314.453 83.06 L
314.206 84.155 L
313.966 85.239 L
313.736 86.309 L
313.518 87.362 L
313.314 88.395 L
313.12 89.409 L
312.927 90.404 L
312.726 91.378 L
312.506 92.332 L
312.267 93.265 L
312.013 94.177 L
311.753 95.066 L
311.496 95.932 L
311.249 96.771 L
311.009 97.584 L
310.767 98.366 L
310.511 99.116 L
310.232 99.833 L
309.924 100.514 L
309.587 101.162 L
309.228 101.776 L
308.853 102.359 L
308.465 102.911 L
308.063 103.434 L
307.64 103.928 L
307.188 104.393 L
306.702 104.83 L
306.178 105.238 L
305.623 105.617 L
305.042 105.968 L
304.446 106.29 L
303.842 106.583 L
303.235 106.847 L
302.625 107.084 L
302.013 107.295 L
301.395 107.482 L
300.772 107.647 L
300.144 107.794 L
299.513 107.924 L
298.883 108.04 L
298.259 108.143 L
297.644 108.234 L
297.038 108.311 L
296.442 108.377 L
295.853 108.432 L
295.266 108.476 L
294.677 108.512 L
294.085 108.54 L
293.491 108.563 L
292.899 108.583 L
292.316 108.602 L
291.745 108.623 L
291.192 108.648 L
290.656 108.68 L
290.133 108.719 L
289.62 108.767 L
289.114 108.824 L
288.613 108.89 L
288.121 108.966 L
287.642 109.051 L
287.182 109.146 L
286.743 109.254 L
286.322 109.376 L
285.914 109.513 L
285.511 109.667 L
285.107 109.84 L
284.699 110.031 L
284.286 110.244 L
283.871 110.477 L
283.46 110.732 L
283.053 111.009 L
282.651 111.307 L
282.25 111.625 L
281.847 111.964 L
281.436 112.322 L
281.017 112.7 L
280.589 113.097 L
280.155 113.515 L
279.721 113.953 L
279.289 114.414 L
278.86 114.896 L
278.433 115.4 L
278.006 115.926 L
277.575 116.471 L
277.136 117.037 L
276.688 117.621 L
276.23 118.222 L
275.764 118.838 L
275.293 119.47 L
274.818 120.114 L
274.34 120.771 L
273.859 121.44 L
273.372 122.122 L
272.877 122.815 L
272.373 123.52 L
271.858 124.236 L
271.335 124.961 L
270.807 125.696 L
270.278 126.437 L
269.751 127.184 L
269.229 127.935 L
268.711 128.688 L
268.195 129.442 L
267.678 130.195 L
267.158 130.948 L
266.635 131.699 L
266.111 132.448 L
265.589 133.193 L
265.072 133.935 L
264.561 134.674 L
264.056 135.408 L
263.555 136.137 L
263.054 136.859 L
262.55 137.573 L
262.042 138.279 L
261.532 138.973 L
261.022 139.657 L
260.516 140.328 L
260.016 140.987 L
259.523 141.632 L
259.036 142.265 L
258.553 142.885 L
258.071 143.492 L
257.59 144.086 L
257.108 144.668 L
256.628 145.236 L
256.152 145.791 L
255.681 146.332 L
255.216 146.858 L
254.757 147.37 L
254.301 147.866 L
253.846 148.346 L
253.389 148.811 L
252.929 149.262 L
252.465 149.698 L
252 150.12 L
251.534 150.53 L
251.069 150.928 L
250.605 151.314 L
250.143 151.689 L
249.681 152.053 L
249.218 152.407 L
248.75 152.75 L
248.279 153.082 L
247.805 153.405 L
247.329 153.718 L
246.854 154.022 L
246.381 154.318 L
245.91 154.606 L
245.44 154.888 L
244.971 155.165 L
244.498 155.438 L
244.022 155.708 L
243.541 155.976 L
243.056 156.241 L
242.569 156.505 L
242.083 156.768 L
241.597 157.03 L
241.112 157.292 L
240.627 157.555 L
240.139 157.818 L
239.648 158.082 L
239.153 158.35 L
238.655 158.62 L
238.155 158.894 L
237.656 159.174 L
237.159 159.46 L
236.666 159.752 L
236.175 160.052 L
235.685 160.358 L
235.195 160.672 L
234.703 160.994 L
234.209 161.322 L
233.715 161.659 L
233.221 162.003 L
232.729 162.356 L
232.24 162.717 L
231.754 163.088 L
231.269 163.468 L
230.784 163.858 L
230.297 164.258 L
229.809 164.669 L
229.32 165.091 L
228.83 165.522 L
228.341 165.964 L
227.853 166.415 L
227.369 166.876 L
226.887 167.346 L
226.407 167.824 L
225.928 168.31 L
225.448 168.806 L
224.967 169.309 L
224.485 169.822 L
224.004 170.342 L
223.524 170.871 L
223.046 171.408 L
222.57 171.952 L
222.097 172.503 L
221.623 173.06 L
221.149 173.624 L
220.672 174.192 L
220.193 174.766 L
219.713 175.343 L
219.232 175.923 L
218.751 176.506 L
218.272 177.093 L
217.795 177.682 L
217.317 178.273 L
216.84 178.866 L
216.36 179.461 L
215.879 180.057 L
215.396 180.653 L
214.912 181.249 L
214.428 181.845 L
213.946 182.439 L
213.466 183.031 L
212.986 183.62 L
212.507 184.207 L
212.026 184.79 L
211.544 185.37 L
211.06 185.946 L
210.574 186.518 L
210.087 187.086 L
209.601 187.65 L
209.116 188.209 L
208.631 188.764 L
208.147 189.313 L
207.663 189.856 L
207.177 190.394 L
206.69 190.925 L
206.202 191.449 L
205.712 191.967 L
205.224 192.478 L
204.736 192.982 L
204.249 193.48 L
203.765 193.971 L
203.281 194.455 L
202.796 194.933 L
202.312 195.405 L
201.826 195.871 L
201.339 196.33 L
200.852 196.784 L
200.366 197.231 L
199.881 197.671 L
199.397 198.105 L
198.915 198.533 L
198.432 198.956 L
197.949 199.372 L
197.465 199.783 L
196.979 200.19 L
196.494 200.592 L
196.008 200.99 L
195.523 201.384 L
195.039 201.775 L
194.557 202.162 L
194.076 202.547 L
193.595 202.928 L
193.113 203.307 L
192.63 203.683 L
192.147 204.057 L
191.663 204.428 L
191.18 204.799 L
190.698 205.168 L
190.217 205.537 L
189.736 205.906 L
189.256 206.275 L
188.775 206.644 L
188.294 207.015 L
187.811 207.386 L
187.327 207.759 L
186.843 208.134 L
186.359 208.51 L
185.876 208.888 L
185.394 209.268 L
184.912 209.65 L
184.431 210.035 L
183.948 210.423 L
183.465 210.815 L
182.981 211.209 L
182.496 211.608 L
182.011 212.01 L
181.527 212.417 L
181.044 212.828 L
180.562 213.243 L
180.079 213.663 L
179.597 214.087 L
179.113 214.515 L
178.629 214.947 L
178.144 215.383 L
177.659 215.824 L
177.173 216.269 L
176.689 216.719 L
176.205 217.173 L
175.721 217.632 L
175.238 218.095 L
174.754 218.563 L
174.269 219.036 L
173.783 219.512 L
173.298 219.993 L
172.812 220.477 L
172.327 220.965 L
171.842 221.456 L
171.358 221.951 L
170.875 222.449 L
170.392 222.949 L
169.908 223.453 L
169.424 223.959 L
168.939 224.468 L
168.454 224.98 L
167.969 225.493 L
167.485 226.009 L
167.001 226.527 L
166.518 227.046 L
166.035 227.566 L
165.552 228.087 L
165.068 228.609 L
164.584 229.131 L
164.099 229.653 L
163.615 230.176 L
163.13 230.698 L
162.646 231.22 L
162.163 231.741 L
161.68 232.262 L
161.198 232.782 L
160.715 233.302 L
160.231 233.82 L
159.747 234.336 L
159.263 234.851 L
158.779 235.365 L
158.295 235.876 L
157.812 236.384 L
157.329 236.891 L
156.847 237.395 L
156.364 237.896 L
155.881 238.395 L
155.397 238.891 L
154.913 239.385 L
154.428 239.875 L
153.944 240.364 L
153.46 240.849 L
152.977 241.331 L
152.493 241.81 L
152.01 242.286 L
151.527 242.759 L
151.043 243.229 L
150.559 243.696 L
150.075 244.159 L
149.59 244.62 L
149.106 245.077 L
148.622 245.532 L
148.138 245.984 L
147.655 246.433 L
147.172 246.88 L
146.688 247.325 L
146.204 247.766 L
145.719 248.206 L
145.235 248.643 L
144.75 249.078 L
144.266 249.511 L
143.782 249.941 L
143.298 250.37 L
142.814 250.797 L
142.331 251.223 L
141.846 251.647 L
141.362 252.07 L
140.877 252.492 L
140.393 252.914 L
139.908 253.334 L
139.424 253.755 L
138.94 254.174 L
138.456 254.593 L
137.973 255.012 L
137.489 255.431 L
137.005 255.85 L
136.521 256.269 L
136.037 256.689 L
135.552 257.108 L
135.068 257.529 L
134.584 257.951 L
134.1 258.373 L
133.617 258.797 L
133.133 259.222 L
132.65 259.648 L
132.165 260.075 L
131.681 260.504 L
131.197 260.935 L
130.712 261.367 L
130.228 261.8 L
129.744 262.236 L
129.261 262.673 L
128.778 263.112 L
128.294 263.553 L
127.81 263.996 L
127.326 264.441 L
126.842 264.888 L
126.358 265.337 L
125.873 265.789 L
125.39 266.242 L
124.906 266.698 L
124.422 267.156 L
123.939 267.615 L
123.455 268.077 L
122.971 268.54 L
122.487 269.006 L
122.003 269.473 L
121.518 269.942 L
121.034 270.413 L
120.55 270.885 L
120.066 271.36 L
119.583 271.836 L
119.099 272.314 L
118.615 272.793 L
118.131 273.273 L
117.647 273.755 L
117.162 274.238 L
116.678 274.721 L
116.194 275.206 L
115.71 275.692 L
115.226 276.178 L
114.742 276.665 L
114.259 277.153 L
113.775 277.641 L
113.29 278.13 L
112.806 278.619 L
112.321 279.108 L
111.837 279.598 L
111.353 280.087 L
110.869 280.576 L
110.385 281.065 L
109.901 281.554 L
109.417 282.042 L
108.933 282.53 L
108.449 283.017 L
107.964 283.503 L
107.48 283.989 L
106.996 284.474 L
106.512 284.958 L
106.028 285.441 L
105.544 285.924 L
105.061 286.405 L
104.577 286.885 L
104.092 287.364 L
103.608 287.841 L
103.124 288.318 L
102.639 288.793 L
102.155 289.266 L
101.672 289.735 L
101.19 290.199 L
100.717 290.651 L
100.263 291.087 L
99.847 291.504 L
99.488 291.895 L
99.201 292.258 L
98.991 292.589 L
98.857 292.884 L
98.795 293.142 L
98.8 293.359 L
98.88 293.535 L
99.049 293.672 L
99.326 293.771 L
99.724 293.833 L
100.245 293.859 L
100.875 293.848 L
101.591 293.796 L
102.365 293.702 L
103.174 293.559 L
104.01 293.365 L
104.877 293.12 L
105.782 292.822 L
106.732 292.474 L
107.722 292.076 L
108.739 291.632 L
109.761 291.143 L
110.77 290.611 L
111.753 290.039 L
112.713 289.428 L
113.66 288.78 L
114.606 288.095 L
115.562 287.374 L
116.529 286.615 L
117.5 285.818 L
118.463 284.983 L
119.405 284.111 L
120.315 283.204 L
121.19 282.266 L
122.03 281.3 L
122.835 280.311 L
123.606 279.301 L
124.342 278.275 L
125.039 277.233 L
125.691 276.179 L
126.293 275.115 L
126.84 274.042 L
127.329 272.961 L
127.762 271.874 L
128.14 270.781 L
128.471 269.683 L
128.766 268.581 L
129.036 267.477 L
129.291 266.376 L
129.538 265.281 L
129.778 264.197 L
130.008 263.127 L
130.226 262.074 L
130.43 261.041 L
130.624 260.027 L
130.817 259.032 L
131.018 258.058 L
131.238 257.104 L
131.477 256.171 L
131.731 255.259 L
131.991 254.37 L
132.248 253.504 L
132.495 252.665 L
132.735 251.852 L
132.977 251.07 L
133.233 250.32 L
133.512 249.603 L
133.82 248.922 L
134.157 248.274 L
134.516 247.66 L
134.891 247.077 L
135.279 246.525 L
135.681 246.002 L
136.104 245.508 L
136.556 245.043 L
137.042 244.606 L
137.566 244.198 L
138.121 243.819 L
138.702 243.468 L
139.298 243.146 L
139.902 242.853 L
140.509 242.589 L
141.119 242.352 L
141.731 242.141 L
142.349 241.954 L
142.972 241.789 L
143.6 241.642 L
144.231 241.512 L
144.861 241.396 L
145.485 241.293 L
146.1 241.202 L
146.706 241.125 L
147.302 241.059 L
147.891 241.004 L
148.478 240.96 L
149.067 240.924 L
149.659 240.896 L
150.253 240.873 L
150.845 240.853 L
151.428 240.834 L
151.999 240.813 L
152.552 240.788 L
153.088 240.756 L
153.611 240.717 L
154.124 240.669 L
154.63 240.612 L
155.131 240.546 L
155.623 240.47 L
156.102 240.385 L
156.562 240.29 L
157.001 240.182 L
157.422 240.06 L
157.83 239.923 L
158.233 239.769 L
158.637 239.596 L
159.045 239.405 L
159.458 239.192 L
159.873 238.959 L
160.284 238.704 L
160.691 238.427 L
161.093 238.129 L
161.494 237.811 L
161.897 237.472 L
162.308 237.114 L
162.727 236.736 L
163.155 236.339 L
163.589 235.921 L
164.023 235.483 L
164.455 235.022 L
164.884 234.54 L
165.311 234.036 L
165.738 233.51 L
166.169 232.965 L
166.608 232.399 L
167.057 231.815 L
167.514 231.214 L
167.98 230.598 L
168.451 229.966 L
168.926 229.322 L
169.404 228.665 L
169.885 227.996 L
170.372 227.314 L
170.867 226.621 L
171.371 225.916 L
171.886 225.2 L
172.409 224.475 L
172.937 223.74 L
173.466 222.999 L
173.993 222.252 L
174.515 221.501 L
175.033 220.748 L
175.549 219.994 L
176.066 219.241 L
176.586 218.488 L
177.109 217.737 L
177.633 216.988 L
178.155 216.243 L
178.672 215.501 L
179.183 214.762 L
179.688 214.028 L
180.189 213.299 L
180.69 212.577 L
181.194 211.863 L
181.702 211.157 L
182.212 210.463 L
182.722 209.779 L
183.228 209.108 L
183.728 208.449 L
184.221 207.804 L
184.708 207.171 L
185.191 206.551 L
185.673 205.944 L
186.154 205.35 L
186.636 204.768 L
187.116 204.2 L
187.592 203.645 L
188.063 203.104 L
188.528 202.578 L
188.987 202.066 L
189.443 201.57 L
189.898 201.09 L
190.355 200.625 L
190.815 200.174 L
191.279 199.738 L
191.744 199.316 L
192.21 198.906 L
192.675 198.508 L
193.139 198.122 L
193.601 197.747 L
194.063 197.383 L
194.526 197.029 L
194.994 196.686 L
195.465 196.354 L
195.939 196.031 L
196.415 195.718 L
196.89 195.414 L
197.363 195.118 L
197.834 194.83 L
198.304 194.548 L
198.773 194.271 L
199.246 193.998 L
199.722 193.728 L
200.203 193.46 L
200.688 193.195 L
201.175 192.931 L
201.661 192.668 L
202.147 192.406 L
202.632 192.144 L
203.117 191.881 L
203.605 191.618 L
204.096 191.354 L
204.591 191.086 L
205.089 190.816 L
205.589 190.542 L
206.088 190.262 L
206.585 189.976 L
207.078 189.684 L
207.569 189.384 L
208.059 189.078 L
208.549 188.764 L
209.041 188.442 L
209.535 188.114 L
210.029 187.777 L
210.523 187.433 L
211.015 187.08 L
211.504 186.719 L
211.99 186.348 L
212.475 185.968 L
212.96 185.578 L
213.447 185.178 L
213.935 184.767 L
214.424 184.345 L
214.914 183.914 L
215.403 183.472 L
215.891 183.021 L
216.375 182.56 L
216.857 182.09 L
217.337 181.612 L
217.816 181.126 L
218.296 180.63 L
218.777 180.127 L
219.259 179.614 L
219.74 179.094 L
220.22 178.565 L
220.698 178.028 L
221.174 177.484 L
221.647 176.933 L
222.121 176.376 L
222.595 175.812 L
223.072 175.244 L
223.551 174.67 L
224.031 174.093 L
224.512 173.513 L
224.993 172.93 L
225.472 172.343 L
225.949 171.754 L
226.427 171.163 L
226.904 170.57 L
227.384 169.975 L
227.865 169.379 L
228.348 168.783 L
228.832 168.187 L
229.316 167.591 L
229.798 166.997 L
230.278 166.405 L
230.758 165.816 L
231.237 165.229 L
231.718 164.646 L
232.2 164.066 L
232.684 163.49 L
233.17 162.918 L
233.657 162.35 L
234.143 161.786 L
234.628 161.227 L
235.113 160.672 L
235.597 160.123 L
236.081 159.58 L
236.567 159.042 L
237.054 158.511 L
237.542 157.987 L
238.032 157.469 L
238.52 156.958 L
239.008 156.454 L
239.495 155.956 L
239.979 155.465 L
240.463 154.981 L
240.948 154.503 L
241.432 154.031 L
241.918 153.565 L
242.405 153.106 L
242.892 152.652 L
243.378 152.205 L
243.863 151.765 L
244.347 151.331 L
244.829 150.903 L
245.312 150.48 L
245.795 150.064 L
246.279 149.653 L
246.765 149.246 L
247.25 148.844 L
247.736 148.446 L
248.221 148.052 L
248.705 147.661 L
249.187 147.274 L
249.668 146.889 L
250.149 146.508 L
250.631 146.129 L
251.114 145.753 L
251.597 145.379 L
252.081 145.008 L
252.564 144.637 L
253.046 144.268 L
253.527 143.899 L
254.008 143.53 L
254.488 143.161 L
254.969 142.792 L
255.45 142.421 L
255.933 142.05 L
256.417 141.677 L
256.901 141.302 L
257.385 140.926 L
257.868 140.548 L
258.35 140.168 L
258.832 139.786 L
259.313 139.401 L
259.796 139.013 L
260.279 138.621 L
260.763 138.227 L
261.248 137.828 L
261.733 137.426 L
262.217 137.019 L
262.7 136.608 L
263.182 136.193 L
263.665 135.773 L
264.147 135.349 L
264.631 134.921 L
265.115 134.489 L
265.6 134.053 L
266.085 133.612 L
266.57 133.167 L
267.055 132.717 L
267.539 132.263 L
268.023 131.804 L
268.506 131.341 L
268.99 130.873 L
269.475 130.4 L
269.961 129.924 L
270.446 129.443 L
270.932 128.959 L
271.417 128.471 L
271.902 127.98 L
272.386 127.485 L
272.869 126.987 L
273.352 126.487 L
273.836 125.983 L
274.32 125.477 L
274.805 124.968 L
275.29 124.456 L
275.775 123.943 L
276.259 123.427 L
276.743 122.909 L
277.226 122.39 L
277.709 121.87 L
278.192 121.349 L
278.676 120.827 L
279.16 120.305 L
279.645 119.783 L
280.129 119.26 L
280.614 118.738 L
281.098 118.216 L
281.581 117.695 L
282.064 117.174 L
282.546 116.654 L
283.029 116.134 L
283.513 115.616 L
283.997 115.1 L
284.481 114.585 L
284.965 114.071 L
285.449 113.56 L
285.932 113.052 L
286.414 112.545 L
286.897 112.041 L
287.38 111.54 L
287.863 111.041 L
288.347 110.545 L
288.831 110.051 L
289.315 109.561 L
289.8 109.072 L
290.284 108.587 L
290.767 108.105 L
291.25 107.626 L
291.734 107.149 L
292.217 106.677 L
292.701 106.207 L
293.185 105.74 L
293.669 105.277 L
294.154 104.816 L
294.638 104.359 L
295.122 103.904 L
295.606 103.452 L
296.089 103.003 L
296.572 102.556 L
297.056 102.111 L
297.54 101.67 L
298.025 101.23 L
298.509 100.793 L
298.994 100.358 L
299.478 99.925 L
299.962 99.495 L
300.446 99.066 L
300.93 98.639 L
301.413 98.213 L
301.898 97.789 L
302.382 97.366 L
302.867 96.944 L
303.351 96.522 L
303.836 96.102 L
304.32 95.681 L
304.804 95.262 L
305.288 94.843 L
305.771 94.424 L
306.255 94.005 L
306.739 93.586 L
307.223 93.167 L
307.707 92.747 L
308.192 92.328 L
308.676 91.907 L
309.16 91.485 L
309.644 91.063 L
310.127 90.639 L
310.611 90.214 L
311.094 89.788 L
311.579 89.361 L
312.063 88.932 L
312.547 88.501 L
313.032 88.069 L
313.516 87.636 L
314 87.2 L
314.483 86.763 L
314.966 86.324 L
315.45 85.883 L
315.934 85.44 L
316.418 84.995 L
316.902 84.548 L
317.386 84.099 L
317.871 83.647 L
318.354 83.193 L
318.838 82.738 L
319.322 82.28 L
319.805 81.821 L
320.289 81.359 L
320.773 80.896 L
321.257 80.43 L
321.741 79.963 L
322.226 79.494 L
322.71 79.023 L
323.194 78.551 L
323.678 78.076 L
324.161 77.6 L
324.645 77.122 L
325.129 76.643 L
325.613 76.163 L
326.097 75.681 L
326.582 75.198 L
327.066 74.715 L
327.55 74.23 L
328.034 73.744 L
328.518 73.258 L
329.002 72.771 L
329.485 72.283 L
329.969 71.795 L
330.454 71.306 L
330.938 70.817 L
331.423 70.328 L
331.907 69.838 L
332.391 69.349 L
332.875 68.86 L
333.359 68.371 L
333.843 67.882 L
334.327 67.394 L
334.811 66.906 L
335.295 66.419 L
335.78 65.933 L
336.264 65.447 L
336.748 64.962 L
337.232 64.478 L
337.716 63.995 L
338.2 63.512 L
338.683 63.031 L
339.167 62.551 L
339.652 62.072 L
340.136 61.595 L
340.62 61.118 L
341.105 60.643 L
341.589 60.17 L
342.072 59.701 L
342.554 59.237 L
343.027 58.785 L
343.481 58.349 L
343.897 57.932 L
344.256 57.541 L
344.543 57.178 L
344.753 56.847 L
344.887 56.552 L
344.949 56.295 L
344.944 56.077 L
344.864 55.901 L
344.695 55.764 L
344.418 55.665 L
344.02 55.603 L
343.499 55.577 L
342.869 55.588 L
342.153 55.64 L
341.379 55.734 L
340.57 55.877 L
339.734 56.071 L
338.867 56.316 L
337.962 56.614 L
337.012 56.962 L
336.022 57.36 L
335.005 57.804 L
333.983 58.293 L
332.974 58.825 L
331.991 59.397 L
331.031 60.008 L
330.084 60.656 L
329.138 61.341 L
328.182 62.062 L
327.215 62.821 L
326.244 63.618 L
325.281 64.453 L
324.34 65.325 L
323.429 66.232 L
322.554 67.17 L
321.714 68.136 L
320.909 69.125 L
320.138 70.135 L
319.402 71.161 L
318.705 72.203 L
318.053 73.257 L
317.451 74.321 L
316.904 75.394 L
316.415 76.475 L
315.982 77.562 L
315.604 78.655 L
315.273 79.753 L
314.978 80.855 L
314.708 81.959 L
314.453 83.06 L
314.206 84.155 L
313.966 85.239 L
313.736 86.309 L
313.518 87.362 L
313.314 88.395 L
313.12 89.409 L
312.927 90.404 L
312.726 91.378 L
312.506 92.332 L
312.267 93.265 L
312.013 94.177 L
311.753 95.066 L
311.496 95.932 L
311.249 96.771 L
311.009 97.584 L
310.767 98.366 L
310.511 99.116 L
310.232 99.833 L
309.924 100.514 L
309.587 101.162 L
309.228 101.776 L
308.853 102.359 L
308.465 102.911 L
308.063 103.434 L
307.64 103.928 L
307.188 104.393 L
306.702 104.83 L
306.178 105.238 L
305.623 105.617 L
305.042 105.968 L
304.446 106.29 L
303.842 106.583 L
303.235 106.847 L
302.625 107.084 L
302.013 107.295 L
301.395 107.482 L
300.772 107.647 L
300.144 107.794 L
299.513 107.924 L
298.883 108.04 L
298.259 108.143 L
297.644 108.234 L
297.038 108.311 L
296.442 108.377 L
295.853 108.432 L
295.266 108.476 L
294.677 108.512 L
294.085 108.54 L
293.491 108.563 L
292.899 108.583 L
292.316 108.602 L
291.745 108.623 L
291.192 108.648 L
290.656 108.68 L
290.133 108.719 L
289.62 108.767 L
289.114 108.824 L
288.613 108.89 L
288.121 108.966 L
287.642 109.051 L
287.182 109.146 L
286.743 109.254 L
286.322 109.376 L
285.914 109.513 L
285.511 109.667 L
285.107 109.84 L
284.699 110.031 L
284.286 110.244 L
S
GR
%%Trailer
%%Pages: 1
%%EOF
