%!PS-Adobe-3.0 EPSF-3.0
%%Creator: (MATLAB, The Mathworks, Inc. Version 9.10.0.1669831 \(R2021a\) Update 2. Operating System: Windows 10)
%%Title: C:/Users/becka/Documents/Me_dokumenty/CVUT_FEjL/DIPLOMKA_V2/thesis/figs/ILC_square_detail_last.eps
%%CreationDate: 2021-08-13T19:58:22
%%Pages: (atend)
%%BoundingBox:     0     0   312   283
%%LanguageLevel: 3
%%EndComments
%%BeginProlog
%%BeginResource: procset (Apache XML Graphics Std ProcSet) 1.2 0
%%Version: 1.2 0
%%Copyright: (Copyright 2001-2003,2010 The Apache Software Foundation. License terms: http://www.apache.org/licenses/LICENSE-2.0)
/bd{bind def}bind def
/ld{load def}bd
/GR/grestore ld
/GS/gsave ld
/RM/rmoveto ld
/C/curveto ld
/t/show ld
/L/lineto ld
/ML/setmiterlimit ld
/CT/concat ld
/f/fill ld
/N/newpath ld
/S/stroke ld
/CC/setcmykcolor ld
/A/ashow ld
/cp/closepath ld
/RC/setrgbcolor ld
/LJ/setlinejoin ld
/GC/setgray ld
/LW/setlinewidth ld
/M/moveto ld
/re {4 2 roll M
1 index 0 rlineto
0 exch rlineto
neg 0 rlineto
cp } bd
/_ctm matrix def
/_tm matrix def
/BT { _ctm currentmatrix pop matrix _tm copy pop 0 0 moveto } bd
/ET { _ctm setmatrix } bd
/iTm { _ctm setmatrix _tm concat } bd
/Tm { _tm astore pop iTm 0 0 moveto } bd
/ux 0.0 def
/uy 0.0 def
/F {
  /Tp exch def
  /Tf exch def
  Tf findfont Tp scalefont setfont
  /cf Tf def  /cs Tp def
} bd
/ULS {currentpoint /uy exch def /ux exch def} bd
/ULE {
  /Tcx currentpoint pop def
  gsave
  newpath
  cf findfont cs scalefont dup
  /FontMatrix get 0 get /Ts exch def /FontInfo get dup
  /UnderlinePosition get Ts mul /To exch def
  /UnderlineThickness get Ts mul /Tt exch def
  ux uy To add moveto  Tcx uy To add lineto
  Tt setlinewidth stroke
  grestore
} bd
/OLE {
  /Tcx currentpoint pop def
  gsave
  newpath
  cf findfont cs scalefont dup
  /FontMatrix get 0 get /Ts exch def /FontInfo get dup
  /UnderlinePosition get Ts mul /To exch def
  /UnderlineThickness get Ts mul /Tt exch def
  ux uy To add cs add moveto Tcx uy To add cs add lineto
  Tt setlinewidth stroke
  grestore
} bd
/SOE {
  /Tcx currentpoint pop def
  gsave
  newpath
  cf findfont cs scalefont dup
  /FontMatrix get 0 get /Ts exch def /FontInfo get dup
  /UnderlinePosition get Ts mul /To exch def
  /UnderlineThickness get Ts mul /Tt exch def
  ux uy To add cs 10 mul 26 idiv add moveto Tcx uy To add cs 10 mul 26 idiv add lineto
  Tt setlinewidth stroke
  grestore
} bd
/QT {
/Y22 exch store
/X22 exch store
/Y21 exch store
/X21 exch store
currentpoint
/Y21 load 2 mul add 3 div exch
/X21 load 2 mul add 3 div exch
/X21 load 2 mul /X22 load add 3 div
/Y21 load 2 mul /Y22 load add 3 div
/X22 load /Y22 load curveto
} bd
/SSPD {
dup length /d exch dict def
{
/v exch def
/k exch def
currentpagedevice k known {
/cpdv currentpagedevice k get def
v cpdv ne {
/upd false def
/nullv v type /nulltype eq def
/nullcpdv cpdv type /nulltype eq def
nullv nullcpdv or
{
/upd true def
} {
/sametype v type cpdv type eq def
sametype {
v type /arraytype eq {
/vlen v length def
/cpdvlen cpdv length def
vlen cpdvlen eq {
0 1 vlen 1 sub {
/i exch def
/obj v i get def
/cpdobj cpdv i get def
obj cpdobj ne {
/upd true def
exit
} if
} for
} {
/upd true def
} ifelse
} {
v type /dicttype eq {
v {
/dv exch def
/dk exch def
/cpddv cpdv dk get def
dv cpddv ne {
/upd true def
exit
} if
} forall
} {
/upd true def
} ifelse
} ifelse
} if
} ifelse
upd true eq {
d k v put
} if
} if
} if
} forall
d length 0 gt {
d setpagedevice
} if
} bd
/RE { % /NewFontName [NewEncodingArray] /FontName RE -
  findfont dup length dict begin
  {
    1 index /FID ne
    {def} {pop pop} ifelse
  } forall
  /Encoding exch def
  /FontName 1 index def
  currentdict definefont pop
  end
} bind def
%%EndResource
%%BeginResource: procset (Apache XML Graphics EPS ProcSet) 1.0 0
%%Version: 1.0 0
%%Copyright: (Copyright 2002-2003 The Apache Software Foundation. License terms: http://www.apache.org/licenses/LICENSE-2.0)
/BeginEPSF { %def
/b4_Inc_state save def         % Save state for cleanup
/dict_count countdictstack def % Count objects on dict stack
/op_count count 1 sub def      % Count objects on operand stack
userdict begin                 % Push userdict on dict stack
/showpage { } def              % Redefine showpage, { } = null proc
0 setgray 0 setlinecap         % Prepare graphics state
1 setlinewidth 0 setlinejoin
10 setmiterlimit [ ] 0 setdash newpath
/languagelevel where           % If level not equal to 1 then
{pop languagelevel             % set strokeadjust and
1 ne                           % overprint to their defaults.
{false setstrokeadjust false setoverprint
} if
} if
} bd
/EndEPSF { %def
count op_count sub {pop} repeat            % Clean up stacks
countdictstack dict_count sub {end} repeat
b4_Inc_state restore
} bd
%%EndResource
%FOPBeginFontDict
%%IncludeResource: font Courier-Oblique
%%IncludeResource: font Courier-BoldOblique
%%IncludeResource: font Courier-Bold
%%IncludeResource: font ZapfDingbats
%%IncludeResource: font Symbol
%%IncludeResource: font Helvetica
%%IncludeResource: font Helvetica-Oblique
%%IncludeResource: font Helvetica-Bold
%%IncludeResource: font Helvetica-BoldOblique
%%IncludeResource: font Times-Roman
%%IncludeResource: font Times-Italic
%%IncludeResource: font Times-Bold
%%IncludeResource: font Times-BoldItalic
%%IncludeResource: font Courier
%FOPEndFontDict
%%BeginResource: encoding WinAnsiEncoding
/WinAnsiEncoding [
/.notdef /.notdef /.notdef /.notdef /.notdef
/.notdef /.notdef /.notdef /.notdef /.notdef
/.notdef /.notdef /.notdef /.notdef /.notdef
/.notdef /.notdef /.notdef /.notdef /.notdef
/.notdef /.notdef /.notdef /.notdef /.notdef
/.notdef /.notdef /.notdef /.notdef /.notdef
/.notdef /.notdef /space /exclam /quotedbl
/numbersign /dollar /percent /ampersand /quotesingle
/parenleft /parenright /asterisk /plus /comma
/hyphen /period /slash /zero /one
/two /three /four /five /six
/seven /eight /nine /colon /semicolon
/less /equal /greater /question /at
/A /B /C /D /E
/F /G /H /I /J
/K /L /M /N /O
/P /Q /R /S /T
/U /V /W /X /Y
/Z /bracketleft /backslash /bracketright /asciicircum
/underscore /quoteleft /a /b /c
/d /e /f /g /h
/i /j /k /l /m
/n /o /p /q /r
/s /t /u /v /w
/x /y /z /braceleft /bar
/braceright /asciitilde /bullet /Euro /bullet
/quotesinglbase /florin /quotedblbase /ellipsis /dagger
/daggerdbl /circumflex /perthousand /Scaron /guilsinglleft
/OE /bullet /Zcaron /bullet /bullet
/quoteleft /quoteright /quotedblleft /quotedblright /bullet
/endash /emdash /asciitilde /trademark /scaron
/guilsinglright /oe /bullet /zcaron /Ydieresis
/space /exclamdown /cent /sterling /currency
/yen /brokenbar /section /dieresis /copyright
/ordfeminine /guillemotleft /logicalnot /sfthyphen /registered
/macron /degree /plusminus /twosuperior /threesuperior
/acute /mu /paragraph /middot /cedilla
/onesuperior /ordmasculine /guillemotright /onequarter /onehalf
/threequarters /questiondown /Agrave /Aacute /Acircumflex
/Atilde /Adieresis /Aring /AE /Ccedilla
/Egrave /Eacute /Ecircumflex /Edieresis /Igrave
/Iacute /Icircumflex /Idieresis /Eth /Ntilde
/Ograve /Oacute /Ocircumflex /Otilde /Odieresis
/multiply /Oslash /Ugrave /Uacute /Ucircumflex
/Udieresis /Yacute /Thorn /germandbls /agrave
/aacute /acircumflex /atilde /adieresis /aring
/ae /ccedilla /egrave /eacute /ecircumflex
/edieresis /igrave /iacute /icircumflex /idieresis
/eth /ntilde /ograve /oacute /ocircumflex
/otilde /odieresis /divide /oslash /ugrave
/uacute /ucircumflex /udieresis /yacute /thorn
/ydieresis
] def
%%EndResource
%FOPBeginFontReencode
/Courier-Oblique findfont
dup length dict begin
  {1 index /FID ne {def} {pop pop} ifelse} forall
  /Encoding WinAnsiEncoding def
  currentdict
end
/Courier-Oblique exch definefont pop
/Courier-BoldOblique findfont
dup length dict begin
  {1 index /FID ne {def} {pop pop} ifelse} forall
  /Encoding WinAnsiEncoding def
  currentdict
end
/Courier-BoldOblique exch definefont pop
/Courier-Bold findfont
dup length dict begin
  {1 index /FID ne {def} {pop pop} ifelse} forall
  /Encoding WinAnsiEncoding def
  currentdict
end
/Courier-Bold exch definefont pop
/Helvetica findfont
dup length dict begin
  {1 index /FID ne {def} {pop pop} ifelse} forall
  /Encoding WinAnsiEncoding def
  currentdict
end
/Helvetica exch definefont pop
/Helvetica-Oblique findfont
dup length dict begin
  {1 index /FID ne {def} {pop pop} ifelse} forall
  /Encoding WinAnsiEncoding def
  currentdict
end
/Helvetica-Oblique exch definefont pop
/Helvetica-Bold findfont
dup length dict begin
  {1 index /FID ne {def} {pop pop} ifelse} forall
  /Encoding WinAnsiEncoding def
  currentdict
end
/Helvetica-Bold exch definefont pop
/Helvetica-BoldOblique findfont
dup length dict begin
  {1 index /FID ne {def} {pop pop} ifelse} forall
  /Encoding WinAnsiEncoding def
  currentdict
end
/Helvetica-BoldOblique exch definefont pop
/Times-Roman findfont
dup length dict begin
  {1 index /FID ne {def} {pop pop} ifelse} forall
  /Encoding WinAnsiEncoding def
  currentdict
end
/Times-Roman exch definefont pop
/Times-Italic findfont
dup length dict begin
  {1 index /FID ne {def} {pop pop} ifelse} forall
  /Encoding WinAnsiEncoding def
  currentdict
end
/Times-Italic exch definefont pop
/Times-Bold findfont
dup length dict begin
  {1 index /FID ne {def} {pop pop} ifelse} forall
  /Encoding WinAnsiEncoding def
  currentdict
end
/Times-Bold exch definefont pop
/Times-BoldItalic findfont
dup length dict begin
  {1 index /FID ne {def} {pop pop} ifelse} forall
  /Encoding WinAnsiEncoding def
  currentdict
end
/Times-BoldItalic exch definefont pop
/Courier findfont
dup length dict begin
  {1 index /FID ne {def} {pop pop} ifelse} forall
  /Encoding WinAnsiEncoding def
  currentdict
end
/Courier exch definefont pop
%FOPEndFontReencode
%%EndProlog
%%Page: 1 1
%%PageBoundingBox: 0 0 312 283
%%BeginPageSetup
[1 0 0 -1 0 283] CT
%%EndPageSetup
GS
[0.74955 0 0 0.74991 0 -0.46457] CT
N
0 0 M
416 0 L
416 378 L
0 378 L
0 0 L
cp
clip
1 GC
N
0 0 416 378 re
f
GR
GS
[0.74955 0 0 0.74991 0 -0.46457] CT
1 GC
N
0 0 416 378 re
f
GR
GS
[0.74955 0 0 0.74991 0 -0.46457] CT
1 GC
N
59 336 M
376 336 L
376 28 L
59 28 L
cp
f
GR
GS
[0.74955 0 0 0.74991 0 -0.46457] CT
0.149 GC
2 setlinecap
1 LJ
0.667 LW
N
59 336 M
376 336 L
S
GR
GS
[0.74955 0 0 0.74991 0 -0.46457] CT
0.149 GC
2 setlinecap
1 LJ
0.667 LW
N
59 28 M
376 28 L
S
GR
GS
[0.74955 0 0 0.74991 0 -0.46457] CT
0.149 GC
2 setlinecap
1 LJ
0.667 LW
N
59 336 M
59 332.833 L
S
GR
GS
[0.74955 0 0 0.74991 0 -0.46457] CT
0.149 GC
2 setlinecap
1 LJ
0.667 LW
N
122.4 336 M
122.4 332.833 L
S
GR
GS
[0.74955 0 0 0.74991 0 -0.46457] CT
0.149 GC
2 setlinecap
1 LJ
0.667 LW
N
185.8 336 M
185.8 332.833 L
S
GR
GS
[0.74955 0 0 0.74991 0 -0.46457] CT
0.149 GC
2 setlinecap
1 LJ
0.667 LW
N
249.2 336 M
249.2 332.833 L
S
GR
GS
[0.74955 0 0 0.74991 0 -0.46457] CT
0.149 GC
2 setlinecap
1 LJ
0.667 LW
N
312.6 336 M
312.6 332.833 L
S
GR
GS
[0.74955 0 0 0.74991 0 -0.46457] CT
0.149 GC
2 setlinecap
1 LJ
0.667 LW
N
376 336 M
376 332.833 L
S
GR
GS
[0.74955 0 0 0.74991 0 -0.46457] CT
0.149 GC
2 setlinecap
1 LJ
0.667 LW
N
59 28 M
59 31.167 L
S
GR
GS
[0.74955 0 0 0.74991 0 -0.46457] CT
0.149 GC
2 setlinecap
1 LJ
0.667 LW
N
122.4 28 M
122.4 31.167 L
S
GR
GS
[0.74955 0 0 0.74991 0 -0.46457] CT
0.149 GC
2 setlinecap
1 LJ
0.667 LW
N
185.8 28 M
185.8 31.167 L
S
GR
GS
[0.74955 0 0 0.74991 0 -0.46457] CT
0.149 GC
2 setlinecap
1 LJ
0.667 LW
N
249.2 28 M
249.2 31.167 L
S
GR
GS
[0.74955 0 0 0.74991 0 -0.46457] CT
0.149 GC
2 setlinecap
1 LJ
0.667 LW
N
312.6 28 M
312.6 31.167 L
S
GR
GS
[0.74955 0 0 0.74991 0 -0.46457] CT
0.149 GC
2 setlinecap
1 LJ
0.667 LW
N
376 28 M
376 31.167 L
S
GR
GS
[0.74955 0 0 0.74991 44.22315 255.50344] CT
0.149 GC
/Helvetica 13.333 F
GS
[1 0 0 1 0 0] CT
-15.5 14 moveto 
1 -1 scale
(-0.99) t 
GR
GR
GS
[0.74955 0 0 0.74991 91.7443 255.50344] CT
0.149 GC
/Helvetica 13.333 F
GS
[1 0 0 1 0 0] CT
-15.5 14 moveto 
1 -1 scale
(-0.98) t 
GR
GR
GS
[0.74955 0 0 0.74991 139.26545 255.50344] CT
0.149 GC
/Helvetica 13.333 F
GS
[1 0 0 1 0 0] CT
-15.5 14 moveto 
1 -1 scale
(-0.97) t 
GR
GR
GS
[0.74955 0 0 0.74991 186.78689 255.50344] CT
0.149 GC
/Helvetica 13.333 F
GS
[1 0 0 1 0 0] CT
-15.5 14 moveto 
1 -1 scale
(-0.96) t 
GR
GR
GS
[0.74955 0 0 0.74991 234.30803 255.50344] CT
0.149 GC
/Helvetica 13.333 F
GS
[1 0 0 1 0 0] CT
-15.5 14 moveto 
1 -1 scale
(-0.95) t 
GR
GR
GS
[0.74955 0 0 0.74991 281.82918 255.50344] CT
0.149 GC
/Helvetica 13.333 F
GS
[1 0 0 1 0 0] CT
-15.5 14 moveto 
1 -1 scale
(-0.94) t 
GR
GR
GS
[0.74955 0 0 0.74991 163.02631 268.75185] CT
0.149 GC
/Helvetica 14.667 F
GS
[1 0 0 1 0 0] CT
-32 15 moveto 
1 -1 scale
(Position x) t 
GR
GR
GS
[0.74955 0 0 0.74991 0 -0.46457] CT
0.149 GC
2 setlinecap
1 LJ
0.667 LW
N
59 336 M
59 28 L
S
GR
GS
[0.74955 0 0 0.74991 0 -0.46457] CT
0.149 GC
2 setlinecap
1 LJ
0.667 LW
N
376 336 M
376 28 L
S
GR
GS
[0.74955 0 0 0.74991 0 -0.46457] CT
0.149 GC
2 setlinecap
1 LJ
0.667 LW
N
59 310.333 M
62.167 310.333 L
S
GR
GS
[0.74955 0 0 0.74991 0 -0.46457] CT
0.149 GC
2 setlinecap
1 LJ
0.667 LW
N
59 259 M
62.167 259 L
S
GR
GS
[0.74955 0 0 0.74991 0 -0.46457] CT
0.149 GC
2 setlinecap
1 LJ
0.667 LW
N
59 207.667 M
62.167 207.667 L
S
GR
GS
[0.74955 0 0 0.74991 0 -0.46457] CT
0.149 GC
2 setlinecap
1 LJ
0.667 LW
N
59 156.333 M
62.167 156.333 L
S
GR
GS
[0.74955 0 0 0.74991 0 -0.46457] CT
0.149 GC
2 setlinecap
1 LJ
0.667 LW
N
59 105 M
62.167 105 L
S
GR
GS
[0.74955 0 0 0.74991 0 -0.46457] CT
0.149 GC
2 setlinecap
1 LJ
0.667 LW
N
59 53.667 M
62.167 53.667 L
S
GR
GS
[0.74955 0 0 0.74991 0 -0.46457] CT
0.149 GC
2 setlinecap
1 LJ
0.667 LW
N
376 310.333 M
372.833 310.333 L
S
GR
GS
[0.74955 0 0 0.74991 0 -0.46457] CT
0.149 GC
2 setlinecap
1 LJ
0.667 LW
N
376 259 M
372.833 259 L
S
GR
GS
[0.74955 0 0 0.74991 0 -0.46457] CT
0.149 GC
2 setlinecap
1 LJ
0.667 LW
N
376 207.667 M
372.833 207.667 L
S
GR
GS
[0.74955 0 0 0.74991 0 -0.46457] CT
0.149 GC
2 setlinecap
1 LJ
0.667 LW
N
376 156.333 M
372.833 156.333 L
S
GR
GS
[0.74955 0 0 0.74991 0 -0.46457] CT
0.149 GC
2 setlinecap
1 LJ
0.667 LW
N
376 105 M
372.833 105 L
S
GR
GS
[0.74955 0 0 0.74991 0 -0.46457] CT
0.149 GC
2 setlinecap
1 LJ
0.667 LW
N
376 53.667 M
372.833 53.667 L
S
GR
GS
[0.74955 0 0 0.74991 40.22567 232.25635] CT
0.149 GC
/Helvetica 13.333 F
GS
[1 0 0 1 0 0] CT
-23 5.5 moveto 
1 -1 scale
(-0.5) t 
GR
GR
GS
[0.74955 0 0 0.74991 40.22567 193.7612] CT
0.149 GC
/Helvetica 13.333 F
GS
[1 0 0 1 0 0] CT
-31 5.5 moveto 
1 -1 scale
(-0.49) t 
GR
GR
GS
[0.74955 0 0 0.74991 40.22567 155.26592] CT
0.149 GC
/Helvetica 13.333 F
GS
[1 0 0 1 0 0] CT
-31 5.5 moveto 
1 -1 scale
(-0.48) t 
GR
GR
GS
[0.74955 0 0 0.74991 40.22567 116.77077] CT
0.149 GC
/Helvetica 13.333 F
GS
[1 0 0 1 0 0] CT
-31 5.5 moveto 
1 -1 scale
(-0.47) t 
GR
GR
GS
[0.74955 0 0 0.74991 40.22567 78.27562] CT
0.149 GC
/Helvetica 13.333 F
GS
[1 0 0 1 0 0] CT
-31 5.5 moveto 
1 -1 scale
(-0.46) t 
GR
GR
GS
[0.74955 0 0 0.74991 40.22567 39.78036] CT
0.149 GC
/Helvetica 13.333 F
GS
[1 0 0 1 0 0] CT
-31 5.5 moveto 
1 -1 scale
(-0.45) t 
GR
GR
GS
[0 -0.74991 0.74955 0 14.24131 136.01823] CT
0.149 GC
/Helvetica 14.667 F
GS
[1 0 0 1 0 0] CT
-32 -4 moveto 
1 -1 scale
(Position y) t 
GR
GR
GS
[0.74955 0 0 0.74991 0 -0.46457] CT
0 0.447 0.741 RC
1 LJ
1.333 LW
N
376.038 233.414 M
374.128 233.456 L
371.254 233.459 L
370.488 233.457 L
370.488 233.457 L
370.057 233.454 L
370.057 233.454 L
369.601 233.448 L
369.127 233.436 L
368.158 233.399 L
366.254 233.295 L
364.13 233.169 L
361.803 233.07 L
359.187 233.028 L
357.059 233.027 L
356.557 233.029 L
356.557 233.029 L
356.341 233.03 L
356.341 233.03 L
356.118 233.035 L
355.914 233.045 L
355.533 233.076 L
354.767 233.169 L
353.633 233.295 L
351.945 233.403 L
349.562 233.457 L
346.661 233.461 L
345.888 233.459 L
345.888 233.459 L
345.451 233.457 L
345.451 233.457 L
344.987 233.45 L
344.508 233.438 L
343.525 233.4 L
341.598 233.294 L
339.471 233.168 L
337.134 233.069 L
334.505 233.027 L
332.463 233.026 L
331.968 233.027 L
331.968 233.027 L
331.749 233.028 L
331.749 233.028 L
331.526 233.033 L
331.321 233.043 L
330.94 233.073 L
330.173 233.166 L
329.04 233.291 L
327.352 233.398 L
324.969 233.451 L
322.058 233.453 L
321.268 233.451 L
321.268 233.451 L
320.836 233.448 L
320.836 233.448 L
320.378 233.441 L
319.904 233.429 L
318.934 233.392 L
317.028 233.287 L
314.901 233.161 L
312.571 233.061 L
309.95 233.019 L
307.858 233.017 L
307.372 233.018 L
307.372 233.018 L
307.153 233.02 L
307.153 233.02 L
306.93 233.025 L
306.725 233.034 L
306.344 233.065 L
305.578 233.157 L
304.448 233.283 L
302.764 233.391 L
300.386 233.445 L
297.459 233.449 L
296.658 233.447 L
296.658 233.447 L
296.22 233.444 L
296.22 233.444 L
295.756 233.437 L
295.276 233.425 L
294.293 233.387 L
292.367 233.281 L
290.238 233.156 L
287.901 233.058 L
285.268 233.017 L
283.262 233.016 L
282.782 233.018 L
282.782 233.018 L
282.565 233.019 L
282.565 233.019 L
282.341 233.024 L
282.136 233.033 L
281.755 233.064 L
280.989 233.157 L
279.862 233.282 L
278.182 233.391 L
275.807 233.446 L
272.863 233.449 L
272.056 233.447 L
272.056 233.447 L
271.616 233.445 L
271.616 233.445 L
271.15 233.438 L
270.667 233.425 L
269.68 233.387 L
267.746 233.281 L
265.617 233.156 L
263.276 233.058 L
260.639 233.019 L
258.669 233.019 L
258.271 233.008 L
258.271 233.008 L
257.399 232.895 L
256.463 232.717 L
255.04 232.426 L
253.154 232.042 L
250.648 231.539 L
247.46 230.927 L
243.568 230.256 L
242.946 230.187 L
242.946 230.187 L
241.951 230.189 L
241.066 230.285 L
240.053 230.537 L
239.257 230.987 L
239.245 230.998 L
239.245 230.998 L
238.706 231.788 L
238.384 232.503 L
237.803 233.474 L
236.76 234.48 L
236.645 234.56 L
236.645 234.56 L
236.19 234.772 L
235.642 234.89 L
234.668 234.95 L
233.21 234.879 L
230.906 234.551 L
230.007 234.373 L
230.007 234.373 L
227.752 233.853 L
225.416 233.267 L
222.288 232.471 L
221.166 232.191 L
219.54 231.839 L
218.157 231.628 L
216.583 231.572 L
216.348 231.595 L
216.348 231.595 L
215.436 231.812 L
214.651 232.126 L
213.53 232.584 L
211.812 233.113 L
211.176 233.265 L
210.253 233.388 L
209.152 233.394 L
207.233 233.214 L
206.948 233.172 L
206.948 233.172 L
204.847 232.801 L
202.647 232.356 L
199.732 231.749 L
196.193 231.056 L
195.019 230.847 L
195.012 230.846 L
195.012 230.846 L
193.923 230.653 L
193.065 230.542 L
193.065 230.542 L
192.318 230.522 L
191.644 230.567 L
190.288 230.738 L
188.417 230.949 L
185.406 231.152 L
184.463 231.194 L
183.704 231.187 L
183.704 231.187 L
182.761 231.124 L
183.212 231.072 L
186.097 231.017 L
186.097 231.017 L
188.448 230.907 L
188.448 230.907 L
190.705 230.416 L
190.705 230.416 L
192.018 229.935 L
192.774 229.605 L
193.998 228.962 L
195.34 227.807 L
195.34 227.807 L
195.6 227.17 L
195.626 226.996 L
195.626 226.996 L
195.611 226.261 L
195.497 225.464 L
195.242 223.784 L
195.108 221.456 L
195.114 220.773 L
195.118 220.433 L
195.118 220.433 L
195.084 219.594 L
194.932 218.663 L
194.471 217.239 L
193.57 215.415 L
193.433 215.178 L
193.433 215.178 L
192.217 213.237 L
190.914 211.246 L
189.297 208.609 L
187.538 205.203 L
186.972 203.677 L
186.706 202.319 L
186.704 201.271 L
186.704 201.271 L
186.971 200.126 L
187.365 199.095 L
187.866 197.75 L
188.317 195.954 L
188.467 195.019 L
188.481 194.842 L
188.481 194.842 L
188.393 194.224 L
188.261 193.819 L
188.261 193.819 L
187.972 193.119 L
187.653 192.376 L
187.105 190.839 L
186.678 188.622 L
186.558 186.258 L
186.554 184.772 L
186.704 183.903 L
186.704 183.903 L
186.929 183.416 L
186.929 183.416 L
187.218 182.934 L
187.521 182.456 L
188.045 181.5 L
188.435 180.34 L
188.617 178.832 L
188.602 176.87 L
188.537 175.315 L
188.47 174.653 L
188.419 174.059 L
188.479 173.282 L
188.738 172.43 L
189.225 171.403 L
189.892 170.102 L
190.637 168.305 L
190.854 167.636 L
190.9 167.471 L
190.9 167.471 L
191.016 166.732 L
190.981 165.886 L
190.643 164.547 L
190.593 164.409 L
190.593 164.409 L
189.778 162.61 L
188.9 160.896 L
187.771 158.559 L
186.601 155.618 L
186.21 154.439 L
186.079 153.962 L
186.079 153.962 L
185.916 152.814 L
185.952 151.781 L
185.989 151.544 L
185.989 151.544 L
186.362 150.287 L
186.779 149.223 L
187.252 147.767 L
187.627 145.725 L
187.724 144.773 L
187.729 144.676 L
187.729 144.676 L
187.63 144.064 L
187.63 144.064 L
187.376 143.412 L
187.062 142.721 L
186.474 141.281 L
186.037 139.624 L
185.812 137.598 L
185.763 135.236 L
185.76 134.414 L
185.872 133.094 L
185.872 133.094 L
185.992 132.141 L
186.025 131.149 L
185.885 129.743 L
185.516 128.045 L
184.928 125.877 L
184.217 123.118 L
184.071 122.48 L
183.887 121.335 L
183.89 120.304 L
184.037 119.525 L
184.037 119.525 L
184.535 118.336 L
185.041 117.371 L
185.669 115.994 L
186.259 114.047 L
186.31 113.817 L
186.326 113.731 L
186.326 113.731 L
186.281 113.135 L
186.281 113.135 L
186.05 112.482 L
185.742 111.777 L
185.16 110.294 L
184.743 108.573 L
184.566 106.493 L
184.57 104.103 L
184.577 103.684 L
184.591 103.402 L
184.591 103.402 L
184.826 102.271 L
184.826 102.271 L
185.149 101.07 L
185.293 100.045 L
185.268 98.651 L
185.018 96.928 L
184.583 94.714 L
184.2 92.624 L
184.198 92.611 L
184.198 92.611 L
184.043 91.867 L
183.936 91.213 L
183.951 90.437 L
184.208 89.607 L
184.749 88.835 L
184.749 88.835 L
185.651 88.066 L
186.54 87.402 L
187.644 86.432 L
188.145 85.866 L
188.377 85.506 L
188.377 85.506 L
188.603 84.855 L
188.654 84.088 L
188.389 82.825 L
188.301 82.584 L
188.301 82.584 L
187.475 80.846 L
186.532 79.135 L
185.315 76.827 L
184.054 73.947 L
183.607 72.711 L
183.241 71.32 L
183.097 70.054 L
183.255 68.453 L
183.41 67.972 L
183.41 67.972 L
183.893 67.027 L
184.446 66.151 L
185.142 64.933 L
185.723 63.523 L
185.755 63.409 L
185.755 63.409 L
185.755 62.85 L
185.747 62.805 L
185.747 62.805 L
185.559 62.187 L
185.305 61.518 L
184.845 60.11 L
184.568 58.469 L
184.542 56.48 L
184.703 53.952 L
184.999 52.6 L
184.999 52.6 L
185.258 51.733 L
185.436 50.834 L
185.488 49.545 L
185.319 47.978 L
184.944 45.96 L
184.459 43.377 L
184.392 42.981 L
184.375 42.88 L
184.375 42.88 L
184.225 42.174 L
184.14 41.565 L
184.21 40.854 L
184.566 40.116 L
184.934 39.708 L
184.934 39.708 L
185.907 39.022 L
186.881 38.441 L
188.103 37.593 L
188.972 36.764 L
189.346 36.182 L
189.346 36.182 L
189.574 35.497 L
189.64 34.708 L
189.417 33.45 L
188.939 32.238 L
188.939 32.238 L
187.936 30.399 L
186.833 28.556 L
186.498 27.963 L
S
GR
%%Trailer
%%Pages: 1
%%EOF
