%!PS-Adobe-3.0 EPSF-3.0
%%Creator: (MATLAB, The Mathworks, Inc. Version 9.10.0.1669831 \(R2021a\) Update 2. Operating System: Windows 10)
%%Title: C:/Users/becka/Documents/Me_dokumenty/CVUT_FEjL/DIPLOMKA_V2/matlab/simple_experiments/ILC_experiments/ILC_1st_last_3s_detail.eps
%%CreationDate: 2021-08-12T22:24:31
%%Pages: (atend)
%%BoundingBox:     0     0   420   315
%%LanguageLevel: 3
%%EndComments
%%BeginProlog
%%BeginResource: procset (Apache XML Graphics Std ProcSet) 1.2 0
%%Version: 1.2 0
%%Copyright: (Copyright 2001-2003,2010 The Apache Software Foundation. License terms: http://www.apache.org/licenses/LICENSE-2.0)
/bd{bind def}bind def
/ld{load def}bd
/GR/grestore ld
/GS/gsave ld
/RM/rmoveto ld
/C/curveto ld
/t/show ld
/L/lineto ld
/ML/setmiterlimit ld
/CT/concat ld
/f/fill ld
/N/newpath ld
/S/stroke ld
/CC/setcmykcolor ld
/A/ashow ld
/cp/closepath ld
/RC/setrgbcolor ld
/LJ/setlinejoin ld
/GC/setgray ld
/LW/setlinewidth ld
/M/moveto ld
/re {4 2 roll M
1 index 0 rlineto
0 exch rlineto
neg 0 rlineto
cp } bd
/_ctm matrix def
/_tm matrix def
/BT { _ctm currentmatrix pop matrix _tm copy pop 0 0 moveto } bd
/ET { _ctm setmatrix } bd
/iTm { _ctm setmatrix _tm concat } bd
/Tm { _tm astore pop iTm 0 0 moveto } bd
/ux 0.0 def
/uy 0.0 def
/F {
  /Tp exch def
  /Tf exch def
  Tf findfont Tp scalefont setfont
  /cf Tf def  /cs Tp def
} bd
/ULS {currentpoint /uy exch def /ux exch def} bd
/ULE {
  /Tcx currentpoint pop def
  gsave
  newpath
  cf findfont cs scalefont dup
  /FontMatrix get 0 get /Ts exch def /FontInfo get dup
  /UnderlinePosition get Ts mul /To exch def
  /UnderlineThickness get Ts mul /Tt exch def
  ux uy To add moveto  Tcx uy To add lineto
  Tt setlinewidth stroke
  grestore
} bd
/OLE {
  /Tcx currentpoint pop def
  gsave
  newpath
  cf findfont cs scalefont dup
  /FontMatrix get 0 get /Ts exch def /FontInfo get dup
  /UnderlinePosition get Ts mul /To exch def
  /UnderlineThickness get Ts mul /Tt exch def
  ux uy To add cs add moveto Tcx uy To add cs add lineto
  Tt setlinewidth stroke
  grestore
} bd
/SOE {
  /Tcx currentpoint pop def
  gsave
  newpath
  cf findfont cs scalefont dup
  /FontMatrix get 0 get /Ts exch def /FontInfo get dup
  /UnderlinePosition get Ts mul /To exch def
  /UnderlineThickness get Ts mul /Tt exch def
  ux uy To add cs 10 mul 26 idiv add moveto Tcx uy To add cs 10 mul 26 idiv add lineto
  Tt setlinewidth stroke
  grestore
} bd
/QT {
/Y22 exch store
/X22 exch store
/Y21 exch store
/X21 exch store
currentpoint
/Y21 load 2 mul add 3 div exch
/X21 load 2 mul add 3 div exch
/X21 load 2 mul /X22 load add 3 div
/Y21 load 2 mul /Y22 load add 3 div
/X22 load /Y22 load curveto
} bd
/SSPD {
dup length /d exch dict def
{
/v exch def
/k exch def
currentpagedevice k known {
/cpdv currentpagedevice k get def
v cpdv ne {
/upd false def
/nullv v type /nulltype eq def
/nullcpdv cpdv type /nulltype eq def
nullv nullcpdv or
{
/upd true def
} {
/sametype v type cpdv type eq def
sametype {
v type /arraytype eq {
/vlen v length def
/cpdvlen cpdv length def
vlen cpdvlen eq {
0 1 vlen 1 sub {
/i exch def
/obj v i get def
/cpdobj cpdv i get def
obj cpdobj ne {
/upd true def
exit
} if
} for
} {
/upd true def
} ifelse
} {
v type /dicttype eq {
v {
/dv exch def
/dk exch def
/cpddv cpdv dk get def
dv cpddv ne {
/upd true def
exit
} if
} forall
} {
/upd true def
} ifelse
} ifelse
} if
} ifelse
upd true eq {
d k v put
} if
} if
} if
} forall
d length 0 gt {
d setpagedevice
} if
} bd
/RE { % /NewFontName [NewEncodingArray] /FontName RE -
  findfont dup length dict begin
  {
    1 index /FID ne
    {def} {pop pop} ifelse
  } forall
  /Encoding exch def
  /FontName 1 index def
  currentdict definefont pop
  end
} bind def
%%EndResource
%%BeginResource: procset (Apache XML Graphics EPS ProcSet) 1.0 0
%%Version: 1.0 0
%%Copyright: (Copyright 2002-2003 The Apache Software Foundation. License terms: http://www.apache.org/licenses/LICENSE-2.0)
/BeginEPSF { %def
/b4_Inc_state save def         % Save state for cleanup
/dict_count countdictstack def % Count objects on dict stack
/op_count count 1 sub def      % Count objects on operand stack
userdict begin                 % Push userdict on dict stack
/showpage { } def              % Redefine showpage, { } = null proc
0 setgray 0 setlinecap         % Prepare graphics state
1 setlinewidth 0 setlinejoin
10 setmiterlimit [ ] 0 setdash newpath
/languagelevel where           % If level not equal to 1 then
{pop languagelevel             % set strokeadjust and
1 ne                           % overprint to their defaults.
{false setstrokeadjust false setoverprint
} if
} if
} bd
/EndEPSF { %def
count op_count sub {pop} repeat            % Clean up stacks
countdictstack dict_count sub {end} repeat
b4_Inc_state restore
} bd
%%EndResource
%FOPBeginFontDict
%%IncludeResource: font Courier-Oblique
%%IncludeResource: font Courier-BoldOblique
%%IncludeResource: font Courier-Bold
%%IncludeResource: font ZapfDingbats
%%IncludeResource: font Symbol
%%IncludeResource: font Helvetica
%%IncludeResource: font Helvetica-Oblique
%%IncludeResource: font Helvetica-Bold
%%IncludeResource: font Helvetica-BoldOblique
%%IncludeResource: font Times-Roman
%%IncludeResource: font Times-Italic
%%IncludeResource: font Times-Bold
%%IncludeResource: font Times-BoldItalic
%%IncludeResource: font Courier
%FOPEndFontDict
%%BeginResource: encoding WinAnsiEncoding
/WinAnsiEncoding [
/.notdef /.notdef /.notdef /.notdef /.notdef
/.notdef /.notdef /.notdef /.notdef /.notdef
/.notdef /.notdef /.notdef /.notdef /.notdef
/.notdef /.notdef /.notdef /.notdef /.notdef
/.notdef /.notdef /.notdef /.notdef /.notdef
/.notdef /.notdef /.notdef /.notdef /.notdef
/.notdef /.notdef /space /exclam /quotedbl
/numbersign /dollar /percent /ampersand /quotesingle
/parenleft /parenright /asterisk /plus /comma
/hyphen /period /slash /zero /one
/two /three /four /five /six
/seven /eight /nine /colon /semicolon
/less /equal /greater /question /at
/A /B /C /D /E
/F /G /H /I /J
/K /L /M /N /O
/P /Q /R /S /T
/U /V /W /X /Y
/Z /bracketleft /backslash /bracketright /asciicircum
/underscore /quoteleft /a /b /c
/d /e /f /g /h
/i /j /k /l /m
/n /o /p /q /r
/s /t /u /v /w
/x /y /z /braceleft /bar
/braceright /asciitilde /bullet /Euro /bullet
/quotesinglbase /florin /quotedblbase /ellipsis /dagger
/daggerdbl /circumflex /perthousand /Scaron /guilsinglleft
/OE /bullet /Zcaron /bullet /bullet
/quoteleft /quoteright /quotedblleft /quotedblright /bullet
/endash /emdash /asciitilde /trademark /scaron
/guilsinglright /oe /bullet /zcaron /Ydieresis
/space /exclamdown /cent /sterling /currency
/yen /brokenbar /section /dieresis /copyright
/ordfeminine /guillemotleft /logicalnot /sfthyphen /registered
/macron /degree /plusminus /twosuperior /threesuperior
/acute /mu /paragraph /middot /cedilla
/onesuperior /ordmasculine /guillemotright /onequarter /onehalf
/threequarters /questiondown /Agrave /Aacute /Acircumflex
/Atilde /Adieresis /Aring /AE /Ccedilla
/Egrave /Eacute /Ecircumflex /Edieresis /Igrave
/Iacute /Icircumflex /Idieresis /Eth /Ntilde
/Ograve /Oacute /Ocircumflex /Otilde /Odieresis
/multiply /Oslash /Ugrave /Uacute /Ucircumflex
/Udieresis /Yacute /Thorn /germandbls /agrave
/aacute /acircumflex /atilde /adieresis /aring
/ae /ccedilla /egrave /eacute /ecircumflex
/edieresis /igrave /iacute /icircumflex /idieresis
/eth /ntilde /ograve /oacute /ocircumflex
/otilde /odieresis /divide /oslash /ugrave
/uacute /ucircumflex /udieresis /yacute /thorn
/ydieresis
] def
%%EndResource
%FOPBeginFontReencode
/Courier-Oblique findfont
dup length dict begin
  {1 index /FID ne {def} {pop pop} ifelse} forall
  /Encoding WinAnsiEncoding def
  currentdict
end
/Courier-Oblique exch definefont pop
/Courier-BoldOblique findfont
dup length dict begin
  {1 index /FID ne {def} {pop pop} ifelse} forall
  /Encoding WinAnsiEncoding def
  currentdict
end
/Courier-BoldOblique exch definefont pop
/Courier-Bold findfont
dup length dict begin
  {1 index /FID ne {def} {pop pop} ifelse} forall
  /Encoding WinAnsiEncoding def
  currentdict
end
/Courier-Bold exch definefont pop
/Helvetica findfont
dup length dict begin
  {1 index /FID ne {def} {pop pop} ifelse} forall
  /Encoding WinAnsiEncoding def
  currentdict
end
/Helvetica exch definefont pop
/Helvetica-Oblique findfont
dup length dict begin
  {1 index /FID ne {def} {pop pop} ifelse} forall
  /Encoding WinAnsiEncoding def
  currentdict
end
/Helvetica-Oblique exch definefont pop
/Helvetica-Bold findfont
dup length dict begin
  {1 index /FID ne {def} {pop pop} ifelse} forall
  /Encoding WinAnsiEncoding def
  currentdict
end
/Helvetica-Bold exch definefont pop
/Helvetica-BoldOblique findfont
dup length dict begin
  {1 index /FID ne {def} {pop pop} ifelse} forall
  /Encoding WinAnsiEncoding def
  currentdict
end
/Helvetica-BoldOblique exch definefont pop
/Times-Roman findfont
dup length dict begin
  {1 index /FID ne {def} {pop pop} ifelse} forall
  /Encoding WinAnsiEncoding def
  currentdict
end
/Times-Roman exch definefont pop
/Times-Italic findfont
dup length dict begin
  {1 index /FID ne {def} {pop pop} ifelse} forall
  /Encoding WinAnsiEncoding def
  currentdict
end
/Times-Italic exch definefont pop
/Times-Bold findfont
dup length dict begin
  {1 index /FID ne {def} {pop pop} ifelse} forall
  /Encoding WinAnsiEncoding def
  currentdict
end
/Times-Bold exch definefont pop
/Times-BoldItalic findfont
dup length dict begin
  {1 index /FID ne {def} {pop pop} ifelse} forall
  /Encoding WinAnsiEncoding def
  currentdict
end
/Times-BoldItalic exch definefont pop
/Courier findfont
dup length dict begin
  {1 index /FID ne {def} {pop pop} ifelse} forall
  /Encoding WinAnsiEncoding def
  currentdict
end
/Courier exch definefont pop
%FOPEndFontReencode
%%EndProlog
%%Page: 1 1
%%PageBoundingBox: 0 0 420 315
%%BeginPageSetup
[1 0 0 -1 0 315] CT
%%EndPageSetup
GS
[0.75 0 0 0.75 0 0] CT
1 GC
N
0 0 560 420 re
f
GR
GS
[0.75 0 0 0.75 0 0] CT
1 GC
N
0 0 560 420 re
f
GR
GS
[0.75 0 0 0.75 0 0] CT
1 GC
N
73 366 M
507 366 L
507 31 L
73 31 L
cp
f
GR
GS
[0.75 0 0 0.75 0 0] CT
0.149 GC
2 setlinecap
1 LJ
0.667 LW
N
73.009 366 M
506.991 366 L
S
GR
GS
[0.75 0 0 0.75 0 0] CT
0.149 GC
2 setlinecap
1 LJ
0.667 LW
N
73.009 31 M
506.991 31 L
S
GR
GS
[0.75 0 0 0.75 0 0] CT
0.149 GC
2 setlinecap
1 LJ
0.667 LW
N
73.009 366 M
73.009 361.66 L
S
GR
GS
[0.75 0 0 0.75 0 0] CT
0.149 GC
2 setlinecap
1 LJ
0.667 LW
N
217.662 366 M
217.662 361.66 L
S
GR
GS
[0.75 0 0 0.75 0 0] CT
0.149 GC
2 setlinecap
1 LJ
0.667 LW
N
362.338 366 M
362.338 361.66 L
S
GR
GS
[0.75 0 0 0.75 0 0] CT
0.149 GC
2 setlinecap
1 LJ
0.667 LW
N
506.991 366 M
506.991 361.66 L
S
GR
GS
[0.75 0 0 0.75 0 0] CT
0.149 GC
2 setlinecap
1 LJ
0.667 LW
N
73.009 31 M
73.009 35.34 L
S
GR
GS
[0.75 0 0 0.75 0 0] CT
0.149 GC
2 setlinecap
1 LJ
0.667 LW
N
217.662 31 M
217.662 35.34 L
S
GR
GS
[0.75 0 0 0.75 0 0] CT
0.149 GC
2 setlinecap
1 LJ
0.667 LW
N
362.338 31 M
362.338 35.34 L
S
GR
GS
[0.75 0 0 0.75 0 0] CT
0.149 GC
2 setlinecap
1 LJ
0.667 LW
N
506.991 31 M
506.991 35.34 L
S
GR
GS
[0.75 0 0 0.75 54.75662 279.3] CT
0.149 GC
/Times-Roman 18.667 F
GS
[1 0 0 1 0 0] CT
-16.5 18 moveto 
1 -1 scale
(99.3) t 
GR
GR
GS
[0.75 0 0 0.75 163.24669 279.3] CT
0.149 GC
/Times-Roman 18.667 F
GS
[1 0 0 1 0 0] CT
-21 18 moveto 
1 -1 scale
(99.35) t 
GR
GR
GS
[0.75 0 0 0.75 271.7533 279.3] CT
0.149 GC
/Times-Roman 18.667 F
GS
[1 0 0 1 0 0] CT
-16.5 18 moveto 
1 -1 scale
(99.4) t 
GR
GR
GS
[0.75 0 0 0.75 380.24339 279.3] CT
0.149 GC
/Times-Roman 18.667 F
GS
[1 0 0 1 0 0] CT
-21 18 moveto 
1 -1 scale
(99.45) t 
GR
GR
GS
[0.75 0 0 0.75 217.5 296.99998] CT
0.149 GC
/Times-Roman 20.533 F
GS
[1 0 0 1 0 0] CT
-32 19 moveto 
1 -1 scale
(time [s]) t 
GR
GR
GS
[0.75 0 0 0.75 0 0] CT
0.149 GC
2 setlinecap
1 LJ
0.667 LW
N
73.009 366 M
73.009 31 L
S
GR
GS
[0.75 0 0 0.75 0 0] CT
0.149 GC
2 setlinecap
1 LJ
0.667 LW
N
506.991 366 M
506.991 31 L
S
GR
GS
[0.75 0 0 0.75 0 0] CT
0.149 GC
2 setlinecap
1 LJ
0.667 LW
N
73.009 347.389 M
77.357 347.389 L
S
GR
GS
[0.75 0 0 0.75 0 0] CT
0.149 GC
2 setlinecap
1 LJ
0.667 LW
N
73.009 310.167 M
77.357 310.167 L
S
GR
GS
[0.75 0 0 0.75 0 0] CT
0.149 GC
2 setlinecap
1 LJ
0.667 LW
N
73.009 272.944 M
77.357 272.944 L
S
GR
GS
[0.75 0 0 0.75 0 0] CT
0.149 GC
2 setlinecap
1 LJ
0.667 LW
N
73.009 235.722 M
77.357 235.722 L
S
GR
GS
[0.75 0 0 0.75 0 0] CT
0.149 GC
2 setlinecap
1 LJ
0.667 LW
N
73.009 198.5 M
77.357 198.5 L
S
GR
GS
[0.75 0 0 0.75 0 0] CT
0.149 GC
2 setlinecap
1 LJ
0.667 LW
N
73.009 161.278 M
77.357 161.278 L
S
GR
GS
[0.75 0 0 0.75 0 0] CT
0.149 GC
2 setlinecap
1 LJ
0.667 LW
N
73.009 124.056 M
77.357 124.056 L
S
GR
GS
[0.75 0 0 0.75 0 0] CT
0.149 GC
2 setlinecap
1 LJ
0.667 LW
N
73.009 86.833 M
77.357 86.833 L
S
GR
GS
[0.75 0 0 0.75 0 0] CT
0.149 GC
2 setlinecap
1 LJ
0.667 LW
N
73.009 49.611 M
77.357 49.611 L
S
GR
GS
[0.75 0 0 0.75 0 0] CT
0.149 GC
2 setlinecap
1 LJ
0.667 LW
N
506.991 347.389 M
502.643 347.389 L
S
GR
GS
[0.75 0 0 0.75 0 0] CT
0.149 GC
2 setlinecap
1 LJ
0.667 LW
N
506.991 310.167 M
502.643 310.167 L
S
GR
GS
[0.75 0 0 0.75 0 0] CT
0.149 GC
2 setlinecap
1 LJ
0.667 LW
N
506.991 272.944 M
502.643 272.944 L
S
GR
GS
[0.75 0 0 0.75 0 0] CT
0.149 GC
2 setlinecap
1 LJ
0.667 LW
N
506.991 235.722 M
502.643 235.722 L
S
GR
GS
[0.75 0 0 0.75 0 0] CT
0.149 GC
2 setlinecap
1 LJ
0.667 LW
N
506.991 198.5 M
502.643 198.5 L
S
GR
GS
[0.75 0 0 0.75 0 0] CT
0.149 GC
2 setlinecap
1 LJ
0.667 LW
N
506.991 161.278 M
502.643 161.278 L
S
GR
GS
[0.75 0 0 0.75 0 0] CT
0.149 GC
2 setlinecap
1 LJ
0.667 LW
N
506.991 124.056 M
502.643 124.056 L
S
GR
GS
[0.75 0 0 0.75 0 0] CT
0.149 GC
2 setlinecap
1 LJ
0.667 LW
N
506.991 86.833 M
502.643 86.833 L
S
GR
GS
[0.75 0 0 0.75 0 0] CT
0.149 GC
2 setlinecap
1 LJ
0.667 LW
N
506.991 49.611 M
502.643 49.611 L
S
GR
GS
[0.75 0 0 0.75 49.95545 260.54166] CT
0.149 GC
/Times-Roman 18.667 F
GS
[1 0 0 1 0 0] CT
-19 7 moveto 
1 -1 scale
(50) t 
GR
GR
GS
[0.75 0 0 0.75 49.95545 232.62499] CT
0.149 GC
/Times-Roman 18.667 F
GS
[1 0 0 1 0 0] CT
-19 7 moveto 
1 -1 scale
(52) t 
GR
GR
GS
[0.75 0 0 0.75 49.95545 204.70834] CT
0.149 GC
/Times-Roman 18.667 F
GS
[1 0 0 1 0 0] CT
-19 7 moveto 
1 -1 scale
(54) t 
GR
GR
GS
[0.75 0 0 0.75 49.95545 176.79167] CT
0.149 GC
/Times-Roman 18.667 F
GS
[1 0 0 1 0 0] CT
-19 7 moveto 
1 -1 scale
(56) t 
GR
GR
GS
[0.75 0 0 0.75 49.95545 148.875] CT
0.149 GC
/Times-Roman 18.667 F
GS
[1 0 0 1 0 0] CT
-19 7 moveto 
1 -1 scale
(58) t 
GR
GR
GS
[0.75 0 0 0.75 49.95545 120.95833] CT
0.149 GC
/Times-Roman 18.667 F
GS
[1 0 0 1 0 0] CT
-19 7 moveto 
1 -1 scale
(60) t 
GR
GR
GS
[0.75 0 0 0.75 49.95545 93.04167] CT
0.149 GC
/Times-Roman 18.667 F
GS
[1 0 0 1 0 0] CT
-19 7 moveto 
1 -1 scale
(62) t 
GR
GR
GS
[0.75 0 0 0.75 49.95545 65.125] CT
0.149 GC
/Times-Roman 18.667 F
GS
[1 0 0 1 0 0] CT
-19 7 moveto 
1 -1 scale
(64) t 
GR
GR
GS
[0.75 0 0 0.75 49.95545 37.20833] CT
0.149 GC
/Times-Roman 18.667 F
GS
[1 0 0 1 0 0] CT
-19 7 moveto 
1 -1 scale
(66) t 
GR
GR
GS
[0 -0.75 0.75 0 32.70432 148.8749] CT
0.149 GC
/Times-Roman 20.533 F
GS
[1 0 0 1 0 0] CT
-54 -5 moveto 
1 -1 scale
(amplitude [-]) t 
GR
GR
GS
[0.75 0 0 0.75 0 0] CT
0 0.447 0.741 RC
1 LJ
1.333 LW
N
91.043 366.04 M
93.251 363.767 L
96.143 360.789 L
99.035 357.811 L
101.926 354.833 L
104.818 351.856 L
107.71 348.878 L
110.624 345.9 L
113.515 342.922 L
116.407 339.944 L
119.299 336.967 L
122.191 333.989 L
125.082 331.011 L
127.974 328.033 L
130.866 325.056 L
133.758 322.078 L
136.649 319.1 L
139.541 316.122 L
142.433 313.144 L
145.325 310.167 L
148.216 307.189 L
151.13 304.211 L
154.022 301.233 L
156.914 298.256 L
159.805 295.278 L
162.697 292.3 L
165.589 289.322 L
168.481 286.344 L
171.372 283.367 L
174.264 280.389 L
177.156 277.411 L
180.048 274.433 L
182.939 271.456 L
185.831 268.478 L
188.723 265.5 L
191.637 262.522 L
194.528 259.544 L
197.42 256.567 L
200.312 253.589 L
203.204 250.611 L
206.095 247.633 L
208.987 244.656 L
211.879 241.678 L
214.771 238.7 L
217.662 235.722 L
220.554 232.744 L
223.446 229.767 L
226.337 226.789 L
229.229 223.811 L
232.143 220.833 L
235.035 217.856 L
237.927 214.878 L
240.818 211.9 L
243.71 208.922 L
246.602 205.944 L
249.494 202.967 L
252.385 199.989 L
255.277 197.011 L
258.169 194.033 L
261.06 191.056 L
263.952 188.078 L
266.844 185.1 L
269.736 182.122 L
272.65 179.144 L
275.541 176.167 L
278.433 173.189 L
281.325 170.211 L
284.217 167.233 L
287.108 164.256 L
290 161.278 L
292.892 164.256 L
295.783 167.233 L
298.675 170.211 L
301.567 173.189 L
304.459 176.167 L
307.35 179.144 L
310.264 182.122 L
313.156 185.1 L
316.048 188.078 L
318.94 191.056 L
321.831 194.033 L
324.723 197.011 L
327.615 199.989 L
330.507 202.967 L
333.398 205.944 L
336.29 208.922 L
339.182 211.9 L
342.073 214.878 L
344.965 217.856 L
347.857 220.833 L
350.771 223.811 L
353.663 226.789 L
356.554 229.767 L
359.446 232.744 L
362.338 235.722 L
365.229 238.7 L
368.121 241.678 L
371.013 244.656 L
373.905 247.633 L
376.796 250.611 L
379.688 253.589 L
382.58 256.567 L
385.472 259.544 L
388.363 262.522 L
391.277 265.5 L
394.169 268.478 L
397.061 271.456 L
399.952 274.433 L
402.844 277.411 L
405.736 280.389 L
408.628 283.367 L
411.519 286.344 L
414.411 289.322 L
417.303 292.3 L
420.195 295.278 L
423.086 298.256 L
425.978 301.233 L
428.87 304.211 L
431.784 307.189 L
434.676 310.167 L
437.567 313.144 L
440.459 316.122 L
443.351 319.1 L
446.242 322.078 L
449.134 325.056 L
452.026 328.033 L
454.918 331.011 L
457.809 333.989 L
460.701 336.967 L
463.593 339.944 L
466.485 342.922 L
469.376 345.9 L
472.29 348.878 L
475.182 351.856 L
478.074 354.833 L
480.965 357.811 L
483.857 360.789 L
486.749 363.767 L
488.957 366.04 L
S
GR
GS
[0.75 0 0 0.75 0 0] CT
0.851 0.325 0.098 RC
1 LJ
1.333 LW
N
92.577 366.04 M
93.251 365.347 L
96.143 362.372 L
99.035 359.395 L
101.926 356.416 L
104.818 353.436 L
107.71 350.455 L
110.624 347.471 L
113.515 344.487 L
116.407 341.502 L
119.299 338.515 L
122.191 335.529 L
125.082 332.543 L
127.974 329.559 L
130.866 326.579 L
133.758 323.604 L
136.649 320.637 L
139.541 317.681 L
142.433 314.74 L
145.325 311.817 L
148.216 308.917 L
151.13 306.044 L
154.022 303.2 L
156.914 300.389 L
159.805 297.61 L
162.697 294.866 L
165.589 292.154 L
168.481 289.473 L
171.372 286.818 L
174.264 284.185 L
177.156 281.568 L
180.048 278.959 L
182.939 276.349 L
185.831 273.725 L
188.723 271.078 L
191.637 268.394 L
194.528 265.663 L
197.42 262.876 L
200.312 260.025 L
203.204 257.11 L
206.095 254.13 L
208.987 251.092 L
211.879 248.002 L
214.771 244.873 L
217.662 241.717 L
220.554 238.549 L
223.446 235.381 L
226.337 232.229 L
229.229 229.104 L
232.143 226.019 L
235.035 222.986 L
237.927 220.016 L
240.818 217.119 L
243.71 214.304 L
246.602 211.582 L
249.494 208.961 L
252.385 206.451 L
255.277 204.063 L
258.169 201.807 L
261.06 199.696 L
263.952 197.741 L
266.844 195.954 L
269.736 194.35 L
272.65 192.94 L
275.541 191.738 L
278.433 190.758 L
281.325 190.016 L
284.217 189.535 L
287.108 189.358 L
290 189.514 L
292.892 189.986 L
295.783 190.708 L
298.675 191.693 L
301.567 192.893 L
304.459 194.202 L
307.35 195.714 L
310.264 197.418 L
313.156 199.296 L
316.048 201.331 L
318.94 203.507 L
321.831 205.812 L
324.723 208.23 L
327.615 210.75 L
330.507 213.361 L
333.398 216.05 L
336.29 218.808 L
339.182 221.626 L
342.073 224.494 L
344.965 227.404 L
347.857 230.349 L
350.771 233.322 L
353.663 236.316 L
356.554 239.324 L
359.446 242.342 L
362.338 245.365 L
365.229 248.389 L
368.121 251.408 L
371.013 254.421 L
373.905 257.422 L
376.796 260.411 L
379.688 263.384 L
382.58 266.34 L
385.472 269.275 L
388.363 272.19 L
391.277 275.082 L
394.169 277.951 L
397.061 280.795 L
399.952 283.615 L
402.844 286.41 L
405.736 289.18 L
408.628 291.924 L
411.519 294.645 L
414.411 297.341 L
417.303 300.014 L
420.195 302.665 L
423.086 305.295 L
425.978 307.904 L
428.87 310.494 L
431.784 313.066 L
434.676 315.622 L
437.567 318.164 L
440.459 320.693 L
443.351 323.21 L
446.242 325.718 L
449.134 328.217 L
452.026 330.711 L
454.918 333.199 L
457.809 335.685 L
460.701 338.17 L
463.593 340.655 L
466.485 343.142 L
469.376 345.632 L
472.29 348.128 L
475.182 350.631 L
478.074 353.142 L
480.965 355.663 L
483.857 358.195 L
486.749 360.74 L
489.641 363.299 L
492.532 365.872 L
492.72 366.04 L
S
GR
GS
[0.75 0 0 0.75 0 0] CT
1 GC
N
496 86 M
496 42 L
336 42 L
336 86 L
cp
f
GR
GS
[0.75 0 0 0.75 287.25 40.39888] CT
/Times-Roman 16.8 F
GS
[1 0 0 1 0 0] CT
0 6 moveto 
1 -1 scale
(reference) t 
GR
GR
GS
[0.75 0 0 0.75 0 0] CT
0 0.447 0.741 RC
1 LJ
1.333 LW
N
340 53.865 M
380 53.865 L
S
GR
GS
[0.75 0 0 0.75 287.25 55.60113] CT
/Times-Roman 16.8 F
GS
[1 0 0 1 0 0] CT
0 6 moveto 
1 -1 scale
(output with ILC) t 
GR
GR
GS
[0.75 0 0 0.75 0 0] CT
0.851 0.325 0.098 RC
1 LJ
1.333 LW
N
340 74.135 M
380 74.135 L
S
GR
GS
[0.75 0 0 0.75 0 0] CT
0.149 GC
10.0 ML
0.667 LW
N
336 86 M
336 42 L
496 42 L
496 86 L
cp
S
GR
%%Trailer
%%Pages: 1
%%EOF
