%!PS-Adobe-3.0 EPSF-3.0
%%Creator: (MATLAB, The Mathworks, Inc. Version 9.10.0.1669831 \(R2021a\) Update 2. Operating System: Windows 10)
%%Title: C:/Users/becka/Documents/Me_dokumenty/CVUT_FEjL/DIPLOMKA_V2/matlab/simple_experiments/square/square_drawing.eps
%%CreationDate: 2021-08-12T00:27:11
%%Pages: (atend)
%%BoundingBox:     0     0   312   283
%%LanguageLevel: 3
%%EndComments
%%BeginProlog
%%BeginResource: procset (Apache XML Graphics Std ProcSet) 1.2 0
%%Version: 1.2 0
%%Copyright: (Copyright 2001-2003,2010 The Apache Software Foundation. License terms: http://www.apache.org/licenses/LICENSE-2.0)
/bd{bind def}bind def
/ld{load def}bd
/GR/grestore ld
/GS/gsave ld
/RM/rmoveto ld
/C/curveto ld
/t/show ld
/L/lineto ld
/ML/setmiterlimit ld
/CT/concat ld
/f/fill ld
/N/newpath ld
/S/stroke ld
/CC/setcmykcolor ld
/A/ashow ld
/cp/closepath ld
/RC/setrgbcolor ld
/LJ/setlinejoin ld
/GC/setgray ld
/LW/setlinewidth ld
/M/moveto ld
/re {4 2 roll M
1 index 0 rlineto
0 exch rlineto
neg 0 rlineto
cp } bd
/_ctm matrix def
/_tm matrix def
/BT { _ctm currentmatrix pop matrix _tm copy pop 0 0 moveto } bd
/ET { _ctm setmatrix } bd
/iTm { _ctm setmatrix _tm concat } bd
/Tm { _tm astore pop iTm 0 0 moveto } bd
/ux 0.0 def
/uy 0.0 def
/F {
  /Tp exch def
  /Tf exch def
  Tf findfont Tp scalefont setfont
  /cf Tf def  /cs Tp def
} bd
/ULS {currentpoint /uy exch def /ux exch def} bd
/ULE {
  /Tcx currentpoint pop def
  gsave
  newpath
  cf findfont cs scalefont dup
  /FontMatrix get 0 get /Ts exch def /FontInfo get dup
  /UnderlinePosition get Ts mul /To exch def
  /UnderlineThickness get Ts mul /Tt exch def
  ux uy To add moveto  Tcx uy To add lineto
  Tt setlinewidth stroke
  grestore
} bd
/OLE {
  /Tcx currentpoint pop def
  gsave
  newpath
  cf findfont cs scalefont dup
  /FontMatrix get 0 get /Ts exch def /FontInfo get dup
  /UnderlinePosition get Ts mul /To exch def
  /UnderlineThickness get Ts mul /Tt exch def
  ux uy To add cs add moveto Tcx uy To add cs add lineto
  Tt setlinewidth stroke
  grestore
} bd
/SOE {
  /Tcx currentpoint pop def
  gsave
  newpath
  cf findfont cs scalefont dup
  /FontMatrix get 0 get /Ts exch def /FontInfo get dup
  /UnderlinePosition get Ts mul /To exch def
  /UnderlineThickness get Ts mul /Tt exch def
  ux uy To add cs 10 mul 26 idiv add moveto Tcx uy To add cs 10 mul 26 idiv add lineto
  Tt setlinewidth stroke
  grestore
} bd
/QT {
/Y22 exch store
/X22 exch store
/Y21 exch store
/X21 exch store
currentpoint
/Y21 load 2 mul add 3 div exch
/X21 load 2 mul add 3 div exch
/X21 load 2 mul /X22 load add 3 div
/Y21 load 2 mul /Y22 load add 3 div
/X22 load /Y22 load curveto
} bd
/SSPD {
dup length /d exch dict def
{
/v exch def
/k exch def
currentpagedevice k known {
/cpdv currentpagedevice k get def
v cpdv ne {
/upd false def
/nullv v type /nulltype eq def
/nullcpdv cpdv type /nulltype eq def
nullv nullcpdv or
{
/upd true def
} {
/sametype v type cpdv type eq def
sametype {
v type /arraytype eq {
/vlen v length def
/cpdvlen cpdv length def
vlen cpdvlen eq {
0 1 vlen 1 sub {
/i exch def
/obj v i get def
/cpdobj cpdv i get def
obj cpdobj ne {
/upd true def
exit
} if
} for
} {
/upd true def
} ifelse
} {
v type /dicttype eq {
v {
/dv exch def
/dk exch def
/cpddv cpdv dk get def
dv cpddv ne {
/upd true def
exit
} if
} forall
} {
/upd true def
} ifelse
} ifelse
} if
} ifelse
upd true eq {
d k v put
} if
} if
} if
} forall
d length 0 gt {
d setpagedevice
} if
} bd
/RE { % /NewFontName [NewEncodingArray] /FontName RE -
  findfont dup length dict begin
  {
    1 index /FID ne
    {def} {pop pop} ifelse
  } forall
  /Encoding exch def
  /FontName 1 index def
  currentdict definefont pop
  end
} bind def
%%EndResource
%%BeginResource: procset (Apache XML Graphics EPS ProcSet) 1.0 0
%%Version: 1.0 0
%%Copyright: (Copyright 2002-2003 The Apache Software Foundation. License terms: http://www.apache.org/licenses/LICENSE-2.0)
/BeginEPSF { %def
/b4_Inc_state save def         % Save state for cleanup
/dict_count countdictstack def % Count objects on dict stack
/op_count count 1 sub def      % Count objects on operand stack
userdict begin                 % Push userdict on dict stack
/showpage { } def              % Redefine showpage, { } = null proc
0 setgray 0 setlinecap         % Prepare graphics state
1 setlinewidth 0 setlinejoin
10 setmiterlimit [ ] 0 setdash newpath
/languagelevel where           % If level not equal to 1 then
{pop languagelevel             % set strokeadjust and
1 ne                           % overprint to their defaults.
{false setstrokeadjust false setoverprint
} if
} if
} bd
/EndEPSF { %def
count op_count sub {pop} repeat            % Clean up stacks
countdictstack dict_count sub {end} repeat
b4_Inc_state restore
} bd
%%EndResource
%FOPBeginFontDict
%%IncludeResource: font Courier-Oblique
%%IncludeResource: font Courier-BoldOblique
%%IncludeResource: font Courier-Bold
%%IncludeResource: font ZapfDingbats
%%IncludeResource: font Symbol
%%IncludeResource: font Helvetica
%%IncludeResource: font Helvetica-Oblique
%%IncludeResource: font Helvetica-Bold
%%IncludeResource: font Helvetica-BoldOblique
%%IncludeResource: font Times-Roman
%%IncludeResource: font Times-Italic
%%IncludeResource: font Times-Bold
%%IncludeResource: font Times-BoldItalic
%%IncludeResource: font Courier
%FOPEndFontDict
%%BeginResource: encoding WinAnsiEncoding
/WinAnsiEncoding [
/.notdef /.notdef /.notdef /.notdef /.notdef
/.notdef /.notdef /.notdef /.notdef /.notdef
/.notdef /.notdef /.notdef /.notdef /.notdef
/.notdef /.notdef /.notdef /.notdef /.notdef
/.notdef /.notdef /.notdef /.notdef /.notdef
/.notdef /.notdef /.notdef /.notdef /.notdef
/.notdef /.notdef /space /exclam /quotedbl
/numbersign /dollar /percent /ampersand /quotesingle
/parenleft /parenright /asterisk /plus /comma
/hyphen /period /slash /zero /one
/two /three /four /five /six
/seven /eight /nine /colon /semicolon
/less /equal /greater /question /at
/A /B /C /D /E
/F /G /H /I /J
/K /L /M /N /O
/P /Q /R /S /T
/U /V /W /X /Y
/Z /bracketleft /backslash /bracketright /asciicircum
/underscore /quoteleft /a /b /c
/d /e /f /g /h
/i /j /k /l /m
/n /o /p /q /r
/s /t /u /v /w
/x /y /z /braceleft /bar
/braceright /asciitilde /bullet /Euro /bullet
/quotesinglbase /florin /quotedblbase /ellipsis /dagger
/daggerdbl /circumflex /perthousand /Scaron /guilsinglleft
/OE /bullet /Zcaron /bullet /bullet
/quoteleft /quoteright /quotedblleft /quotedblright /bullet
/endash /emdash /asciitilde /trademark /scaron
/guilsinglright /oe /bullet /zcaron /Ydieresis
/space /exclamdown /cent /sterling /currency
/yen /brokenbar /section /dieresis /copyright
/ordfeminine /guillemotleft /logicalnot /sfthyphen /registered
/macron /degree /plusminus /twosuperior /threesuperior
/acute /mu /paragraph /middot /cedilla
/onesuperior /ordmasculine /guillemotright /onequarter /onehalf
/threequarters /questiondown /Agrave /Aacute /Acircumflex
/Atilde /Adieresis /Aring /AE /Ccedilla
/Egrave /Eacute /Ecircumflex /Edieresis /Igrave
/Iacute /Icircumflex /Idieresis /Eth /Ntilde
/Ograve /Oacute /Ocircumflex /Otilde /Odieresis
/multiply /Oslash /Ugrave /Uacute /Ucircumflex
/Udieresis /Yacute /Thorn /germandbls /agrave
/aacute /acircumflex /atilde /adieresis /aring
/ae /ccedilla /egrave /eacute /ecircumflex
/edieresis /igrave /iacute /icircumflex /idieresis
/eth /ntilde /ograve /oacute /ocircumflex
/otilde /odieresis /divide /oslash /ugrave
/uacute /ucircumflex /udieresis /yacute /thorn
/ydieresis
] def
%%EndResource
%FOPBeginFontReencode
/Courier-Oblique findfont
dup length dict begin
  {1 index /FID ne {def} {pop pop} ifelse} forall
  /Encoding WinAnsiEncoding def
  currentdict
end
/Courier-Oblique exch definefont pop
/Courier-BoldOblique findfont
dup length dict begin
  {1 index /FID ne {def} {pop pop} ifelse} forall
  /Encoding WinAnsiEncoding def
  currentdict
end
/Courier-BoldOblique exch definefont pop
/Courier-Bold findfont
dup length dict begin
  {1 index /FID ne {def} {pop pop} ifelse} forall
  /Encoding WinAnsiEncoding def
  currentdict
end
/Courier-Bold exch definefont pop
/Helvetica findfont
dup length dict begin
  {1 index /FID ne {def} {pop pop} ifelse} forall
  /Encoding WinAnsiEncoding def
  currentdict
end
/Helvetica exch definefont pop
/Helvetica-Oblique findfont
dup length dict begin
  {1 index /FID ne {def} {pop pop} ifelse} forall
  /Encoding WinAnsiEncoding def
  currentdict
end
/Helvetica-Oblique exch definefont pop
/Helvetica-Bold findfont
dup length dict begin
  {1 index /FID ne {def} {pop pop} ifelse} forall
  /Encoding WinAnsiEncoding def
  currentdict
end
/Helvetica-Bold exch definefont pop
/Helvetica-BoldOblique findfont
dup length dict begin
  {1 index /FID ne {def} {pop pop} ifelse} forall
  /Encoding WinAnsiEncoding def
  currentdict
end
/Helvetica-BoldOblique exch definefont pop
/Times-Roman findfont
dup length dict begin
  {1 index /FID ne {def} {pop pop} ifelse} forall
  /Encoding WinAnsiEncoding def
  currentdict
end
/Times-Roman exch definefont pop
/Times-Italic findfont
dup length dict begin
  {1 index /FID ne {def} {pop pop} ifelse} forall
  /Encoding WinAnsiEncoding def
  currentdict
end
/Times-Italic exch definefont pop
/Times-Bold findfont
dup length dict begin
  {1 index /FID ne {def} {pop pop} ifelse} forall
  /Encoding WinAnsiEncoding def
  currentdict
end
/Times-Bold exch definefont pop
/Times-BoldItalic findfont
dup length dict begin
  {1 index /FID ne {def} {pop pop} ifelse} forall
  /Encoding WinAnsiEncoding def
  currentdict
end
/Times-BoldItalic exch definefont pop
/Courier findfont
dup length dict begin
  {1 index /FID ne {def} {pop pop} ifelse} forall
  /Encoding WinAnsiEncoding def
  currentdict
end
/Courier exch definefont pop
%FOPEndFontReencode
%%EndProlog
%%Page: 1 1
%%PageBoundingBox: 0 0 312 283
%%BeginPageSetup
[1 0 0 -1 0 283] CT
%%EndPageSetup
GS
[0.74955 0 0 0.74991 0 -0.46457] CT
N
0 0 M
416 0 L
416 378 L
0 378 L
0 0 L
cp
clip
1 GC
N
0 0 416 378 re
f
GR
GS
[0.74955 0 0 0.74991 0 -0.46457] CT
1 GC
N
0 0 416 378 re
f
GR
GS
[0.74955 0 0 0.74991 0 -0.46457] CT
1 GC
N
64 325 M
376 325 L
376 28 L
64 28 L
cp
f
GR
GS
[0.74955 0 0 0.74991 0 -0.46457] CT
0.149 GC
2 setlinecap
1 LJ
0.667 LW
N
64 325 M
376 325 L
S
GR
GS
[0.74955 0 0 0.74991 0 -0.46457] CT
0.149 GC
2 setlinecap
1 LJ
0.667 LW
N
64 28 M
376 28 L
S
GR
GS
[0.74955 0 0 0.74991 0 -0.46457] CT
0.149 GC
2 setlinecap
1 LJ
0.667 LW
N
95.2 325 M
95.2 321.884 L
S
GR
GS
[0.74955 0 0 0.74991 0 -0.46457] CT
0.149 GC
2 setlinecap
1 LJ
0.667 LW
N
157.6 325 M
157.6 321.884 L
S
GR
GS
[0.74955 0 0 0.74991 0 -0.46457] CT
0.149 GC
2 setlinecap
1 LJ
0.667 LW
N
220 325 M
220 321.884 L
S
GR
GS
[0.74955 0 0 0.74991 0 -0.46457] CT
0.149 GC
2 setlinecap
1 LJ
0.667 LW
N
282.4 325 M
282.4 321.884 L
S
GR
GS
[0.74955 0 0 0.74991 0 -0.46457] CT
0.149 GC
2 setlinecap
1 LJ
0.667 LW
N
344.8 325 M
344.8 321.884 L
S
GR
GS
[0.74955 0 0 0.74991 0 -0.46457] CT
0.149 GC
2 setlinecap
1 LJ
0.667 LW
N
95.2 28 M
95.2 31.116 L
S
GR
GS
[0.74955 0 0 0.74991 0 -0.46457] CT
0.149 GC
2 setlinecap
1 LJ
0.667 LW
N
157.6 28 M
157.6 31.116 L
S
GR
GS
[0.74955 0 0 0.74991 0 -0.46457] CT
0.149 GC
2 setlinecap
1 LJ
0.667 LW
N
220 28 M
220 31.116 L
S
GR
GS
[0.74955 0 0 0.74991 0 -0.46457] CT
0.149 GC
2 setlinecap
1 LJ
0.667 LW
N
282.4 28 M
282.4 31.116 L
S
GR
GS
[0.74955 0 0 0.74991 0 -0.46457] CT
0.149 GC
2 setlinecap
1 LJ
0.667 LW
N
344.8 28 M
344.8 31.116 L
S
GR
GS
[0.74955 0 0 0.74991 71.35675 248.05436] CT
0.149 GC
/Times-Roman 18.667 F
GS
[1 0 0 1 0 0] CT
-15 18 moveto 
1 -1 scale
(-0.8) t 
GR
GR
GS
[0.74955 0 0 0.74991 118.12839 248.05436] CT
0.149 GC
/Times-Roman 18.667 F
GS
[1 0 0 1 0 0] CT
-15 18 moveto 
1 -1 scale
(-0.6) t 
GR
GR
GS
[0.74955 0 0 0.74991 164.90005 248.05436] CT
0.149 GC
/Times-Roman 18.667 F
GS
[1 0 0 1 0 0] CT
-15 18 moveto 
1 -1 scale
(-0.4) t 
GR
GR
GS
[0.74955 0 0 0.74991 211.6717 248.05436] CT
0.149 GC
/Times-Roman 18.667 F
GS
[1 0 0 1 0 0] CT
-15 18 moveto 
1 -1 scale
(-0.2) t 
GR
GR
GS
[0.74955 0 0 0.74991 258.44334 248.05436] CT
0.149 GC
/Times-Roman 18.667 F
GS
[1 0 0 1 0 0] CT
-5 18 moveto 
1 -1 scale
(0) t 
GR
GR
GS
[0.74955 0 0 0.74991 164.90016 265.00225] CT
0.149 GC
/Times-Roman 20.533 F
GS
[1 0 0 1 0 0] CT
-41.5 19 moveto 
1 -1 scale
(Position x) t 
GR
GR
GS
[0.74955 0 0 0.74991 0 -0.46457] CT
0.149 GC
2 setlinecap
1 LJ
0.667 LW
N
64 325 M
64 28 L
S
GR
GS
[0.74955 0 0 0.74991 0 -0.46457] CT
0.149 GC
2 setlinecap
1 LJ
0.667 LW
N
376 325 M
376 28 L
S
GR
GS
[0.74955 0 0 0.74991 0 -0.46457] CT
0.149 GC
2 setlinecap
1 LJ
0.667 LW
N
64 325 M
67.116 325 L
S
GR
GS
[0.74955 0 0 0.74991 0 -0.46457] CT
0.149 GC
2 setlinecap
1 LJ
0.667 LW
N
64 176.5 M
67.116 176.5 L
S
GR
GS
[0.74955 0 0 0.74991 0 -0.46457] CT
0.149 GC
2 setlinecap
1 LJ
0.667 LW
N
64 28 M
67.116 28 L
S
GR
GS
[0.74955 0 0 0.74991 0 -0.46457] CT
0.149 GC
2 setlinecap
1 LJ
0.667 LW
N
376 325 M
372.884 325 L
S
GR
GS
[0.74955 0 0 0.74991 0 -0.46457] CT
0.149 GC
2 setlinecap
1 LJ
0.667 LW
N
376 176.5 M
372.884 176.5 L
S
GR
GS
[0.74955 0 0 0.74991 0 -0.46457] CT
0.149 GC
2 setlinecap
1 LJ
0.667 LW
N
376 28 M
372.884 28 L
S
GR
GS
[0.74955 0 0 0.74991 43.17384 243.25497] CT
0.149 GC
/Times-Roman 18.667 F
GS
[1 0 0 1 0 0] CT
-30 7 moveto 
1 -1 scale
(-0.5) t 
GR
GR
GS
[0.74955 0 0 0.74991 43.17384 131.89389] CT
0.149 GC
/Times-Roman 18.667 F
GS
[1 0 0 1 0 0] CT
-10 7 moveto 
1 -1 scale
(0) t 
GR
GR
GS
[0.74955 0 0 0.74991 43.17384 20.53281] CT
0.149 GC
/Times-Roman 18.667 F
GS
[1 0 0 1 0 0] CT
-24 7 moveto 
1 -1 scale
(0.5) t 
GR
GR
GS
[0 -0.74991 0.74955 0 17.98909 131.89378] CT
0.149 GC
/Times-Roman 20.533 F
GS
[1 0 0 1 0 0] CT
-41.5 -5 moveto 
1 -1 scale
(Position y) t 
GR
GR
GS
[0.74955 0 0 0.74991 0 -0.46457] CT
0 0.447 0.741 RC
1 LJ
1.333 LW
N
344.8 176.5 M
344.8 176.5 L
344.8 176.5 L
344.8 176.5 L
344.8 176.502 L
344.801 176.506 L
344.801 176.507 L
344.804 176.517 L
344.805 176.519 L
344.812 176.537 L
344.815 176.544 L
344.834 176.585 L
344.863 176.647 L
344.898 176.734 L
344.937 176.851 L
344.975 177 L
345.011 177.184 L
345.045 177.407 L
345.082 177.668 L
345.126 177.968 L
345.18 178.305 L
345.241 178.679 L
345.303 179.088 L
345.358 179.532 L
345.4 180.014 L
345.429 180.537 L
345.447 181.104 L
345.46 181.72 L
345.475 182.387 L
345.495 183.104 L
345.517 183.873 L
345.537 184.691 L
345.551 185.556 L
345.553 186.466 L
345.546 187.42 L
345.534 188.414 L
345.522 189.448 L
345.515 190.519 L
345.515 191.627 L
345.52 192.772 L
345.526 193.954 L
345.528 195.174 L
345.524 196.431 L
345.513 197.727 L
345.497 199.059 L
345.48 200.423 L
345.462 201.818 L
345.445 203.238 L
345.428 204.681 L
345.41 206.143 L
345.39 207.622 L
345.368 209.114 L
345.343 210.619 L
345.316 212.134 L
345.287 213.658 L
345.258 215.19 L
345.231 216.728 L
345.208 218.274 L
345.189 219.824 L
345.177 221.378 L
345.17 222.933 L
345.166 224.484 L
345.162 226.027 L
345.157 227.559 L
345.151 229.076 L
345.144 230.576 L
345.139 232.057 L
345.138 233.52 L
345.143 234.964 L
345.152 236.388 L
345.162 237.794 L
345.169 239.178 L
345.172 240.542 L
345.17 241.884 L
345.166 243.201 L
345.162 244.493 L
345.163 245.757 L
345.17 246.99 L
345.182 248.192 L
345.196 249.359 L
345.21 250.493 L
345.222 251.594 L
345.23 252.663 L
345.236 253.701 L
345.243 254.711 L
345.254 255.691 L
345.268 256.643 L
345.285 257.567 L
345.304 258.463 L
345.32 259.33 L
345.332 260.168 L
345.34 260.978 L
345.344 261.759 L
345.346 262.512 L
345.347 263.237 L
345.348 263.934 L
345.351 264.607 L
345.354 265.257 L
345.356 265.886 L
345.358 266.498 L
345.357 267.095 L
345.354 267.677 L
345.35 268.247 L
345.345 268.803 L
345.34 269.347 L
345.337 269.878 L
345.336 270.399 L
345.336 270.909 L
345.338 271.411 L
345.339 271.907 L
345.338 272.397 L
345.334 272.885 L
345.327 273.373 L
345.319 273.863 L
345.31 274.358 L
345.303 274.86 L
345.298 275.369 L
345.295 275.886 L
345.293 276.412 L
345.288 276.946 L
345.281 277.489 L
345.272 278.042 L
345.262 278.605 L
345.253 279.181 L
345.246 279.77 L
345.243 280.376 L
345.244 280.998 L
345.246 281.639 L
345.249 282.299 L
345.249 282.979 L
345.248 283.68 L
345.245 284.402 L
345.243 285.143 L
345.24 285.899 L
345.231 286.665 L
345.204 287.436 L
345.14 288.208 L
345.019 288.976 L
344.825 289.736 L
344.551 290.485 L
344.2 291.222 L
343.777 291.943 L
343.286 292.647 L
342.722 293.334 L
342.072 294.002 L
341.315 294.654 L
340.438 295.29 L
339.437 295.908 L
338.326 296.507 L
337.129 297.081 L
335.873 297.627 L
334.581 298.139 L
333.263 298.614 L
331.915 299.05 L
330.53 299.446 L
329.101 299.804 L
327.632 300.125 L
326.135 300.411 L
324.631 300.663 L
323.139 300.88 L
321.669 301.064 L
320.223 301.215 L
318.791 301.331 L
317.36 301.413 L
315.92 301.46 L
314.471 301.468 L
313.017 301.438 L
311.57 301.367 L
310.143 301.257 L
308.746 301.11 L
307.384 300.927 L
306.057 300.714 L
304.766 300.472 L
303.511 300.203 L
302.292 299.911 L
301.113 299.595 L
299.978 299.256 L
298.892 298.896 L
297.859 298.515 L
296.882 298.113 L
295.962 297.693 L
295.097 297.252 L
294.279 296.794 L
293.5 296.318 L
292.746 295.827 L
292.007 295.325 L
291.275 294.816 L
290.549 294.303 L
289.831 293.791 L
289.126 293.282 L
288.435 292.775 L
287.756 292.273 L
287.079 291.773 L
286.394 291.278 L
285.692 290.787 L
284.971 290.301 L
284.233 289.823 L
283.489 289.353 L
282.748 288.893 L
282.015 288.447 L
281.29 288.016 L
280.564 287.603 L
279.826 287.211 L
279.064 286.842 L
278.274 286.496 L
277.454 286.173 L
276.612 285.873 L
275.753 285.595 L
274.88 285.337 L
273.992 285.101 L
273.084 284.886 L
272.149 284.694 L
271.179 284.525 L
270.174 284.381 L
269.136 284.262 L
268.073 284.17 L
266.994 284.104 L
265.906 284.065 L
264.814 284.054 L
263.72 284.069 L
262.624 284.111 L
261.523 284.176 L
260.418 284.265 L
259.307 284.373 L
258.194 284.501 L
257.08 284.647 L
255.972 284.81 L
254.871 284.992 L
253.78 285.193 L
252.699 285.413 L
251.625 285.651 L
250.554 285.907 L
249.482 286.179 L
248.406 286.466 L
247.329 286.766 L
246.252 287.078 L
245.183 287.398 L
244.127 287.726 L
243.089 288.058 L
242.068 288.395 L
241.061 288.733 L
240.065 289.074 L
239.075 289.416 L
238.091 289.76 L
237.114 290.106 L
236.151 290.453 L
235.206 290.799 L
234.281 291.143 L
233.374 291.483 L
232.481 291.817 L
231.594 292.143 L
230.707 292.46 L
229.815 292.766 L
228.918 293.061 L
228.019 293.344 L
227.122 293.614 L
226.23 293.871 L
225.343 294.114 L
224.457 294.345 L
223.57 294.563 L
222.676 294.768 L
221.773 294.959 L
220.862 295.136 L
219.945 295.298 L
219.027 295.442 L
218.11 295.568 L
217.196 295.675 L
216.285 295.764 L
215.373 295.834 L
214.458 295.887 L
213.536 295.921 L
212.604 295.939 L
211.663 295.941 L
210.714 295.927 L
209.758 295.899 L
208.799 295.856 L
207.836 295.799 L
206.87 295.728 L
205.899 295.642 L
204.92 295.54 L
203.933 295.424 L
202.935 295.293 L
201.928 295.149 L
200.916 294.991 L
199.903 294.823 L
198.891 294.644 L
197.885 294.457 L
196.882 294.263 L
195.882 294.061 L
194.881 293.854 L
193.878 293.642 L
192.872 293.424 L
191.864 293.202 L
190.857 292.976 L
189.855 292.746 L
188.86 292.513 L
187.87 292.277 L
186.884 292.04 L
185.899 291.803 L
184.911 291.567 L
183.92 291.333 L
182.926 291.104 L
181.932 290.879 L
180.941 290.66 L
179.956 290.446 L
178.979 290.239 L
178.007 290.038 L
177.04 289.844 L
176.074 289.656 L
175.109 289.475 L
174.144 289.303 L
173.18 289.138 L
172.219 288.982 L
171.264 288.835 L
170.314 288.699 L
169.37 288.575 L
168.43 288.462 L
167.49 288.362 L
166.549 288.274 L
165.605 288.198 L
164.658 288.133 L
163.709 288.08 L
162.758 288.037 L
161.808 288.005 L
160.86 287.984 L
159.914 287.973 L
158.968 287.974 L
158.02 287.985 L
157.069 288.007 L
156.114 288.041 L
155.156 288.086 L
154.196 288.142 L
153.237 288.208 L
152.279 288.285 L
151.323 288.37 L
150.37 288.465 L
149.416 288.567 L
148.46 288.675 L
147.5 288.79 L
146.535 288.911 L
145.566 289.038 L
144.595 289.17 L
143.624 289.308 L
142.653 289.45 L
141.684 289.598 L
140.714 289.749 L
139.743 289.904 L
138.768 290.062 L
137.789 290.222 L
136.807 290.383 L
135.823 290.544 L
134.84 290.705 L
133.859 290.864 L
132.881 291.021 L
131.905 291.177 L
130.931 291.329 L
129.957 291.48 L
128.981 291.628 L
128.004 291.772 L
127.026 291.914 L
126.048 292.052 L
125.071 292.185 L
124.098 292.313 L
123.127 292.436 L
122.157 292.552 L
121.188 292.662 L
120.218 292.765 L
119.246 292.86 L
118.272 292.947 L
117.298 293.027 L
116.325 293.1 L
115.353 293.165 L
114.384 293.223 L
113.418 293.275 L
112.454 293.318 L
111.49 293.355 L
110.526 293.384 L
109.561 293.405 L
108.596 293.418 L
107.63 293.422 L
106.665 293.419 L
105.703 293.407 L
104.743 293.388 L
103.785 293.358 L
102.83 293.317 L
101.882 293.259 L
100.951 293.181 L
100.057 293.078 L
99.218 292.947 L
98.449 292.783 L
97.759 292.582 L
97.146 292.343 L
96.605 292.062 L
96.133 291.737 L
95.735 291.369 L
95.424 290.958 L
95.219 290.507 L
95.134 290.016 L
95.172 289.489 L
95.319 288.923 L
95.553 288.317 L
95.845 287.667 L
96.175 286.969 L
96.531 286.221 L
96.917 285.422 L
97.34 284.572 L
97.805 283.672 L
98.31 282.724 L
98.84 281.731 L
99.376 280.695 L
99.899 279.619 L
100.398 278.504 L
100.874 277.353 L
101.335 276.168 L
101.796 274.95 L
102.265 273.699 L
102.743 272.415 L
103.226 271.096 L
103.7 269.744 L
104.153 268.359 L
104.577 266.943 L
104.967 265.501 L
105.323 264.035 L
105.644 262.549 L
105.93 261.048 L
106.18 259.534 L
106.39 258.009 L
106.556 256.477 L
106.671 254.939 L
106.733 253.398 L
106.739 251.853 L
106.688 250.308 L
106.584 248.761 L
106.432 247.213 L
106.242 245.665 L
106.027 244.121 L
105.796 242.582 L
105.557 241.053 L
105.312 239.538 L
105.059 238.041 L
104.795 236.565 L
104.517 235.11 L
104.229 233.679 L
103.94 232.27 L
103.659 230.885 L
103.395 229.522 L
103.151 228.182 L
102.922 226.867 L
102.7 225.575 L
102.475 224.309 L
102.242 223.069 L
102.001 221.858 L
101.763 220.678 L
101.536 219.53 L
101.333 218.416 L
101.157 217.337 L
101.01 216.292 L
100.885 215.281 L
100.777 214.301 L
100.682 213.351 L
100.602 212.429 L
100.544 211.535 L
100.513 210.669 L
100.516 209.83 L
100.555 209.018 L
100.626 208.232 L
100.722 207.473 L
100.834 206.741 L
100.955 206.035 L
101.08 205.354 L
101.207 204.699 L
101.336 204.068 L
101.471 203.458 L
101.61 202.867 L
101.753 202.292 L
101.899 201.73 L
102.043 201.18 L
102.182 200.64 L
102.313 200.109 L
102.435 199.587 L
102.547 199.074 L
102.653 198.568 L
102.755 198.07 L
102.858 197.577 L
102.964 197.089 L
103.073 196.603 L
103.179 196.117 L
103.278 195.629 L
103.365 195.136 L
103.435 194.637 L
103.488 194.129 L
103.526 193.61 L
103.555 193.08 L
103.577 192.539 L
103.593 191.986 L
103.6 191.421 L
103.594 190.844 L
103.57 190.255 L
103.527 189.652 L
103.465 189.034 L
103.389 188.399 L
103.308 187.745 L
103.228 187.073 L
103.152 186.38 L
103.08 185.666 L
103.01 184.93 L
102.938 184.172 L
102.861 183.392 L
102.78 182.59 L
102.698 181.767 L
102.618 180.924 L
102.545 180.061 L
102.481 179.18 L
102.425 178.28 L
102.374 177.359 L
102.325 176.419 L
102.274 175.458 L
102.22 174.477 L
102.164 173.474 L
102.108 172.452 L
102.056 171.411 L
102.011 170.351 L
101.975 169.274 L
101.949 168.182 L
101.93 167.076 L
101.917 165.957 L
101.908 164.826 L
101.903 163.685 L
101.901 162.534 L
101.905 161.373 L
101.915 160.203 L
101.936 159.022 L
101.966 157.833 L
102.004 156.636 L
102.048 155.433 L
102.093 154.225 L
102.136 153.013 L
102.175 151.799 L
102.21 150.586 L
102.243 149.373 L
102.276 148.162 L
102.311 146.955 L
102.349 145.751 L
102.388 144.551 L
102.426 143.357 L
102.459 142.167 L
102.486 140.984 L
102.507 139.806 L
102.525 138.635 L
102.542 137.471 L
102.561 136.317 L
102.584 135.173 L
102.609 134.041 L
102.635 132.921 L
102.657 131.814 L
102.673 130.721 L
102.682 129.641 L
102.685 128.575 L
102.685 127.523 L
102.682 126.484 L
102.68 125.458 L
102.677 124.445 L
102.673 123.446 L
102.665 122.459 L
102.652 121.487 L
102.633 120.529 L
102.608 119.585 L
102.58 118.656 L
102.552 117.743 L
102.525 116.844 L
102.501 115.96 L
102.48 115.089 L
102.461 114.231 L
102.443 113.384 L
102.424 112.549 L
102.404 111.724 L
102.382 110.91 L
102.36 110.105 L
102.341 109.31 L
102.324 108.524 L
102.31 107.747 L
102.3 106.978 L
102.292 106.218 L
102.284 105.465 L
102.273 104.719 L
102.26 103.979 L
102.246 103.244 L
102.232 102.513 L
102.22 101.785 L
102.213 101.058 L
102.209 100.332 L
102.21 99.606 L
102.212 98.881 L
102.215 98.155 L
102.217 97.429 L
102.218 96.701 L
102.22 95.972 L
102.223 95.241 L
102.23 94.507 L
102.241 93.769 L
102.255 93.027 L
102.27 92.28 L
102.285 91.527 L
102.298 90.767 L
102.308 89.999 L
102.315 89.223 L
102.321 88.44 L
102.327 87.648 L
102.335 86.848 L
102.344 86.041 L
102.354 85.225 L
102.363 84.401 L
102.371 83.568 L
102.376 82.726 L
102.378 81.875 L
102.38 81.014 L
102.381 80.143 L
102.383 79.262 L
102.386 78.371 L
102.392 77.469 L
102.397 76.557 L
102.402 75.635 L
102.405 74.704 L
102.406 73.764 L
102.404 72.816 L
102.4 71.859 L
102.395 70.895 L
102.391 69.922 L
102.388 68.942 L
102.385 67.954 L
102.382 66.959 L
102.378 65.957 L
102.373 64.949 L
102.366 63.94 L
102.367 62.935 L
102.386 61.938 L
102.445 60.955 L
102.563 59.991 L
102.754 59.051 L
103.025 58.139 L
103.372 57.259 L
103.79 56.413 L
104.275 55.605 L
104.832 54.834 L
105.478 54.1 L
106.232 53.401 L
107.11 52.738 L
108.112 52.109 L
109.226 51.516 L
110.426 50.964 L
111.683 50.456 L
112.974 49.997 L
114.291 49.591 L
115.637 49.24 L
117.021 48.943 L
118.452 48.701 L
119.924 48.511 L
121.426 48.372 L
122.934 48.282 L
124.429 48.238 L
125.898 48.239 L
127.344 48.283 L
128.774 48.369 L
130.205 48.498 L
131.645 48.669 L
133.098 48.885 L
134.556 49.144 L
136.007 49.449 L
137.438 49.798 L
138.837 50.189 L
140.2 50.618 L
141.526 51.081 L
142.816 51.575 L
144.072 52.096 L
145.292 52.641 L
146.473 53.207 L
147.611 53.792 L
148.699 54.395 L
149.733 55.013 L
150.709 55.644 L
151.627 56.289 L
152.489 56.947 L
153.303 57.617 L
154.08 58.296 L
154.833 58.983 L
155.572 59.674 L
156.304 60.363 L
157.03 61.046 L
157.746 61.72 L
158.449 62.38 L
159.137 63.025 L
159.813 63.654 L
160.487 64.267 L
161.17 64.863 L
161.871 65.441 L
162.592 66.002 L
163.33 66.544 L
164.074 67.065 L
164.813 67.564 L
165.543 68.039 L
166.265 68.487 L
166.987 68.905 L
167.722 69.291 L
168.482 69.643 L
169.272 69.959 L
170.092 70.24 L
170.934 70.487 L
171.793 70.7 L
172.665 70.881 L
173.55 71.031 L
174.455 71.15 L
175.389 71.238 L
176.357 71.295 L
177.363 71.32 L
178.402 71.313 L
179.467 71.274 L
180.548 71.202 L
181.636 71.097 L
182.727 70.959 L
183.82 70.789 L
184.915 70.589 L
186.015 70.36 L
187.121 70.105 L
188.232 69.827 L
189.347 69.529 L
190.462 69.212 L
191.571 68.877 L
192.672 68.524 L
193.762 68.155 L
194.842 67.769 L
195.915 67.366 L
196.986 66.949 L
198.059 66.518 L
199.135 66.075 L
200.214 65.622 L
201.292 65.162 L
202.362 64.697 L
203.417 64.23 L
204.455 63.764 L
205.475 63.301 L
206.481 62.842 L
207.477 62.388 L
208.467 61.941 L
209.452 61.499 L
210.429 61.064 L
211.393 60.636 L
212.338 60.216 L
213.261 59.806 L
214.166 59.408 L
215.057 59.023 L
215.943 58.655 L
216.83 58.303 L
217.722 57.97 L
218.619 57.657 L
219.518 57.365 L
220.415 57.095 L
221.306 56.846 L
222.192 56.619 L
223.076 56.412 L
223.962 56.226 L
224.855 56.061 L
225.758 55.916 L
226.669 55.791 L
227.586 55.689 L
228.505 55.609 L
229.421 55.553 L
230.334 55.521 L
231.243 55.513 L
232.153 55.528 L
233.067 55.567 L
233.989 55.628 L
234.92 55.71 L
235.862 55.812 L
236.811 55.932 L
237.767 56.07 L
238.726 56.224 L
239.688 56.393 L
240.653 56.578 L
241.623 56.777 L
242.601 56.992 L
243.589 57.222 L
244.587 57.467 L
245.594 57.724 L
246.607 57.994 L
247.621 58.274 L
248.632 58.562 L
249.638 58.857 L
250.64 59.157 L
251.639 59.461 L
252.639 59.768 L
253.643 60.076 L
254.65 60.385 L
255.658 60.694 L
256.665 61.003 L
257.667 61.311 L
258.662 61.617 L
259.651 61.921 L
260.636 62.222 L
261.621 62.519 L
262.608 62.809 L
263.6 63.091 L
264.595 63.364 L
265.589 63.627 L
266.58 63.878 L
267.565 64.118 L
268.542 64.346 L
269.513 64.561 L
270.479 64.764 L
271.444 64.954 L
272.41 65.131 L
273.375 65.296 L
274.34 65.448 L
275.301 65.585 L
276.256 65.709 L
277.205 65.817 L
278.148 65.909 L
279.087 65.985 L
280.026 66.045 L
280.967 66.087 L
281.91 66.113 L
282.858 66.124 L
283.808 66.12 L
284.758 66.102 L
285.708 66.07 L
286.655 66.024 L
287.601 65.966 L
288.546 65.895 L
289.494 65.811 L
290.444 65.715 L
291.399 65.607 L
292.358 65.486 L
293.318 65.353 L
294.277 65.209 L
295.235 65.055 L
296.189 64.891 L
297.142 64.718 L
298.095 64.539 L
299.051 64.353 L
300.011 64.162 L
300.976 63.967 L
301.945 63.768 L
302.917 63.565 L
303.888 63.359 L
304.858 63.151 L
305.827 62.94 L
306.796 62.728 L
307.767 62.515 L
308.741 62.302 L
309.72 62.089 L
310.703 61.879 L
311.687 61.671 L
312.671 61.467 L
313.651 61.268 L
314.629 61.075 L
315.604 60.888 L
316.577 60.707 L
317.551 60.533 L
318.527 60.365 L
319.505 60.205 L
320.483 60.051 L
321.461 59.905 L
322.438 59.767 L
323.411 59.637 L
324.382 59.517 L
325.351 59.406 L
326.319 59.306 L
327.29 59.216 L
328.262 59.137 L
329.235 59.069 L
330.21 59.012 L
331.183 58.966 L
332.155 58.93 L
333.123 58.904 L
334.089 58.888 L
335.053 58.881 L
336.016 58.884 L
336.98 58.897 L
337.945 58.919 L
338.911 58.951 L
339.877 58.992 L
340.841 59.044 L
341.803 59.104 L
342.763 59.174 L
343.72 59.254 L
344.675 59.348 L
345.623 59.458 L
346.553 59.589 L
347.448 59.745 L
348.287 59.929 L
349.056 60.146 L
349.746 60.398 L
350.359 60.688 L
350.899 61.02 L
351.37 61.393 L
351.768 61.81 L
352.079 62.267 L
352.284 62.764 L
352.369 63.299 L
352.332 63.869 L
352.185 64.476 L
351.951 65.121 L
351.658 65.808 L
351.328 66.54 L
350.971 67.321 L
350.585 68.15 L
350.162 69.028 L
349.697 69.953 L
349.192 70.923 L
348.662 71.936 L
348.126 72.99 L
347.603 74.081 L
347.103 75.209 L
346.628 76.37 L
346.166 77.562 L
345.705 78.785 L
345.236 80.039 L
344.758 81.323 L
344.276 82.639 L
343.802 83.986 L
343.348 85.363 L
342.924 86.769 L
342.534 88.199 L
342.178 89.65 L
341.857 91.119 L
341.57 92.601 L
341.32 94.095 L
341.11 95.597 L
340.945 97.105 L
340.83 98.618 L
340.768 100.132 L
340.762 101.648 L
340.812 103.164 L
340.916 104.68 L
341.068 106.196 L
341.257 107.71 L
341.473 109.221 L
341.704 110.725 L
341.943 112.219 L
342.188 113.698 L
342.44 115.159 L
342.705 116.6 L
342.982 118.018 L
343.27 119.414 L
343.559 120.788 L
343.84 122.138 L
344.104 123.467 L
344.349 124.772 L
344.577 126.054 L
344.799 127.313 L
345.024 128.548 L
345.257 129.756 L
345.497 130.937 L
345.736 132.089 L
345.962 133.21 L
346.166 134.298 L
346.341 135.352 L
346.488 136.374 L
346.613 137.364 L
346.721 138.325 L
346.816 139.257 L
346.895 140.161 L
346.954 141.04 L
346.984 141.893 L
346.981 142.72 L
346.942 143.523 L
346.871 144.3 L
346.775 145.053 L
346.663 145.781 L
346.542 146.484 L
346.417 147.163 L
346.29 147.819 L
346.16 148.453 L
346.026 149.067 L
345.887 149.664 L
345.744 150.246 L
345.598 150.817 L
345.454 151.377 L
345.315 151.929 L
345.183 152.473 L
345.061 153.009 L
344.949 153.537 L
344.843 154.059 L
344.741 154.575 L
344.638 155.087 L
344.532 155.595 L
344.424 156.101 L
344.317 156.609 L
344.218 157.118 L
344.131 157.633 L
344.061 158.156 L
344.008 158.687 L
343.969 159.23 L
343.941 159.784 L
343.919 160.349 L
343.903 160.926 L
343.896 161.515 L
343.901 162.115 L
343.925 162.728 L
343.969 163.355 L
344.031 163.997 L
344.106 164.655 L
344.187 165.33 L
344.267 166.025 L
344.344 166.739 L
344.415 167.473 L
344.485 168.229 L
344.557 169.006 L
344.634 169.804 L
344.715 170.623 L
344.797 171.462 L
344.876 172.32 L
344.949 173.197 L
345.013 174.091 L
345.07 175.004 L
345.12 175.935 L
345.17 176.885 L
345.221 177.854 L
345.274 178.843 L
345.33 179.851 L
345.386 180.879 L
345.438 181.924 L
345.483 182.986 L
345.519 184.064 L
345.546 185.156 L
345.564 186.261 L
345.577 187.378 L
345.586 188.505 L
345.591 189.642 L
345.593 190.788 L
345.589 191.943 L
345.578 193.106 L
345.558 194.278 L
345.528 195.458 L
345.49 196.645 L
345.446 197.837 L
345.4 199.034 L
345.357 200.233 L
345.318 201.434 L
345.283 202.634 L
345.251 203.833 L
345.218 205.029 L
345.183 206.221 L
345.145 207.41 L
345.105 208.594 L
345.067 209.772 L
345.034 210.946 L
345.007 212.113 L
344.986 213.275 L
344.968 214.429 L
344.951 215.576 L
344.932 216.714 L
344.909 217.841 L
344.884 218.958 L
344.858 220.062 L
344.836 221.153 L
344.82 222.232 L
344.811 223.297 L
344.807 224.349 L
344.808 225.387 L
344.81 226.413 L
344.813 227.426 L
344.816 228.427 L
344.82 229.415 L
344.828 230.39 L
344.841 231.353 L
344.86 232.302 L
344.884 233.237 L
344.912 234.158 L
344.94 235.064 L
344.967 235.956 L
344.992 236.835 L
345.013 237.702 L
345.032 238.556 L
345.05 239.399 L
345.068 240.232 L
345.089 241.055 L
345.11 241.869 L
345.132 242.674 L
345.151 243.47 L
345.168 244.257 L
345.182 245.037 L
345.192 245.809 L
345.2 246.573 L
345.208 247.33 L
345.219 248.081 L
345.231 248.827 L
345.246 249.568 L
345.26 250.306 L
345.271 251.043 L
345.279 251.777 L
345.282 252.512 L
345.282 253.246 L
345.28 253.981 L
345.277 254.716 L
345.275 255.452 L
345.273 256.19 L
345.272 256.93 L
345.268 257.672 L
345.261 258.417 L
345.251 259.165 L
345.237 259.918 L
345.221 260.676 L
345.206 261.441 L
345.194 262.212 L
345.184 262.991 L
345.177 263.777 L
345.17 264.571 L
345.164 265.373 L
345.157 266.183 L
345.147 267.001 L
345.138 267.827 L
345.128 268.66 L
345.121 269.502 L
345.115 270.353 L
345.113 271.212 L
345.111 272.081 L
345.11 272.96 L
345.108 273.848 L
345.105 274.746 L
345.099 275.654 L
345.094 276.571 L
345.089 277.498 L
345.086 278.434 L
345.085 279.378 L
345.087 280.329 L
345.091 281.289 L
345.095 282.256 L
345.1 283.23 L
345.103 284.212 L
345.106 285.201 L
345.108 286.196 L
345.112 287.198 L
345.118 288.205 L
345.124 289.212 L
345.124 290.216 L
345.104 291.211 L
345.045 292.19 L
344.928 293.151 L
344.736 294.087 L
344.466 294.995 L
344.119 295.871 L
343.701 296.712 L
343.216 297.515 L
342.658 298.281 L
342.012 299.009 L
341.258 299.701 L
340.381 300.359 L
339.378 300.981 L
338.264 301.566 L
337.065 302.112 L
335.808 302.612 L
334.516 303.064 L
333.199 303.463 L
331.853 303.807 L
330.469 304.095 L
329.039 304.33 L
327.566 304.512 L
326.065 304.644 L
324.557 304.727 L
323.062 304.764 L
321.592 304.756 L
320.147 304.704 L
318.716 304.611 L
317.286 304.475 L
315.845 304.297 L
314.393 304.076 L
312.934 303.81 L
311.483 303.499 L
310.052 303.145 L
308.653 302.749 L
307.29 302.315 L
305.964 301.847 L
304.674 301.348 L
303.418 300.823 L
302.198 300.275 L
301.017 299.705 L
299.879 299.117 L
298.791 298.512 L
297.757 297.892 L
296.781 297.258 L
295.863 296.611 L
295.001 295.953 L
294.187 295.282 L
293.41 294.602 L
292.657 293.915 L
291.918 293.225 L
291.186 292.537 L
290.46 291.854 L
289.743 291.182 L
289.041 290.524 L
288.353 289.881 L
287.677 289.254 L
287.003 288.644 L
286.32 288.051 L
285.619 287.475 L
284.898 286.918 L
284.16 286.379 L
283.416 285.862 L
282.676 285.367 L
281.947 284.896 L
281.225 284.452 L
280.503 284.039 L
279.767 283.657 L
279.007 283.311 L
278.217 282.999 L
277.398 282.723 L
276.555 282.482 L
275.696 282.273 L
274.825 282.097 L
273.94 281.952 L
273.034 281.838 L
272.101 281.755 L
271.132 281.704 L
270.126 281.683 L
269.087 281.695 L
268.023 281.739 L
266.942 281.816 L
265.853 281.926 L
264.762 282.068 L
263.669 282.242 L
262.574 282.446 L
261.475 282.679 L
260.369 282.938 L
259.257 283.219 L
258.142 283.52 L
257.027 283.841 L
255.918 284.179 L
254.817 284.534 L
253.727 284.906 L
252.647 285.294 L
251.574 285.698 L
250.503 286.117 L
249.431 286.55 L
248.354 286.994 L
247.275 287.448 L
246.197 287.908 L
245.127 288.374 L
244.072 288.841 L
243.034 289.307 L
242.014 289.77 L
241.008 290.228 L
240.012 290.681 L
239.022 291.128 L
238.037 291.568 L
237.06 292.002 L
236.096 292.429 L
235.152 292.847 L
234.228 293.255 L
233.323 293.65 L
232.432 294.032 L
231.546 294.399 L
230.659 294.748 L
229.767 295.078 L
228.87 295.388 L
227.971 295.677 L
227.074 295.944 L
226.183 296.19 L
225.297 296.414 L
224.413 296.617 L
223.527 296.799 L
222.634 296.961 L
221.731 297.103 L
220.82 297.224 L
219.903 297.323 L
218.984 297.399 L
218.068 297.452 L
217.155 297.481 L
216.245 297.486 L
215.336 297.467 L
214.422 297.425 L
213.5 297.36 L
212.569 297.275 L
211.627 297.171 L
210.677 297.048 L
209.722 296.907 L
208.762 296.751 L
207.801 296.579 L
206.836 296.392 L
205.866 296.19 L
204.888 295.973 L
203.9 295.741 L
202.902 295.495 L
201.895 295.236 L
200.882 294.965 L
199.868 294.684 L
198.857 294.394 L
197.851 294.098 L
196.849 293.797 L
195.85 293.493 L
194.849 293.186 L
193.846 292.877 L
192.839 292.568 L
191.831 292.259 L
190.824 291.951 L
189.822 291.643 L
188.826 291.337 L
187.838 291.034 L
186.853 290.734 L
185.868 290.439 L
184.88 290.15 L
183.889 289.869 L
182.894 289.597 L
181.899 289.336 L
180.908 289.086 L
179.924 288.848 L
178.947 288.622 L
177.976 288.409 L
177.01 288.208 L
176.044 288.02 L
175.079 287.844 L
174.113 287.682 L
173.149 287.533 L
172.188 287.397 L
171.233 287.276 L
170.284 287.17 L
169.341 287.08 L
168.401 287.006 L
167.463 286.95 L
166.522 286.909 L
165.578 286.885 L
164.631 286.877 L
163.681 286.883 L
162.73 286.904 L
161.781 286.938 L
160.834 286.985 L
159.888 287.046 L
158.942 287.119 L
157.995 287.204 L
157.044 287.302 L
156.089 287.413 L
155.131 287.535 L
154.171 287.669 L
153.211 287.814 L
152.254 287.97 L
151.299 288.135 L
150.346 288.309 L
149.393 288.49 L
148.437 288.676 L
147.477 288.868 L
146.512 289.064 L
145.543 289.264 L
144.572 289.467 L
143.601 289.673 L
142.631 289.882 L
141.662 290.092 L
140.693 290.305 L
139.722 290.518 L
138.747 290.731 L
137.768 290.943 L
136.786 291.153 L
135.801 291.36 L
134.818 291.563 L
133.837 291.761 L
132.86 291.954 L
131.885 292.14 L
130.911 292.32 L
129.937 292.493 L
128.961 292.659 L
127.984 292.819 L
127.005 292.971 L
126.027 293.116 L
125.051 293.253 L
124.078 293.381 L
123.107 293.5 L
122.138 293.609 L
121.169 293.708 L
120.199 293.796 L
119.227 293.873 L
118.253 293.94 L
117.279 293.995 L
116.305 294.04 L
115.334 294.074 L
114.365 294.099 L
113.399 294.113 L
112.436 294.118 L
111.472 294.114 L
110.508 294.1 L
109.543 294.076 L
108.578 294.043 L
107.612 294 L
106.647 293.948 L
105.685 293.886 L
104.726 293.815 L
103.768 293.733 L
102.813 293.639 L
101.865 293.528 L
100.935 293.396 L
100.04 293.239 L
99.201 293.054 L
98.433 292.836 L
97.742 292.583 L
97.13 292.292 L
96.589 291.96 L
96.118 291.586 L
95.72 291.17 L
95.41 290.712 L
95.205 290.214 L
95.119 289.68 L
95.156 289.11 L
95.304 288.503 L
95.538 287.858 L
95.83 287.171 L
96.16 286.439 L
96.517 285.659 L
96.903 284.83 L
97.326 283.952 L
97.791 283.028 L
98.296 282.058 L
98.826 281.046 L
99.362 279.993 L
99.886 278.902 L
100.385 277.775 L
100.861 276.615 L
101.322 275.424 L
101.783 274.201 L
102.252 272.949 L
102.73 271.665 L
103.212 270.351 L
103.686 269.005 L
104.14 267.628 L
104.564 266.224 L
104.955 264.795 L
105.31 263.345 L
105.631 261.877 L
105.918 260.396 L
106.168 258.903 L
106.378 257.402 L
106.543 255.895 L
106.659 254.384 L
106.721 252.87 L
106.727 251.355 L
106.676 249.84 L
106.572 248.325 L
106.42 246.81 L
106.231 245.297 L
106.015 243.787 L
105.785 242.283 L
105.546 240.791 L
105.301 239.312 L
105.048 237.852 L
104.783 236.412 L
104.506 234.994 L
104.219 233.598 L
103.929 232.225 L
103.649 230.875 L
103.384 229.547 L
103.14 228.242 L
102.911 226.96 L
102.689 225.701 L
102.464 224.467 L
102.231 223.259 L
101.992 222.077 L
101.753 220.926 L
101.526 219.805 L
101.323 218.717 L
101.147 217.662 L
101 216.64 L
100.875 215.65 L
100.767 214.689 L
100.673 213.757 L
100.593 212.852 L
100.534 211.973 L
100.504 211.12 L
100.507 210.292 L
100.546 209.489 L
100.617 208.711 L
100.713 207.958 L
100.825 207.229 L
100.946 206.525 L
101.071 205.845 L
101.198 205.189 L
101.328 204.554 L
101.462 203.94 L
101.601 203.342 L
101.745 202.759 L
101.89 202.188 L
102.034 201.626 L
102.174 201.074 L
102.305 200.529 L
102.427 199.993 L
102.539 199.463 L
102.645 198.941 L
102.747 198.424 L
102.85 197.912 L
102.956 197.403 L
103.065 196.896 L
103.171 196.388 L
103.27 195.878 L
103.357 195.362 L
103.427 194.839 L
103.48 194.307 L
103.519 193.764 L
103.548 193.21 L
103.569 192.644 L
103.585 192.066 L
103.592 191.477 L
103.587 190.877 L
103.563 190.263 L
103.52 189.636 L
103.458 188.994 L
103.383 188.336 L
103.301 187.66 L
103.221 186.966 L
103.145 186.252 L
103.073 185.517 L
103.003 184.761 L
102.931 183.984 L
102.854 183.186 L
102.774 182.367 L
102.691 181.528 L
102.612 180.67 L
102.539 179.794 L
102.475 178.9 L
102.419 177.988 L
102.368 177.057 L
102.318 176.107 L
102.268 175.138 L
102.214 174.149 L
102.158 173.141 L
102.102 172.114 L
102.05 171.07 L
102.006 170.008 L
101.969 168.931 L
101.943 167.839 L
101.924 166.734 L
101.911 165.618 L
101.902 164.491 L
101.897 163.354 L
101.895 162.209 L
101.899 161.055 L
101.91 159.892 L
101.93 158.72 L
101.96 157.541 L
101.999 156.355 L
102.042 155.163 L
102.088 153.966 L
102.131 152.767 L
102.17 151.568 L
102.205 150.368 L
102.238 149.17 L
102.27 147.974 L
102.306 146.782 L
102.344 145.593 L
102.383 144.41 L
102.421 143.232 L
102.454 142.059 L
102.481 140.892 L
102.502 139.731 L
102.52 138.576 L
102.537 137.43 L
102.556 136.292 L
102.579 135.165 L
102.605 134.049 L
102.63 132.945 L
102.652 131.853 L
102.668 130.775 L
102.678 129.71 L
102.681 128.658 L
102.68 127.619 L
102.678 126.594 L
102.675 125.58 L
102.673 124.58 L
102.668 123.592 L
102.66 122.616 L
102.647 121.654 L
102.628 120.705 L
102.604 119.77 L
102.576 118.849 L
102.548 117.942 L
102.521 117.049 L
102.496 116.17 L
102.475 115.304 L
102.457 114.449 L
102.438 113.606 L
102.42 112.772 L
102.4 111.949 L
102.378 111.135 L
102.357 110.33 L
102.337 109.534 L
102.32 108.746 L
102.307 107.966 L
102.297 107.194 L
102.288 106.429 L
102.28 105.672 L
102.269 104.92 L
102.257 104.174 L
102.243 103.433 L
102.229 102.694 L
102.217 101.958 L
102.209 101.222 L
102.206 100.488 L
102.206 99.753 L
102.209 99.018 L
102.211 98.283 L
102.214 97.546 L
102.215 96.808 L
102.216 96.068 L
102.22 95.326 L
102.227 94.581 L
102.238 93.832 L
102.251 93.079 L
102.267 92.32 L
102.282 91.556 L
102.295 90.784 L
102.304 90.005 L
102.312 89.219 L
102.318 88.425 L
102.324 87.622 L
102.331 86.812 L
102.341 85.995 L
102.35 85.169 L
102.36 84.335 L
102.368 83.493 L
102.373 82.643 L
102.375 81.783 L
102.377 80.914 L
102.378 80.036 L
102.38 79.148 L
102.383 78.25 L
102.389 77.342 L
102.394 76.425 L
102.399 75.498 L
102.403 74.563 L
102.403 73.619 L
102.401 72.667 L
102.397 71.708 L
102.393 70.741 L
102.388 69.767 L
102.385 68.785 L
102.383 67.797 L
102.38 66.801 L
102.376 65.799 L
102.37 64.793 L
102.364 63.786 L
102.364 62.782 L
102.384 61.788 L
102.443 60.808 L
102.56 59.848 L
102.752 58.912 L
103.022 58.004 L
103.37 57.129 L
103.787 56.288 L
104.272 55.485 L
104.83 54.719 L
105.476 53.991 L
106.23 53.299 L
107.107 52.642 L
108.11 52.02 L
109.224 51.435 L
110.423 50.89 L
111.68 50.389 L
112.972 49.938 L
114.289 49.539 L
115.635 49.196 L
117.019 48.907 L
118.45 48.672 L
119.922 48.49 L
121.423 48.359 L
122.931 48.275 L
124.426 48.239 L
125.896 48.247 L
127.341 48.299 L
128.772 48.392 L
130.202 48.528 L
131.643 48.706 L
133.096 48.927 L
134.554 49.193 L
136.005 49.504 L
137.436 49.858 L
138.835 50.254 L
140.198 50.688 L
141.524 51.156 L
142.814 51.655 L
144.07 52.18 L
145.29 52.728 L
146.471 53.298 L
147.609 53.886 L
148.697 54.491 L
149.731 55.111 L
150.707 55.744 L
151.625 56.391 L
152.487 57.05 L
153.301 57.72 L
154.078 58.4 L
154.831 59.087 L
155.57 59.776 L
156.302 60.465 L
157.028 61.147 L
157.745 61.819 L
158.447 62.477 L
159.135 63.12 L
159.811 63.747 L
160.485 64.357 L
161.168 64.95 L
161.869 65.525 L
162.59 66.083 L
163.328 66.62 L
164.072 67.138 L
164.812 67.633 L
165.541 68.103 L
166.263 68.547 L
166.985 68.961 L
167.721 69.342 L
168.481 69.688 L
169.271 70 L
170.09 70.276 L
170.933 70.517 L
171.792 70.725 L
172.663 70.901 L
173.548 71.046 L
174.454 71.16 L
175.387 71.243 L
176.356 71.295 L
177.362 71.315 L
178.401 71.303 L
179.465 71.259 L
180.546 71.182 L
181.635 71.072 L
182.726 70.93 L
183.819 70.756 L
184.914 70.552 L
186.013 70.319 L
187.119 70.06 L
188.231 69.779 L
189.346 69.478 L
190.461 69.157 L
191.57 68.819 L
192.671 68.464 L
193.761 68.092 L
194.841 67.704 L
195.914 67.3 L
196.985 66.881 L
198.057 66.449 L
199.134 66.005 L
200.213 65.551 L
201.291 65.09 L
202.361 64.625 L
203.416 64.158 L
204.454 63.692 L
205.474 63.229 L
206.48 62.771 L
207.476 62.318 L
208.466 61.872 L
209.451 61.431 L
210.428 60.998 L
211.392 60.571 L
212.337 60.153 L
213.26 59.745 L
214.165 59.35 L
215.056 58.968 L
215.942 58.601 L
216.829 58.253 L
217.721 57.923 L
218.618 57.613 L
219.517 57.324 L
220.414 57.056 L
221.305 56.811 L
222.191 56.587 L
223.075 56.384 L
223.961 56.202 L
224.854 56.04 L
225.757 55.898 L
226.668 55.777 L
227.585 55.678 L
228.504 55.602 L
229.42 55.549 L
230.333 55.521 L
231.243 55.516 L
232.152 55.535 L
233.066 55.577 L
233.988 55.641 L
234.92 55.726 L
235.861 55.831 L
236.811 55.954 L
237.766 56.094 L
238.726 56.251 L
239.687 56.422 L
240.652 56.609 L
241.622 56.811 L
242.6 57.028 L
243.588 57.26 L
244.586 57.506 L
245.594 57.766 L
246.606 58.037 L
247.62 58.318 L
248.631 58.607 L
249.637 58.903 L
250.639 59.204 L
251.638 59.508 L
252.639 59.815 L
253.642 60.124 L
254.649 60.433 L
255.657 60.742 L
256.664 61.05 L
257.666 61.357 L
258.662 61.663 L
259.65 61.967 L
260.635 62.266 L
261.62 62.562 L
262.608 62.851 L
263.599 63.131 L
264.594 63.403 L
265.589 63.664 L
266.58 63.914 L
267.564 64.152 L
268.541 64.378 L
269.512 64.591 L
270.478 64.792 L
271.444 64.98 L
272.409 65.155 L
273.375 65.318 L
274.339 65.467 L
275.3 65.602 L
276.255 65.723 L
277.204 65.829 L
278.147 65.919 L
279.087 65.993 L
280.025 66.05 L
280.966 66.09 L
281.91 66.114 L
282.857 66.122 L
283.807 66.116 L
284.758 66.095 L
285.707 66.061 L
286.654 66.014 L
287.6 65.953 L
288.546 65.88 L
289.493 65.795 L
290.444 65.697 L
291.399 65.586 L
292.357 65.464 L
293.317 65.33 L
294.277 65.185 L
295.234 65.029 L
296.189 64.864 L
297.142 64.69 L
298.095 64.51 L
299.051 64.323 L
300.011 64.131 L
300.976 63.935 L
301.945 63.736 L
302.916 63.533 L
303.887 63.326 L
304.857 63.118 L
305.826 62.907 L
306.795 62.695 L
307.766 62.482 L
308.741 62.269 L
309.72 62.057 L
310.702 61.847 L
311.687 61.64 L
312.67 61.437 L
313.651 61.238 L
314.628 61.046 L
315.603 60.86 L
316.577 60.68 L
317.551 60.507 L
318.527 60.341 L
319.504 60.181 L
320.483 60.029 L
321.461 59.884 L
322.437 59.747 L
323.41 59.619 L
324.381 59.5 L
325.35 59.391 L
326.319 59.293 L
327.289 59.204 L
328.261 59.127 L
329.235 59.061 L
330.209 59.005 L
331.183 58.961 L
332.154 58.926 L
333.123 58.902 L
334.089 58.887 L
335.052 58.882 L
336.016 58.887 L
336.98 58.901 L
337.945 58.924 L
338.91 58.958 L
339.876 59.001 L
340.841 59.053 L
341.803 59.115 L
342.762 59.186 L
343.72 59.267 L
344.675 59.362 L
345.623 59.473 L
346.553 59.605 L
347.448 59.762 L
348.287 59.947 L
349.055 60.164 L
349.746 60.417 L
350.358 60.708 L
350.899 61.04 L
351.37 61.414 L
351.768 61.831 L
352.078 62.289 L
352.284 62.786 L
352.369 63.32 L
352.332 63.891 L
352.184 64.497 L
351.95 65.142 L
351.658 65.829 L
351.328 66.562 L
350.971 67.342 L
350.585 68.17 L
350.162 69.048 L
349.697 69.972 L
349.192 70.942 L
348.662 71.954 L
348.126 73.007 L
347.602 74.098 L
347.103 75.225 L
346.627 76.385 L
346.166 77.576 L
345.705 78.798 L
345.236 80.051 L
344.758 81.334 L
344.276 82.649 L
343.802 83.995 L
343.348 85.371 L
342.924 86.776 L
342.533 88.205 L
342.178 89.655 L
341.857 91.122 L
341.57 92.604 L
341.32 94.096 L
341.11 95.597 L
340.945 97.105 L
340.829 98.616 L
340.767 100.13 L
340.761 101.644 L
340.812 103.159 L
340.916 104.674 L
341.068 106.189 L
341.257 107.703 L
341.473 109.213 L
341.703 110.716 L
341.942 112.209 L
342.187 113.688 L
342.44 115.148 L
342.705 116.588 L
342.982 118.006 L
343.269 119.401 L
343.559 120.774 L
343.839 122.125 L
344.104 123.452 L
344.348 124.758 L
344.577 126.04 L
344.799 127.298 L
345.024 128.532 L
345.257 129.741 L
345.496 130.922 L
345.735 132.074 L
345.962 133.195 L
346.165 134.283 L
346.341 135.338 L
346.488 136.36 L
346.613 137.35 L
346.721 138.311 L
346.815 139.243 L
346.895 140.148 L
346.954 141.027 L
346.984 141.88 L
346.981 142.708 L
346.942 143.511 L
346.871 144.289 L
346.775 145.042 L
346.663 145.771 L
346.542 146.475 L
346.417 147.155 L
346.29 147.811 L
346.16 148.446 L
346.026 149.06 L
345.887 149.658 L
345.743 150.241 L
345.598 150.812 L
345.454 151.374 L
345.314 151.926 L
345.183 152.471 L
345.061 153.007 L
344.949 153.537 L
344.843 154.059 L
344.741 154.576 L
344.638 155.088 L
344.532 155.597 L
344.423 156.104 L
344.317 156.612 L
344.217 157.123 L
344.131 157.638 L
344.061 158.161 L
344.008 158.693 L
343.969 159.236 L
343.94 159.791 L
343.919 160.356 L
343.903 160.934 L
343.896 161.523 L
343.901 162.124 L
343.925 162.737 L
343.968 163.364 L
344.03 164.006 L
344.105 164.664 L
344.187 165.34 L
344.267 166.035 L
344.343 166.749 L
344.415 167.483 L
344.485 168.239 L
344.557 169.016 L
344.634 169.814 L
344.714 170.633 L
344.797 171.472 L
344.876 172.33 L
344.949 173.206 L
345.013 174.1 L
345.069 175.012 L
345.12 175.943 L
345.17 176.893 L
345.22 177.862 L
345.274 178.851 L
345.33 179.859 L
345.386 180.886 L
345.438 181.93 L
345.482 182.992 L
345.519 184.069 L
345.545 185.161 L
345.564 186.266 L
345.577 187.382 L
345.586 188.509 L
345.591 189.646 L
345.593 190.791 L
345.589 191.945 L
345.578 193.108 L
345.558 194.28 L
345.528 195.459 L
345.489 196.645 L
345.446 197.837 L
345.4 199.034 L
345.357 200.232 L
345.318 201.432 L
345.283 202.632 L
345.25 203.83 L
345.218 205.026 L
345.182 206.218 L
345.144 207.406 L
345.105 208.59 L
345.067 209.768 L
345.034 210.941 L
345.007 212.108 L
344.986 213.269 L
344.968 214.424 L
344.951 215.57 L
344.932 216.708 L
344.909 217.835 L
344.883 218.951 L
344.858 220.055 L
344.836 221.147 L
344.82 222.225 L
344.81 223.29 L
344.807 224.342 L
344.808 225.38 L
344.81 226.406 L
344.813 227.42 L
344.815 228.42 L
344.82 229.408 L
344.828 230.384 L
344.841 231.346 L
344.86 232.295 L
344.884 233.23 L
344.912 234.151 L
344.94 235.058 L
344.967 235.951 L
344.992 236.83 L
345.013 237.696 L
345.031 238.551 L
345.05 239.394 L
345.068 240.228 L
345.089 241.051 L
345.11 241.865 L
345.131 242.67 L
345.151 243.466 L
345.168 244.254 L
345.181 245.034 L
345.191 245.806 L
345.2 246.571 L
345.208 247.329 L
345.219 248.08 L
345.231 248.826 L
345.245 249.568 L
345.259 250.306 L
345.271 251.043 L
345.279 251.778 L
345.282 252.512 L
345.282 253.247 L
345.279 253.982 L
345.277 254.718 L
345.275 255.454 L
345.273 256.192 L
345.272 256.932 L
345.268 257.674 L
345.261 258.42 L
345.25 259.168 L
345.237 259.922 L
345.221 260.68 L
345.206 261.445 L
345.193 262.216 L
345.184 262.995 L
345.176 263.781 L
345.17 264.576 L
345.164 265.378 L
345.157 266.188 L
345.147 267.005 L
345.138 267.831 L
345.128 268.665 L
345.12 269.507 L
345.115 270.357 L
345.113 271.217 L
345.111 272.086 L
345.11 272.964 L
345.108 273.852 L
345.105 274.75 L
345.099 275.658 L
345.094 276.575 L
345.089 277.502 L
345.085 278.437 L
345.085 279.381 L
345.087 280.333 L
345.091 281.292 L
345.095 282.259 L
345.1 283.233 L
345.103 284.215 L
345.105 285.203 L
345.108 286.199 L
345.112 287.201 L
345.118 288.207 L
345.124 289.214 L
345.124 290.218 L
345.104 291.212 L
345.045 292.192 L
344.928 293.152 L
344.736 294.088 L
344.466 294.996 L
344.118 295.871 L
343.701 296.712 L
343.216 297.515 L
342.658 298.281 L
342.012 299.009 L
341.258 299.701 L
340.381 300.358 L
339.378 300.98 L
338.264 301.565 L
337.065 302.11 L
335.808 302.61 L
334.516 303.062 L
333.199 303.46 L
331.853 303.804 L
330.469 304.093 L
329.038 304.328 L
327.566 304.51 L
326.065 304.641 L
324.557 304.724 L
323.062 304.761 L
321.592 304.753 L
320.147 304.701 L
318.716 304.608 L
317.286 304.472 L
315.845 304.294 L
314.392 304.073 L
312.934 303.807 L
311.483 303.496 L
310.052 303.142 L
308.652 302.746 L
307.29 302.312 L
305.964 301.844 L
304.674 301.345 L
303.418 300.82 L
302.198 300.272 L
301.017 299.702 L
299.879 299.114 L
298.791 298.509 L
297.757 297.889 L
296.781 297.256 L
295.863 296.609 L
295.001 295.951 L
294.187 295.28 L
293.41 294.6 L
292.657 293.913 L
291.918 293.224 L
291.186 292.535 L
290.46 291.853 L
289.743 291.181 L
289.041 290.523 L
288.353 289.88 L
287.677 289.253 L
287.003 288.643 L
286.32 288.05 L
285.619 287.475 L
284.897 286.918 L
284.16 286.38 L
283.416 285.862 L
282.676 285.367 L
281.947 284.897 L
281.225 284.453 L
280.503 284.04 L
279.767 283.658 L
279.007 283.312 L
278.217 283 L
277.398 282.724 L
276.555 282.483 L
275.696 282.275 L
274.825 282.099 L
273.94 281.954 L
273.034 281.84 L
272.101 281.757 L
271.132 281.705 L
270.126 281.685 L
269.087 281.697 L
268.023 281.741 L
266.942 281.818 L
265.853 281.928 L
264.762 282.07 L
263.669 282.244 L
262.574 282.448 L
261.475 282.681 L
260.369 282.94 L
259.257 283.221 L
258.142 283.522 L
257.027 283.843 L
255.918 284.181 L
254.817 284.536 L
253.727 284.908 L
252.647 285.296 L
251.574 285.7 L
250.503 286.119 L
249.431 286.551 L
248.354 286.995 L
247.275 287.449 L
246.197 287.91 L
245.127 288.375 L
244.072 288.842 L
243.034 289.308 L
242.014 289.771 L
241.008 290.229 L
240.012 290.682 L
239.022 291.128 L
238.037 291.569 L
237.06 292.002 L
236.096 292.429 L
235.151 292.847 L
234.228 293.255 L
233.323 293.65 L
232.432 294.032 L
231.546 294.399 L
230.659 294.747 L
229.767 295.077 L
228.87 295.387 L
227.971 295.676 L
227.074 295.943 L
226.183 296.189 L
225.297 296.413 L
224.413 296.616 L
223.527 296.798 L
222.634 296.96 L
221.731 297.102 L
220.82 297.223 L
219.903 297.322 L
218.984 297.398 L
218.068 297.451 L
217.155 297.479 L
216.245 297.484 L
215.336 297.465 L
214.422 297.423 L
213.5 297.359 L
212.568 297.274 L
211.627 297.169 L
210.677 297.046 L
209.722 296.906 L
208.762 296.749 L
207.801 296.578 L
206.836 296.391 L
205.866 296.189 L
204.888 295.972 L
203.9 295.74 L
202.902 295.494 L
201.894 295.234 L
200.882 294.963 L
199.868 294.682 L
198.857 294.393 L
197.851 294.097 L
196.849 293.796 L
195.85 293.492 L
194.849 293.185 L
193.846 292.876 L
192.839 292.567 L
191.831 292.258 L
190.824 291.95 L
189.822 291.643 L
188.826 291.337 L
187.838 291.034 L
186.853 290.734 L
185.868 290.438 L
184.88 290.15 L
183.889 289.869 L
182.894 289.597 L
181.899 289.336 L
180.908 289.086 L
179.924 288.848 L
178.947 288.622 L
177.976 288.409 L
177.01 288.208 L
176.044 288.02 L
175.079 287.845 L
174.113 287.682 L
173.149 287.533 L
172.188 287.398 L
171.233 287.277 L
170.284 287.171 L
169.341 287.081 L
168.401 287.007 L
167.463 286.95 L
166.522 286.91 L
165.578 286.886 L
164.631 286.878 L
163.681 286.884 L
162.73 286.905 L
161.781 286.939 L
160.834 286.986 L
159.888 287.047 L
158.942 287.12 L
157.995 287.205 L
157.044 287.303 L
156.089 287.414 L
155.131 287.536 L
154.171 287.67 L
153.211 287.815 L
152.254 287.971 L
151.299 288.136 L
150.346 288.31 L
149.393 288.49 L
148.437 288.677 L
147.477 288.869 L
146.512 289.065 L
145.543 289.264 L
144.572 289.467 L
143.601 289.674 L
142.631 289.882 L
141.662 290.093 L
140.693 290.305 L
139.722 290.518 L
138.747 290.731 L
137.768 290.943 L
136.786 291.153 L
135.801 291.36 L
134.818 291.563 L
133.837 291.761 L
132.86 291.954 L
131.885 292.14 L
130.911 292.32 L
129.937 292.493 L
128.961 292.659 L
127.984 292.819 L
127.005 292.971 L
126.027 293.116 L
125.051 293.253 L
124.078 293.381 L
123.107 293.5 L
122.138 293.609 L
121.169 293.707 L
120.199 293.796 L
119.227 293.873 L
118.253 293.939 L
117.279 293.995 L
116.305 294.039 L
115.334 294.074 L
114.365 294.098 L
113.399 294.113 L
112.436 294.118 L
111.472 294.113 L
110.508 294.099 L
109.543 294.076 L
108.578 294.042 L
107.612 293.999 L
106.647 293.947 L
105.685 293.885 L
104.726 293.814 L
103.768 293.733 L
102.813 293.638 L
101.865 293.527 L
100.935 293.395 L
100.04 293.238 L
99.201 293.053 L
98.433 292.836 L
97.742 292.583 L
97.13 292.292 L
96.589 291.96 L
96.118 291.586 L
95.72 291.169 L
95.41 290.711 L
95.204 290.214 L
95.119 289.68 L
95.156 289.109 L
95.304 288.503 L
95.538 287.858 L
95.83 287.171 L
96.16 286.438 L
96.517 285.659 L
96.903 284.83 L
97.326 283.952 L
97.791 283.028 L
98.296 282.058 L
98.826 281.046 L
99.362 279.993 L
99.886 278.902 L
100.385 277.775 L
100.861 276.615 L
101.322 275.424 L
101.783 274.202 L
102.252 272.949 L
102.73 271.666 L
103.212 270.351 L
103.686 269.005 L
104.14 267.629 L
104.564 266.224 L
104.955 264.795 L
105.31 263.345 L
105.631 261.878 L
105.918 260.396 L
106.168 258.904 L
106.378 257.403 L
106.543 255.895 L
106.659 254.384 L
106.721 252.87 L
106.727 251.356 L
106.676 249.841 L
106.572 248.326 L
106.42 246.811 L
106.231 245.297 L
106.015 243.787 L
105.785 242.284 L
105.546 240.791 L
105.301 239.312 L
105.048 237.852 L
104.783 236.412 L
104.506 234.994 L
104.219 233.599 L
103.929 232.226 L
103.649 230.875 L
103.384 229.548 L
103.14 228.242 L
102.911 226.96 L
102.689 225.702 L
102.464 224.468 L
102.231 223.259 L
101.992 222.078 L
101.753 220.926 L
101.526 219.805 L
101.323 218.717 L
101.147 217.662 L
101 216.64 L
100.875 215.65 L
100.767 214.689 L
100.673 213.757 L
100.593 212.852 L
100.534 211.973 L
100.504 211.12 L
100.507 210.292 L
100.546 209.489 L
100.617 208.711 L
100.713 207.958 L
100.825 207.229 L
100.946 206.525 L
101.071 205.845 L
101.198 205.189 L
101.328 204.554 L
101.462 203.94 L
101.601 203.342 L
101.745 202.759 L
101.89 202.188 L
102.034 201.626 L
102.174 201.074 L
102.305 200.529 L
102.427 199.993 L
102.539 199.463 L
102.645 198.941 L
102.747 198.424 L
102.85 197.912 L
102.956 197.403 L
103.065 196.896 L
103.171 196.388 L
103.27 195.877 L
103.357 195.362 L
103.427 194.839 L
103.48 194.307 L
103.519 193.764 L
103.548 193.209 L
103.569 192.644 L
103.585 192.066 L
103.592 191.477 L
103.587 190.876 L
103.563 190.263 L
103.52 189.636 L
103.458 188.994 L
103.383 188.336 L
103.301 187.66 L
103.221 186.965 L
103.145 186.251 L
103.073 185.517 L
103.003 184.761 L
102.931 183.984 L
102.854 183.186 L
102.774 182.367 L
102.691 181.528 L
102.612 180.67 L
102.539 179.794 L
102.475 178.9 L
102.419 177.988 L
102.368 177.057 L
102.318 176.107 L
102.268 175.138 L
102.214 174.149 L
102.158 173.141 L
102.102 172.115 L
102.05 171.07 L
102.005 170.008 L
101.969 168.931 L
101.943 167.839 L
101.924 166.734 L
101.911 165.618 L
101.902 164.491 L
101.897 163.354 L
101.895 162.209 L
101.899 161.055 L
101.91 159.892 L
101.93 158.72 L
101.96 157.541 L
101.999 156.355 L
102.042 155.163 L
102.088 153.966 L
102.131 152.768 L
102.17 151.568 L
102.205 150.368 L
102.238 149.17 L
102.27 147.974 L
102.306 146.782 L
102.344 145.594 L
102.383 144.41 L
102.421 143.232 L
102.454 142.059 L
102.481 140.892 L
102.502 139.731 L
102.52 138.576 L
102.537 137.43 L
102.556 136.292 L
102.579 135.165 L
102.605 134.049 L
102.63 132.945 L
102.652 131.853 L
102.668 130.775 L
102.678 129.71 L
102.681 128.658 L
102.68 127.62 L
102.678 126.594 L
102.675 125.58 L
102.673 124.58 L
102.668 123.592 L
102.66 122.616 L
102.647 121.654 L
102.628 120.705 L
102.604 119.77 L
102.576 118.849 L
102.548 117.942 L
102.521 117.049 L
102.496 116.17 L
102.475 115.304 L
102.457 114.449 L
102.438 113.606 L
102.42 112.772 L
102.4 111.949 L
102.378 111.135 L
102.357 110.33 L
102.337 109.534 L
102.32 108.746 L
102.307 107.966 L
102.297 107.194 L
102.288 106.429 L
102.28 105.671 L
102.269 104.92 L
102.257 104.174 L
102.243 103.432 L
102.229 102.694 L
102.217 101.957 L
102.209 101.222 L
102.206 100.488 L
102.206 99.753 L
102.209 99.018 L
102.211 98.282 L
102.214 97.546 L
102.215 96.808 L
102.216 96.068 L
102.22 95.326 L
102.227 94.58 L
102.238 93.832 L
102.251 93.078 L
102.267 92.32 L
102.282 91.555 L
102.295 90.784 L
102.304 90.005 L
102.312 89.219 L
102.318 88.424 L
102.324 87.622 L
102.331 86.812 L
102.341 85.995 L
102.35 85.169 L
102.36 84.335 L
102.368 83.493 L
102.373 82.643 L
102.375 81.783 L
102.377 80.914 L
102.378 80.036 L
102.38 79.148 L
102.383 78.25 L
102.389 77.342 L
102.394 76.425 L
102.399 75.498 L
102.403 74.563 L
102.403 73.619 L
102.401 72.667 L
102.397 71.708 L
102.393 70.741 L
102.388 69.767 L
102.385 68.785 L
102.383 67.797 L
102.38 66.801 L
102.376 65.799 L
102.37 64.793 L
102.364 63.786 L
102.364 62.782 L
102.384 61.788 L
102.443 60.808 L
102.56 59.848 L
102.752 58.912 L
103.022 58.004 L
103.37 57.129 L
103.787 56.288 L
104.272 55.485 L
104.83 54.719 L
105.476 53.991 L
106.23 53.299 L
107.107 52.642 L
108.11 52.02 L
109.224 51.435 L
110.423 50.89 L
111.68 50.39 L
112.972 49.938 L
114.289 49.54 L
115.635 49.196 L
117.019 48.907 L
118.45 48.672 L
119.922 48.49 L
121.423 48.359 L
122.931 48.276 L
124.426 48.239 L
125.896 48.247 L
127.341 48.299 L
128.772 48.392 L
130.202 48.528 L
131.643 48.706 L
133.096 48.927 L
134.554 49.193 L
136.005 49.504 L
137.436 49.858 L
138.835 50.254 L
140.198 50.688 L
141.524 51.156 L
142.814 51.655 L
144.07 52.18 L
145.29 52.728 L
146.471 53.298 L
147.609 53.886 L
148.697 54.491 L
149.731 55.111 L
150.707 55.744 L
151.625 56.391 L
152.487 57.05 L
153.301 57.72 L
154.078 58.4 L
154.831 59.087 L
155.57 59.776 L
156.302 60.465 L
157.028 61.147 L
157.745 61.819 L
158.447 62.477 L
159.135 63.12 L
159.811 63.747 L
160.485 64.357 L
161.168 64.95 L
161.869 65.525 L
162.59 66.082 L
163.328 66.62 L
164.072 67.138 L
164.812 67.633 L
165.541 68.103 L
166.263 68.547 L
166.985 68.96 L
167.721 69.342 L
168.481 69.688 L
169.271 70 L
170.09 70.276 L
170.933 70.517 L
171.792 70.725 L
172.663 70.901 L
173.548 71.046 L
174.454 71.16 L
175.387 71.243 L
176.356 71.295 L
177.362 71.315 L
178.401 71.303 L
179.465 71.259 L
180.546 71.182 L
181.635 71.072 L
182.726 70.93 L
183.819 70.756 L
184.914 70.552 L
186.013 70.319 L
187.119 70.06 L
188.231 69.779 L
189.346 69.478 L
190.461 69.157 L
191.57 68.819 L
192.671 68.464 L
193.761 68.092 L
194.841 67.704 L
195.914 67.3 L
196.985 66.881 L
198.057 66.449 L
199.134 66.005 L
200.213 65.551 L
201.291 65.09 L
202.361 64.625 L
203.416 64.158 L
204.454 63.692 L
205.474 63.229 L
206.48 62.771 L
207.476 62.318 L
208.466 61.872 L
209.451 61.431 L
210.428 60.998 L
211.392 60.571 L
212.337 60.153 L
213.26 59.745 L
214.165 59.35 L
215.056 58.968 L
215.942 58.601 L
216.829 58.253 L
217.721 57.923 L
218.618 57.613 L
219.517 57.324 L
220.414 57.057 L
221.305 56.811 L
222.191 56.587 L
223.075 56.384 L
223.961 56.202 L
224.854 56.04 L
225.757 55.898 L
226.668 55.777 L
227.585 55.678 L
228.504 55.602 L
229.42 55.549 L
230.333 55.521 L
231.243 55.516 L
232.152 55.535 L
233.066 55.577 L
233.988 55.641 L
234.92 55.726 L
235.861 55.831 L
236.811 55.954 L
237.766 56.094 L
238.726 56.251 L
239.687 56.422 L
240.652 56.609 L
241.622 56.811 L
242.6 57.028 L
243.588 57.26 L
244.586 57.506 L
245.594 57.766 L
246.606 58.037 L
247.62 58.318 L
248.631 58.607 L
249.637 58.903 L
250.639 59.204 L
251.638 59.508 L
252.639 59.815 L
253.642 60.124 L
254.649 60.433 L
255.657 60.742 L
256.664 61.05 L
257.666 61.357 L
258.662 61.663 L
259.65 61.966 L
260.635 62.266 L
261.62 62.562 L
262.608 62.85 L
263.599 63.131 L
264.594 63.403 L
265.589 63.664 L
266.58 63.914 L
267.564 64.152 L
268.541 64.378 L
269.512 64.591 L
270.478 64.792 L
271.444 64.98 L
272.409 65.155 L
273.375 65.318 L
274.339 65.467 L
275.3 65.602 L
276.255 65.723 L
277.204 65.829 L
278.147 65.919 L
279.087 65.993 L
280.025 66.05 L
280.966 66.09 L
281.91 66.114 L
282.857 66.122 L
283.807 66.116 L
284.758 66.095 L
285.707 66.061 L
286.654 66.014 L
287.6 65.953 L
288.546 65.88 L
289.493 65.795 L
290.444 65.697 L
291.399 65.586 L
292.357 65.464 L
293.317 65.33 L
294.277 65.185 L
295.234 65.029 L
296.189 64.864 L
297.142 64.69 L
298.095 64.51 L
299.051 64.323 L
300.011 64.131 L
300.976 63.935 L
301.945 63.736 L
302.916 63.533 L
303.887 63.326 L
304.857 63.118 L
305.826 62.907 L
306.795 62.695 L
307.766 62.482 L
308.741 62.269 L
309.72 62.057 L
310.702 61.847 L
311.687 61.64 L
312.67 61.437 L
313.651 61.239 L
314.628 61.046 L
315.603 60.86 L
316.577 60.68 L
317.551 60.507 L
318.527 60.341 L
319.504 60.181 L
320.483 60.029 L
321.461 59.884 L
322.437 59.747 L
323.41 59.619 L
324.381 59.5 L
325.35 59.391 L
326.319 59.293 L
327.289 59.204 L
328.261 59.127 L
329.235 59.061 L
330.209 59.005 L
331.183 58.961 L
332.154 58.926 L
333.123 58.902 L
334.089 58.887 L
335.052 58.882 L
336.016 58.887 L
336.98 58.901 L
337.945 58.924 L
338.91 58.958 L
339.876 59.001 L
340.841 59.053 L
341.803 59.115 L
342.762 59.186 L
343.72 59.267 L
344.675 59.362 L
345.623 59.473 L
346.553 59.605 L
347.448 59.762 L
348.287 59.947 L
349.055 60.164 L
349.746 60.417 L
350.358 60.708 L
350.899 61.04 L
351.37 61.414 L
351.768 61.831 L
352.078 62.289 L
352.284 62.786 L
352.369 63.32 L
352.332 63.891 L
352.184 64.497 L
351.95 65.142 L
351.658 65.829 L
351.328 66.562 L
350.971 67.342 L
350.585 68.17 L
350.162 69.048 L
349.697 69.972 L
349.192 70.942 L
348.662 71.954 L
348.126 73.007 L
347.602 74.098 L
347.103 75.225 L
346.627 76.385 L
346.166 77.576 L
345.705 78.798 L
345.236 80.051 L
344.758 81.334 L
344.276 82.649 L
343.802 83.995 L
343.348 85.371 L
342.924 86.776 L
342.533 88.205 L
342.178 89.655 L
341.857 91.122 L
341.57 92.604 L
341.32 94.096 L
341.11 95.597 L
340.945 97.105 L
340.829 98.616 L
340.767 100.13 L
340.761 101.644 L
340.812 103.159 L
340.916 104.674 L
341.068 106.189 L
341.257 107.703 L
341.473 109.213 L
341.703 110.716 L
341.942 112.209 L
342.187 113.688 L
342.44 115.148 L
342.705 116.588 L
342.982 118.006 L
343.269 119.401 L
343.559 120.774 L
343.839 122.125 L
344.104 123.452 L
344.348 124.758 L
344.577 126.04 L
344.799 127.298 L
345.024 128.532 L
345.257 129.741 L
345.496 130.922 L
345.735 132.074 L
345.962 133.195 L
346.165 134.283 L
346.341 135.338 L
346.488 136.36 L
346.613 137.35 L
346.721 138.311 L
346.815 139.243 L
346.895 140.148 L
346.954 141.027 L
346.984 141.88 L
346.981 142.708 L
346.942 143.511 L
346.871 144.289 L
346.775 145.042 L
346.663 145.771 L
346.542 146.475 L
346.417 147.155 L
346.29 147.811 L
346.16 148.446 L
346.026 149.06 L
345.887 149.658 L
345.743 150.241 L
345.598 150.812 L
345.454 151.374 L
345.314 151.926 L
345.183 152.471 L
345.061 153.007 L
344.949 153.537 L
344.843 154.059 L
344.741 154.576 L
344.638 155.088 L
344.532 155.597 L
344.423 156.104 L
344.317 156.612 L
344.217 157.123 L
344.131 157.638 L
344.061 158.161 L
344.008 158.693 L
343.969 159.236 L
343.94 159.791 L
343.919 160.356 L
343.903 160.934 L
343.896 161.523 L
343.901 162.124 L
343.925 162.737 L
343.968 163.364 L
344.03 164.006 L
344.105 164.664 L
344.187 165.34 L
344.267 166.035 L
344.343 166.749 L
344.415 167.483 L
344.485 168.239 L
344.557 169.016 L
344.634 169.814 L
344.714 170.633 L
344.797 171.472 L
344.876 172.33 L
344.949 173.206 L
345.013 174.1 L
345.069 175.012 L
345.12 175.943 L
345.17 176.893 L
345.22 177.862 L
345.274 178.851 L
345.33 179.859 L
345.386 180.885 L
345.438 181.93 L
345.482 182.992 L
345.519 184.069 L
345.545 185.161 L
345.564 186.266 L
345.577 187.382 L
345.586 188.509 L
345.591 189.646 L
345.593 190.791 L
345.589 191.945 L
345.578 193.108 L
345.558 194.28 L
345.528 195.459 L
345.489 196.645 L
345.446 197.837 L
345.4 199.034 L
345.357 200.232 L
345.318 201.432 L
345.283 202.632 L
345.25 203.83 L
345.218 205.026 L
345.182 206.218 L
345.144 207.406 L
345.105 208.59 L
345.067 209.768 L
345.034 210.941 L
345.007 212.108 L
344.986 213.269 L
344.968 214.424 L
344.951 215.57 L
344.932 216.708 L
344.909 217.835 L
344.883 218.951 L
344.858 220.055 L
344.836 221.147 L
344.82 222.225 L
344.81 223.29 L
344.807 224.342 L
344.808 225.38 L
344.81 226.406 L
344.813 227.42 L
344.815 228.42 L
344.82 229.408 L
344.828 230.384 L
344.841 231.346 L
344.86 232.295 L
344.884 233.23 L
344.912 234.151 L
344.94 235.058 L
344.967 235.951 L
344.992 236.83 L
345.013 237.696 L
345.031 238.551 L
345.05 239.394 L
345.068 240.228 L
345.089 241.051 L
345.11 241.865 L
345.131 242.67 L
345.151 243.466 L
345.168 244.254 L
345.181 245.034 L
345.191 245.806 L
345.2 246.571 L
345.208 247.329 L
345.219 248.08 L
345.231 248.826 L
345.245 249.568 L
345.259 250.306 L
345.271 251.043 L
345.279 251.778 L
345.282 252.512 L
345.282 253.247 L
345.279 253.982 L
345.277 254.718 L
345.275 255.454 L
345.273 256.192 L
345.272 256.932 L
345.268 257.674 L
345.261 258.42 L
345.25 259.168 L
345.237 259.922 L
345.221 260.68 L
345.206 261.445 L
345.193 262.216 L
345.184 262.995 L
345.176 263.781 L
345.17 264.576 L
345.164 265.378 L
345.157 266.188 L
345.147 267.005 L
345.138 267.831 L
345.128 268.665 L
345.12 269.507 L
345.115 270.357 L
345.113 271.217 L
345.111 272.086 L
345.11 272.964 L
345.108 273.852 L
345.105 274.75 L
345.099 275.658 L
345.094 276.575 L
345.089 277.502 L
345.085 278.437 L
345.085 279.381 L
345.087 280.333 L
345.091 281.292 L
345.095 282.259 L
345.1 283.233 L
345.103 284.215 L
345.105 285.203 L
345.108 286.199 L
345.112 287.201 L
345.118 288.207 L
345.124 289.214 L
345.124 290.218 L
345.104 291.212 L
345.045 292.192 L
344.928 293.152 L
344.736 294.088 L
344.466 294.996 L
344.118 295.871 L
343.701 296.712 L
343.216 297.515 L
342.658 298.281 L
342.012 299.009 L
341.258 299.701 L
340.381 300.358 L
339.378 300.98 L
338.264 301.565 L
337.065 302.11 L
335.808 302.61 L
334.516 303.062 L
333.199 303.46 L
331.853 303.804 L
330.469 304.093 L
329.038 304.328 L
327.566 304.51 L
326.065 304.641 L
324.557 304.724 L
323.062 304.761 L
321.592 304.753 L
320.147 304.701 L
318.716 304.608 L
317.286 304.472 L
315.845 304.294 L
314.392 304.073 L
312.934 303.807 L
311.483 303.496 L
310.052 303.142 L
308.652 302.746 L
307.29 302.312 L
305.964 301.844 L
304.674 301.345 L
303.418 300.82 L
302.198 300.272 L
301.017 299.702 L
299.879 299.114 L
298.791 298.509 L
297.757 297.889 L
296.781 297.256 L
295.863 296.609 L
295.001 295.951 L
294.187 295.28 L
293.41 294.6 L
292.657 293.913 L
291.918 293.224 L
291.186 292.535 L
290.46 291.853 L
289.743 291.181 L
289.041 290.523 L
288.353 289.88 L
287.677 289.253 L
287.003 288.643 L
286.32 288.05 L
285.619 287.475 L
284.897 286.918 L
284.16 286.38 L
283.416 285.862 L
282.676 285.367 L
281.947 284.897 L
281.225 284.453 L
280.503 284.04 L
279.767 283.658 L
279.007 283.312 L
278.217 283 L
277.398 282.724 L
276.555 282.483 L
275.696 282.275 L
274.825 282.099 L
273.94 281.954 L
273.034 281.84 L
272.101 281.757 L
271.132 281.705 L
270.126 281.685 L
269.087 281.697 L
268.023 281.741 L
266.942 281.818 L
265.853 281.928 L
264.762 282.07 L
263.669 282.244 L
262.574 282.448 L
261.475 282.681 L
260.369 282.94 L
259.257 283.221 L
258.142 283.522 L
257.027 283.843 L
255.918 284.181 L
254.817 284.536 L
253.727 284.908 L
252.647 285.296 L
251.574 285.7 L
250.503 286.119 L
249.431 286.551 L
248.354 286.995 L
247.275 287.449 L
246.197 287.91 L
245.127 288.375 L
244.072 288.842 L
243.034 289.308 L
242.014 289.771 L
241.008 290.229 L
240.012 290.682 L
239.022 291.128 L
238.037 291.569 L
237.06 292.002 L
236.096 292.429 L
235.151 292.847 L
234.228 293.255 L
233.323 293.65 L
232.432 294.032 L
231.546 294.399 L
230.659 294.747 L
229.767 295.077 L
228.87 295.387 L
227.971 295.676 L
227.074 295.943 L
226.183 296.189 L
225.297 296.413 L
224.413 296.616 L
223.527 296.798 L
222.634 296.96 L
221.731 297.102 L
220.82 297.223 L
219.903 297.322 L
218.984 297.398 L
218.068 297.451 L
217.155 297.479 L
216.245 297.484 L
215.336 297.465 L
214.422 297.423 L
213.5 297.359 L
212.568 297.274 L
211.627 297.169 L
210.677 297.046 L
209.722 296.906 L
208.762 296.749 L
207.801 296.578 L
206.836 296.391 L
205.866 296.189 L
204.888 295.972 L
203.9 295.74 L
202.902 295.494 L
201.894 295.234 L
200.882 294.963 L
199.868 294.682 L
198.857 294.393 L
197.851 294.097 L
196.849 293.796 L
195.85 293.492 L
194.849 293.185 L
193.846 292.876 L
192.839 292.567 L
191.831 292.258 L
190.824 291.95 L
189.822 291.643 L
188.826 291.337 L
187.838 291.034 L
186.853 290.734 L
185.868 290.438 L
184.88 290.15 L
183.889 289.869 L
182.894 289.597 L
181.899 289.336 L
180.908 289.086 L
179.924 288.848 L
178.947 288.622 L
177.976 288.409 L
177.01 288.208 L
176.044 288.02 L
175.079 287.845 L
174.113 287.682 L
173.149 287.533 L
172.188 287.398 L
171.233 287.277 L
170.284 287.171 L
169.341 287.081 L
168.401 287.007 L
167.463 286.95 L
166.522 286.91 L
165.578 286.886 L
164.631 286.878 L
163.681 286.884 L
162.73 286.905 L
161.781 286.939 L
160.834 286.986 L
159.888 287.047 L
158.942 287.12 L
157.995 287.205 L
157.044 287.303 L
156.089 287.414 L
155.131 287.536 L
154.171 287.67 L
153.211 287.815 L
152.254 287.971 L
151.299 288.136 L
150.346 288.31 L
149.393 288.49 L
148.437 288.677 L
147.477 288.869 L
146.512 289.065 L
145.543 289.264 L
144.572 289.467 L
143.601 289.674 L
142.631 289.882 L
141.662 290.093 L
140.693 290.305 L
139.722 290.518 L
138.747 290.731 L
137.768 290.943 L
136.786 291.153 L
135.801 291.36 L
134.818 291.563 L
133.837 291.761 L
132.86 291.954 L
131.885 292.14 L
130.911 292.32 L
129.937 292.493 L
128.961 292.659 L
127.984 292.819 L
127.005 292.971 L
126.027 293.116 L
125.051 293.253 L
124.078 293.381 L
123.107 293.5 L
122.138 293.609 L
121.169 293.707 L
120.199 293.796 L
119.227 293.873 L
118.253 293.939 L
117.279 293.995 L
116.305 294.039 L
115.334 294.074 L
114.365 294.098 L
113.399 294.113 L
112.436 294.118 L
111.472 294.113 L
110.508 294.099 L
109.543 294.076 L
108.578 294.042 L
107.612 293.999 L
106.647 293.947 L
105.685 293.885 L
104.726 293.814 L
103.768 293.733 L
102.813 293.638 L
101.865 293.527 L
100.935 293.395 L
100.04 293.238 L
99.201 293.053 L
98.433 292.836 L
97.742 292.583 L
97.13 292.292 L
96.589 291.96 L
96.118 291.586 L
95.72 291.169 L
95.41 290.711 L
95.204 290.214 L
95.119 289.68 L
95.156 289.109 L
95.304 288.503 L
95.538 287.858 L
95.83 287.171 L
96.16 286.438 L
96.517 285.659 L
96.903 284.83 L
97.326 283.952 L
97.791 283.028 L
98.296 282.058 L
98.826 281.046 L
99.362 279.993 L
99.886 278.902 L
100.385 277.775 L
100.861 276.615 L
101.322 275.424 L
101.783 274.202 L
102.252 272.949 L
102.73 271.666 L
103.212 270.351 L
103.686 269.005 L
104.14 267.629 L
104.564 266.224 L
104.955 264.795 L
105.31 263.345 L
105.631 261.878 L
105.918 260.396 L
106.168 258.904 L
106.378 257.403 L
106.543 255.895 L
106.659 254.384 L
106.721 252.87 L
106.727 251.356 L
106.676 249.841 L
106.572 248.326 L
106.42 246.811 L
106.231 245.297 L
106.015 243.787 L
105.785 242.284 L
105.546 240.791 L
105.301 239.312 L
105.048 237.852 L
104.783 236.412 L
104.506 234.994 L
104.219 233.599 L
103.929 232.226 L
103.649 230.875 L
103.384 229.548 L
103.14 228.242 L
102.911 226.96 L
102.689 225.702 L
102.464 224.468 L
102.231 223.259 L
101.992 222.078 L
101.753 220.926 L
101.526 219.805 L
101.323 218.717 L
101.147 217.662 L
101 216.64 L
100.875 215.65 L
100.767 214.689 L
100.673 213.757 L
100.593 212.852 L
100.534 211.973 L
100.504 211.12 L
100.507 210.292 L
100.546 209.489 L
100.617 208.711 L
100.713 207.958 L
100.825 207.229 L
100.946 206.525 L
101.071 205.845 L
101.198 205.189 L
101.328 204.554 L
101.462 203.94 L
101.601 203.342 L
101.745 202.759 L
101.89 202.188 L
102.034 201.626 L
102.174 201.074 L
102.305 200.529 L
102.427 199.993 L
102.539 199.463 L
102.645 198.941 L
102.747 198.424 L
102.85 197.912 L
102.956 197.403 L
103.065 196.896 L
103.171 196.388 L
103.27 195.877 L
103.357 195.362 L
103.427 194.839 L
103.48 194.307 L
103.519 193.764 L
103.548 193.209 L
103.569 192.644 L
103.585 192.066 L
103.592 191.477 L
103.587 190.876 L
103.563 190.263 L
103.52 189.636 L
103.458 188.994 L
103.383 188.336 L
103.301 187.66 L
103.221 186.965 L
103.145 186.251 L
103.073 185.517 L
103.003 184.761 L
102.931 183.984 L
102.854 183.186 L
102.774 182.367 L
102.691 181.528 L
102.612 180.67 L
102.539 179.794 L
102.475 178.9 L
102.419 177.988 L
102.368 177.057 L
102.318 176.107 L
102.268 175.138 L
102.214 174.149 L
102.158 173.141 L
102.102 172.115 L
102.05 171.07 L
102.005 170.008 L
101.969 168.931 L
101.943 167.839 L
101.924 166.734 L
101.911 165.618 L
101.902 164.491 L
101.897 163.354 L
101.895 162.209 L
101.899 161.055 L
101.91 159.892 L
101.93 158.72 L
101.96 157.541 L
101.999 156.355 L
102.042 155.163 L
102.088 153.966 L
102.131 152.768 L
102.17 151.568 L
102.205 150.368 L
102.238 149.17 L
102.27 147.974 L
102.306 146.782 L
102.344 145.594 L
102.383 144.41 L
102.421 143.232 L
102.454 142.059 L
102.481 140.892 L
102.502 139.731 L
102.52 138.576 L
102.537 137.43 L
102.556 136.292 L
102.579 135.165 L
102.605 134.049 L
102.63 132.945 L
102.652 131.853 L
102.668 130.775 L
102.678 129.71 L
102.681 128.658 L
102.68 127.62 L
102.678 126.594 L
102.675 125.58 L
102.673 124.58 L
102.668 123.592 L
102.66 122.616 L
102.647 121.654 L
102.628 120.705 L
102.604 119.77 L
102.576 118.849 L
102.548 117.942 L
102.521 117.049 L
102.496 116.17 L
102.475 115.304 L
102.457 114.449 L
102.438 113.606 L
102.42 112.772 L
102.4 111.949 L
102.378 111.135 L
102.357 110.33 L
102.337 109.534 L
102.32 108.746 L
102.307 107.966 L
102.297 107.194 L
102.288 106.429 L
102.28 105.671 L
102.269 104.92 L
102.257 104.174 L
102.243 103.432 L
102.229 102.694 L
102.217 101.957 L
102.209 101.222 L
102.206 100.488 L
102.206 99.753 L
102.209 99.018 L
102.211 98.282 L
102.214 97.546 L
102.215 96.808 L
102.216 96.068 L
102.22 95.326 L
102.227 94.58 L
102.238 93.832 L
102.251 93.078 L
102.267 92.32 L
102.282 91.555 L
102.295 90.784 L
102.304 90.005 L
102.312 89.219 L
102.318 88.424 L
102.324 87.622 L
102.331 86.812 L
102.341 85.995 L
102.35 85.169 L
102.36 84.335 L
102.368 83.493 L
102.373 82.643 L
102.375 81.783 L
102.377 80.914 L
102.378 80.036 L
102.38 79.148 L
102.383 78.25 L
102.389 77.342 L
102.394 76.425 L
102.399 75.498 L
102.403 74.563 L
102.403 73.619 L
102.401 72.667 L
102.397 71.708 L
102.393 70.741 L
102.388 69.767 L
102.385 68.785 L
102.383 67.797 L
102.38 66.801 L
102.376 65.799 L
102.37 64.793 L
102.364 63.786 L
102.364 62.782 L
102.384 61.788 L
102.443 60.808 L
102.56 59.848 L
102.752 58.912 L
103.022 58.004 L
103.37 57.129 L
103.787 56.288 L
104.272 55.485 L
104.83 54.719 L
105.476 53.991 L
106.23 53.299 L
107.107 52.642 L
108.11 52.02 L
109.224 51.435 L
110.423 50.89 L
111.68 50.39 L
112.972 49.938 L
114.289 49.54 L
115.635 49.196 L
117.019 48.907 L
118.45 48.672 L
119.922 48.49 L
121.423 48.359 L
122.931 48.276 L
124.426 48.239 L
125.896 48.247 L
127.341 48.299 L
128.772 48.392 L
130.202 48.528 L
131.643 48.706 L
133.096 48.927 L
134.554 49.193 L
136.005 49.504 L
137.436 49.858 L
138.835 50.254 L
140.198 50.688 L
141.524 51.156 L
142.814 51.655 L
144.07 52.18 L
145.29 52.728 L
146.471 53.298 L
147.609 53.886 L
148.697 54.491 L
149.731 55.111 L
150.707 55.744 L
151.625 56.391 L
152.487 57.05 L
153.301 57.72 L
154.078 58.4 L
154.831 59.087 L
155.57 59.776 L
156.302 60.465 L
157.028 61.147 L
157.745 61.819 L
158.447 62.477 L
159.135 63.12 L
159.811 63.747 L
160.485 64.357 L
161.168 64.95 L
161.869 65.525 L
162.59 66.082 L
163.328 66.62 L
164.072 67.138 L
164.812 67.633 L
165.541 68.103 L
166.263 68.547 L
166.985 68.96 L
167.721 69.342 L
168.481 69.688 L
169.271 70 L
170.09 70.276 L
170.933 70.517 L
171.792 70.725 L
172.663 70.901 L
173.548 71.046 L
174.454 71.16 L
175.387 71.243 L
176.356 71.295 L
177.362 71.315 L
178.401 71.303 L
179.465 71.259 L
180.546 71.182 L
181.635 71.072 L
182.726 70.93 L
183.819 70.756 L
184.914 70.552 L
186.013 70.319 L
187.119 70.06 L
188.231 69.779 L
189.346 69.478 L
190.461 69.157 L
191.57 68.819 L
192.671 68.464 L
193.761 68.092 L
194.841 67.704 L
195.914 67.3 L
196.985 66.881 L
198.057 66.449 L
199.134 66.005 L
200.213 65.551 L
201.291 65.09 L
202.361 64.625 L
203.416 64.158 L
204.454 63.692 L
205.474 63.229 L
206.48 62.771 L
207.476 62.318 L
208.466 61.872 L
209.451 61.431 L
210.428 60.998 L
211.392 60.571 L
212.337 60.153 L
213.26 59.745 L
214.165 59.35 L
215.056 58.968 L
215.942 58.601 L
216.829 58.253 L
217.721 57.923 L
218.618 57.613 L
219.517 57.324 L
220.414 57.057 L
221.305 56.811 L
222.191 56.587 L
223.075 56.384 L
223.961 56.202 L
224.854 56.04 L
225.757 55.898 L
226.668 55.777 L
227.585 55.678 L
228.504 55.602 L
229.42 55.549 L
230.333 55.521 L
231.243 55.516 L
232.152 55.535 L
233.066 55.577 L
233.988 55.641 L
234.92 55.726 L
235.861 55.831 L
236.811 55.954 L
237.766 56.094 L
238.726 56.251 L
239.687 56.422 L
240.652 56.609 L
241.622 56.811 L
242.6 57.028 L
243.588 57.26 L
244.586 57.506 L
245.594 57.766 L
246.606 58.037 L
247.62 58.318 L
248.631 58.607 L
249.637 58.903 L
250.639 59.204 L
251.638 59.508 L
252.639 59.815 L
253.642 60.124 L
254.649 60.433 L
255.657 60.742 L
256.664 61.05 L
257.666 61.357 L
258.662 61.663 L
259.65 61.966 L
260.635 62.266 L
261.62 62.562 L
262.608 62.85 L
263.599 63.131 L
264.594 63.403 L
265.589 63.664 L
266.58 63.914 L
267.564 64.152 L
268.541 64.378 L
269.512 64.591 L
270.478 64.792 L
271.444 64.98 L
272.409 65.155 L
273.375 65.318 L
274.339 65.467 L
275.3 65.602 L
276.255 65.723 L
277.204 65.829 L
278.147 65.919 L
279.087 65.993 L
280.025 66.05 L
280.966 66.09 L
281.91 66.114 L
282.857 66.122 L
283.807 66.116 L
284.758 66.095 L
285.707 66.061 L
286.654 66.014 L
287.6 65.953 L
288.546 65.88 L
289.493 65.795 L
290.444 65.697 L
291.399 65.586 L
292.357 65.464 L
293.317 65.33 L
294.277 65.185 L
295.234 65.029 L
296.189 64.864 L
297.142 64.69 L
298.095 64.51 L
299.051 64.323 L
300.011 64.131 L
300.976 63.935 L
301.945 63.736 L
302.916 63.533 L
303.887 63.326 L
304.857 63.118 L
305.826 62.907 L
306.795 62.695 L
307.766 62.482 L
308.741 62.269 L
309.72 62.057 L
310.702 61.847 L
311.687 61.64 L
312.67 61.437 L
313.651 61.239 L
314.628 61.046 L
315.603 60.86 L
316.577 60.68 L
317.551 60.507 L
318.527 60.341 L
319.504 60.181 L
320.483 60.029 L
321.461 59.884 L
322.437 59.747 L
323.41 59.619 L
324.381 59.5 L
325.35 59.391 L
326.319 59.293 L
327.289 59.204 L
328.261 59.127 L
329.235 59.061 L
330.209 59.005 L
331.183 58.961 L
332.154 58.926 L
333.123 58.902 L
334.089 58.887 L
335.052 58.882 L
336.016 58.887 L
336.98 58.901 L
337.945 58.924 L
338.91 58.958 L
339.876 59.001 L
340.841 59.053 L
341.803 59.115 L
342.762 59.186 L
343.72 59.267 L
344.675 59.362 L
345.623 59.473 L
346.553 59.605 L
347.448 59.762 L
348.287 59.947 L
349.055 60.164 L
349.746 60.417 L
350.358 60.708 L
350.899 61.04 L
351.37 61.414 L
351.768 61.831 L
352.078 62.289 L
352.284 62.786 L
352.369 63.32 L
352.332 63.891 L
352.184 64.497 L
351.95 65.142 L
351.658 65.829 L
351.328 66.562 L
350.971 67.342 L
350.585 68.17 L
350.162 69.048 L
349.697 69.972 L
349.192 70.942 L
348.662 71.954 L
348.126 73.007 L
347.602 74.098 L
347.103 75.225 L
346.627 76.385 L
346.166 77.576 L
345.705 78.798 L
345.236 80.051 L
344.758 81.334 L
344.276 82.649 L
343.802 83.995 L
343.348 85.371 L
342.924 86.776 L
342.533 88.205 L
342.178 89.655 L
341.857 91.122 L
341.57 92.604 L
341.32 94.096 L
341.11 95.597 L
340.945 97.105 L
340.829 98.616 L
340.767 100.13 L
340.761 101.644 L
340.812 103.159 L
340.916 104.674 L
341.068 106.189 L
341.257 107.703 L
341.473 109.213 L
341.703 110.716 L
341.942 112.209 L
342.187 113.688 L
342.44 115.148 L
342.705 116.588 L
342.982 118.006 L
343.269 119.401 L
343.559 120.774 L
343.839 122.125 L
344.104 123.452 L
344.348 124.758 L
344.577 126.04 L
344.799 127.298 L
345.024 128.532 L
345.257 129.741 L
345.496 130.922 L
345.735 132.074 L
345.962 133.195 L
346.165 134.283 L
346.341 135.338 L
346.488 136.36 L
346.613 137.35 L
346.721 138.311 L
346.815 139.243 L
346.895 140.148 L
346.954 141.027 L
346.984 141.88 L
346.981 142.708 L
346.942 143.511 L
346.871 144.289 L
346.775 145.042 L
346.663 145.771 L
346.542 146.475 L
346.417 147.155 L
346.29 147.811 L
346.16 148.446 L
346.026 149.06 L
345.887 149.658 L
345.743 150.241 L
345.598 150.812 L
345.454 151.374 L
345.314 151.926 L
345.183 152.471 L
345.061 153.007 L
344.949 153.537 L
344.843 154.059 L
344.741 154.576 L
344.638 155.088 L
344.532 155.597 L
344.423 156.104 L
344.317 156.612 L
344.217 157.123 L
344.131 157.638 L
344.061 158.161 L
344.008 158.693 L
343.969 159.236 L
343.94 159.791 L
343.919 160.356 L
343.903 160.934 L
343.896 161.523 L
343.901 162.124 L
343.925 162.737 L
343.968 163.364 L
344.03 164.006 L
344.105 164.664 L
344.187 165.34 L
344.267 166.035 L
344.343 166.749 L
344.415 167.483 L
S
GR
%%Trailer
%%Pages: 1
%%EOF
