%!PS-Adobe-3.0 EPSF-3.0
%%Creator: (MATLAB, The Mathworks, Inc. Version 9.10.0.1669831 \(R2021a\) Update 2. Operating System: Windows 10)
%%Title: C:/Users/becka/Documents/Me_dokumenty/CVUT_FEjL/DIPLOMKA_V2/matlab/simple_experiments/ILC_experiments/ILC_1st_10-14s.eps
%%CreationDate: 2021-08-12T22:36:07
%%Pages: (atend)
%%BoundingBox:     0     0   420   315
%%LanguageLevel: 3
%%EndComments
%%BeginProlog
%%BeginResource: procset (Apache XML Graphics Std ProcSet) 1.2 0
%%Version: 1.2 0
%%Copyright: (Copyright 2001-2003,2010 The Apache Software Foundation. License terms: http://www.apache.org/licenses/LICENSE-2.0)
/bd{bind def}bind def
/ld{load def}bd
/GR/grestore ld
/GS/gsave ld
/RM/rmoveto ld
/C/curveto ld
/t/show ld
/L/lineto ld
/ML/setmiterlimit ld
/CT/concat ld
/f/fill ld
/N/newpath ld
/S/stroke ld
/CC/setcmykcolor ld
/A/ashow ld
/cp/closepath ld
/RC/setrgbcolor ld
/LJ/setlinejoin ld
/GC/setgray ld
/LW/setlinewidth ld
/M/moveto ld
/re {4 2 roll M
1 index 0 rlineto
0 exch rlineto
neg 0 rlineto
cp } bd
/_ctm matrix def
/_tm matrix def
/BT { _ctm currentmatrix pop matrix _tm copy pop 0 0 moveto } bd
/ET { _ctm setmatrix } bd
/iTm { _ctm setmatrix _tm concat } bd
/Tm { _tm astore pop iTm 0 0 moveto } bd
/ux 0.0 def
/uy 0.0 def
/F {
  /Tp exch def
  /Tf exch def
  Tf findfont Tp scalefont setfont
  /cf Tf def  /cs Tp def
} bd
/ULS {currentpoint /uy exch def /ux exch def} bd
/ULE {
  /Tcx currentpoint pop def
  gsave
  newpath
  cf findfont cs scalefont dup
  /FontMatrix get 0 get /Ts exch def /FontInfo get dup
  /UnderlinePosition get Ts mul /To exch def
  /UnderlineThickness get Ts mul /Tt exch def
  ux uy To add moveto  Tcx uy To add lineto
  Tt setlinewidth stroke
  grestore
} bd
/OLE {
  /Tcx currentpoint pop def
  gsave
  newpath
  cf findfont cs scalefont dup
  /FontMatrix get 0 get /Ts exch def /FontInfo get dup
  /UnderlinePosition get Ts mul /To exch def
  /UnderlineThickness get Ts mul /Tt exch def
  ux uy To add cs add moveto Tcx uy To add cs add lineto
  Tt setlinewidth stroke
  grestore
} bd
/SOE {
  /Tcx currentpoint pop def
  gsave
  newpath
  cf findfont cs scalefont dup
  /FontMatrix get 0 get /Ts exch def /FontInfo get dup
  /UnderlinePosition get Ts mul /To exch def
  /UnderlineThickness get Ts mul /Tt exch def
  ux uy To add cs 10 mul 26 idiv add moveto Tcx uy To add cs 10 mul 26 idiv add lineto
  Tt setlinewidth stroke
  grestore
} bd
/QT {
/Y22 exch store
/X22 exch store
/Y21 exch store
/X21 exch store
currentpoint
/Y21 load 2 mul add 3 div exch
/X21 load 2 mul add 3 div exch
/X21 load 2 mul /X22 load add 3 div
/Y21 load 2 mul /Y22 load add 3 div
/X22 load /Y22 load curveto
} bd
/SSPD {
dup length /d exch dict def
{
/v exch def
/k exch def
currentpagedevice k known {
/cpdv currentpagedevice k get def
v cpdv ne {
/upd false def
/nullv v type /nulltype eq def
/nullcpdv cpdv type /nulltype eq def
nullv nullcpdv or
{
/upd true def
} {
/sametype v type cpdv type eq def
sametype {
v type /arraytype eq {
/vlen v length def
/cpdvlen cpdv length def
vlen cpdvlen eq {
0 1 vlen 1 sub {
/i exch def
/obj v i get def
/cpdobj cpdv i get def
obj cpdobj ne {
/upd true def
exit
} if
} for
} {
/upd true def
} ifelse
} {
v type /dicttype eq {
v {
/dv exch def
/dk exch def
/cpddv cpdv dk get def
dv cpddv ne {
/upd true def
exit
} if
} forall
} {
/upd true def
} ifelse
} ifelse
} if
} ifelse
upd true eq {
d k v put
} if
} if
} if
} forall
d length 0 gt {
d setpagedevice
} if
} bd
/RE { % /NewFontName [NewEncodingArray] /FontName RE -
  findfont dup length dict begin
  {
    1 index /FID ne
    {def} {pop pop} ifelse
  } forall
  /Encoding exch def
  /FontName 1 index def
  currentdict definefont pop
  end
} bind def
%%EndResource
%%BeginResource: procset (Apache XML Graphics EPS ProcSet) 1.0 0
%%Version: 1.0 0
%%Copyright: (Copyright 2002-2003 The Apache Software Foundation. License terms: http://www.apache.org/licenses/LICENSE-2.0)
/BeginEPSF { %def
/b4_Inc_state save def         % Save state for cleanup
/dict_count countdictstack def % Count objects on dict stack
/op_count count 1 sub def      % Count objects on operand stack
userdict begin                 % Push userdict on dict stack
/showpage { } def              % Redefine showpage, { } = null proc
0 setgray 0 setlinecap         % Prepare graphics state
1 setlinewidth 0 setlinejoin
10 setmiterlimit [ ] 0 setdash newpath
/languagelevel where           % If level not equal to 1 then
{pop languagelevel             % set strokeadjust and
1 ne                           % overprint to their defaults.
{false setstrokeadjust false setoverprint
} if
} if
} bd
/EndEPSF { %def
count op_count sub {pop} repeat            % Clean up stacks
countdictstack dict_count sub {end} repeat
b4_Inc_state restore
} bd
%%EndResource
%FOPBeginFontDict
%%IncludeResource: font Courier-Oblique
%%IncludeResource: font Courier-BoldOblique
%%IncludeResource: font Courier-Bold
%%IncludeResource: font ZapfDingbats
%%IncludeResource: font Symbol
%%IncludeResource: font Helvetica
%%IncludeResource: font Helvetica-Oblique
%%IncludeResource: font Helvetica-Bold
%%IncludeResource: font Helvetica-BoldOblique
%%IncludeResource: font Times-Roman
%%IncludeResource: font Times-Italic
%%IncludeResource: font Times-Bold
%%IncludeResource: font Times-BoldItalic
%%IncludeResource: font Courier
%FOPEndFontDict
%%BeginResource: encoding WinAnsiEncoding
/WinAnsiEncoding [
/.notdef /.notdef /.notdef /.notdef /.notdef
/.notdef /.notdef /.notdef /.notdef /.notdef
/.notdef /.notdef /.notdef /.notdef /.notdef
/.notdef /.notdef /.notdef /.notdef /.notdef
/.notdef /.notdef /.notdef /.notdef /.notdef
/.notdef /.notdef /.notdef /.notdef /.notdef
/.notdef /.notdef /space /exclam /quotedbl
/numbersign /dollar /percent /ampersand /quotesingle
/parenleft /parenright /asterisk /plus /comma
/hyphen /period /slash /zero /one
/two /three /four /five /six
/seven /eight /nine /colon /semicolon
/less /equal /greater /question /at
/A /B /C /D /E
/F /G /H /I /J
/K /L /M /N /O
/P /Q /R /S /T
/U /V /W /X /Y
/Z /bracketleft /backslash /bracketright /asciicircum
/underscore /quoteleft /a /b /c
/d /e /f /g /h
/i /j /k /l /m
/n /o /p /q /r
/s /t /u /v /w
/x /y /z /braceleft /bar
/braceright /asciitilde /bullet /Euro /bullet
/quotesinglbase /florin /quotedblbase /ellipsis /dagger
/daggerdbl /circumflex /perthousand /Scaron /guilsinglleft
/OE /bullet /Zcaron /bullet /bullet
/quoteleft /quoteright /quotedblleft /quotedblright /bullet
/endash /emdash /asciitilde /trademark /scaron
/guilsinglright /oe /bullet /zcaron /Ydieresis
/space /exclamdown /cent /sterling /currency
/yen /brokenbar /section /dieresis /copyright
/ordfeminine /guillemotleft /logicalnot /sfthyphen /registered
/macron /degree /plusminus /twosuperior /threesuperior
/acute /mu /paragraph /middot /cedilla
/onesuperior /ordmasculine /guillemotright /onequarter /onehalf
/threequarters /questiondown /Agrave /Aacute /Acircumflex
/Atilde /Adieresis /Aring /AE /Ccedilla
/Egrave /Eacute /Ecircumflex /Edieresis /Igrave
/Iacute /Icircumflex /Idieresis /Eth /Ntilde
/Ograve /Oacute /Ocircumflex /Otilde /Odieresis
/multiply /Oslash /Ugrave /Uacute /Ucircumflex
/Udieresis /Yacute /Thorn /germandbls /agrave
/aacute /acircumflex /atilde /adieresis /aring
/ae /ccedilla /egrave /eacute /ecircumflex
/edieresis /igrave /iacute /icircumflex /idieresis
/eth /ntilde /ograve /oacute /ocircumflex
/otilde /odieresis /divide /oslash /ugrave
/uacute /ucircumflex /udieresis /yacute /thorn
/ydieresis
] def
%%EndResource
%FOPBeginFontReencode
/Courier-Oblique findfont
dup length dict begin
  {1 index /FID ne {def} {pop pop} ifelse} forall
  /Encoding WinAnsiEncoding def
  currentdict
end
/Courier-Oblique exch definefont pop
/Courier-BoldOblique findfont
dup length dict begin
  {1 index /FID ne {def} {pop pop} ifelse} forall
  /Encoding WinAnsiEncoding def
  currentdict
end
/Courier-BoldOblique exch definefont pop
/Courier-Bold findfont
dup length dict begin
  {1 index /FID ne {def} {pop pop} ifelse} forall
  /Encoding WinAnsiEncoding def
  currentdict
end
/Courier-Bold exch definefont pop
/Helvetica findfont
dup length dict begin
  {1 index /FID ne {def} {pop pop} ifelse} forall
  /Encoding WinAnsiEncoding def
  currentdict
end
/Helvetica exch definefont pop
/Helvetica-Oblique findfont
dup length dict begin
  {1 index /FID ne {def} {pop pop} ifelse} forall
  /Encoding WinAnsiEncoding def
  currentdict
end
/Helvetica-Oblique exch definefont pop
/Helvetica-Bold findfont
dup length dict begin
  {1 index /FID ne {def} {pop pop} ifelse} forall
  /Encoding WinAnsiEncoding def
  currentdict
end
/Helvetica-Bold exch definefont pop
/Helvetica-BoldOblique findfont
dup length dict begin
  {1 index /FID ne {def} {pop pop} ifelse} forall
  /Encoding WinAnsiEncoding def
  currentdict
end
/Helvetica-BoldOblique exch definefont pop
/Times-Roman findfont
dup length dict begin
  {1 index /FID ne {def} {pop pop} ifelse} forall
  /Encoding WinAnsiEncoding def
  currentdict
end
/Times-Roman exch definefont pop
/Times-Italic findfont
dup length dict begin
  {1 index /FID ne {def} {pop pop} ifelse} forall
  /Encoding WinAnsiEncoding def
  currentdict
end
/Times-Italic exch definefont pop
/Times-Bold findfont
dup length dict begin
  {1 index /FID ne {def} {pop pop} ifelse} forall
  /Encoding WinAnsiEncoding def
  currentdict
end
/Times-Bold exch definefont pop
/Times-BoldItalic findfont
dup length dict begin
  {1 index /FID ne {def} {pop pop} ifelse} forall
  /Encoding WinAnsiEncoding def
  currentdict
end
/Times-BoldItalic exch definefont pop
/Courier findfont
dup length dict begin
  {1 index /FID ne {def} {pop pop} ifelse} forall
  /Encoding WinAnsiEncoding def
  currentdict
end
/Courier exch definefont pop
%FOPEndFontReencode
%%EndProlog
%%Page: 1 1
%%PageBoundingBox: 0 0 420 315
%%BeginPageSetup
[1 0 0 -1 0 315] CT
%%EndPageSetup
GS
[0.75 0 0 0.75 0 0] CT
1 GC
N
0 0 560 420 re
f
GR
GS
[0.75 0 0 0.75 0 0] CT
1 GC
N
0 0 560 420 re
f
GR
GS
[0.75 0 0 0.75 0 0] CT
1 GC
N
73 366 M
507 366 L
507 31 L
73 31 L
cp
f
GR
GS
[0.75 0 0 0.75 0 0] CT
0.149 GC
2 setlinecap
1 LJ
0.667 LW
N
73 366 M
507 366 L
S
GR
GS
[0.75 0 0 0.75 0 0] CT
0.149 GC
2 setlinecap
1 LJ
0.667 LW
N
73 31 M
507 31 L
S
GR
GS
[0.75 0 0 0.75 0 0] CT
0.149 GC
2 setlinecap
1 LJ
0.667 LW
N
73.289 366 M
73.289 361.66 L
S
GR
GS
[0.75 0 0 0.75 0 0] CT
0.149 GC
2 setlinecap
1 LJ
0.667 LW
N
217.859 366 M
217.859 361.66 L
S
GR
GS
[0.75 0 0 0.75 0 0] CT
0.149 GC
2 setlinecap
1 LJ
0.667 LW
N
362.43 366 M
362.43 361.66 L
S
GR
GS
[0.75 0 0 0.75 0 0] CT
0.149 GC
2 setlinecap
1 LJ
0.667 LW
N
507 366 M
507 361.66 L
S
GR
GS
[0.75 0 0 0.75 0 0] CT
0.149 GC
2 setlinecap
1 LJ
0.667 LW
N
73.289 31 M
73.289 35.34 L
S
GR
GS
[0.75 0 0 0.75 0 0] CT
0.149 GC
2 setlinecap
1 LJ
0.667 LW
N
217.859 31 M
217.859 35.34 L
S
GR
GS
[0.75 0 0 0.75 0 0] CT
0.149 GC
2 setlinecap
1 LJ
0.667 LW
N
362.43 31 M
362.43 35.34 L
S
GR
GS
[0.75 0 0 0.75 0 0] CT
0.149 GC
2 setlinecap
1 LJ
0.667 LW
N
507 31 M
507 35.34 L
S
GR
GS
[0.75 0 0 0.75 54.96685 279.3] CT
0.149 GC
/Times-Roman 18.667 F
GS
[1 0 0 1 0 0] CT
-9.5 18 moveto 
1 -1 scale
(14) t 
GR
GR
GS
[0.75 0 0 0.75 163.39457 279.3] CT
0.149 GC
/Times-Roman 18.667 F
GS
[1 0 0 1 0 0] CT
-16.5 18 moveto 
1 -1 scale
(14.5) t 
GR
GR
GS
[0.75 0 0 0.75 271.82229 279.3] CT
0.149 GC
/Times-Roman 18.667 F
GS
[1 0 0 1 0 0] CT
-9.5 18 moveto 
1 -1 scale
(15) t 
GR
GR
GS
[0.75 0 0 0.75 380.25 279.3] CT
0.149 GC
/Times-Roman 18.667 F
GS
[1 0 0 1 0 0] CT
-16.5 18 moveto 
1 -1 scale
(15.5) t 
GR
GR
GS
[0.75 0 0 0.75 217.50007 297] CT
0.149 GC
/Times-Roman 20.533 F
GS
[1 0 0 1 0 0] CT
-32 19 moveto 
1 -1 scale
(time [s]) t 
GR
GR
GS
[0.75 0 0 0.75 0 0] CT
0.149 GC
2 setlinecap
1 LJ
0.667 LW
N
73 366 M
73 31 L
S
GR
GS
[0.75 0 0 0.75 0 0] CT
0.149 GC
2 setlinecap
1 LJ
0.667 LW
N
507 366 M
507 31 L
S
GR
GS
[0.75 0 0 0.75 0 0] CT
0.149 GC
2 setlinecap
1 LJ
0.667 LW
N
73 338.083 M
77.34 338.083 L
S
GR
GS
[0.75 0 0 0.75 0 0] CT
0.149 GC
2 setlinecap
1 LJ
0.667 LW
N
73 282.25 M
77.34 282.25 L
S
GR
GS
[0.75 0 0 0.75 0 0] CT
0.149 GC
2 setlinecap
1 LJ
0.667 LW
N
73 226.417 M
77.34 226.417 L
S
GR
GS
[0.75 0 0 0.75 0 0] CT
0.149 GC
2 setlinecap
1 LJ
0.667 LW
N
73 170.583 M
77.34 170.583 L
S
GR
GS
[0.75 0 0 0.75 0 0] CT
0.149 GC
2 setlinecap
1 LJ
0.667 LW
N
73 114.75 M
77.34 114.75 L
S
GR
GS
[0.75 0 0 0.75 0 0] CT
0.149 GC
2 setlinecap
1 LJ
0.667 LW
N
73 58.917 M
77.34 58.917 L
S
GR
GS
[0.75 0 0 0.75 0 0] CT
0.149 GC
2 setlinecap
1 LJ
0.667 LW
N
507 338.083 M
502.66 338.083 L
S
GR
GS
[0.75 0 0 0.75 0 0] CT
0.149 GC
2 setlinecap
1 LJ
0.667 LW
N
507 282.25 M
502.66 282.25 L
S
GR
GS
[0.75 0 0 0.75 0 0] CT
0.149 GC
2 setlinecap
1 LJ
0.667 LW
N
507 226.417 M
502.66 226.417 L
S
GR
GS
[0.75 0 0 0.75 0 0] CT
0.149 GC
2 setlinecap
1 LJ
0.667 LW
N
507 170.583 M
502.66 170.583 L
S
GR
GS
[0.75 0 0 0.75 0 0] CT
0.149 GC
2 setlinecap
1 LJ
0.667 LW
N
507 114.75 M
502.66 114.75 L
S
GR
GS
[0.75 0 0 0.75 0 0] CT
0.149 GC
2 setlinecap
1 LJ
0.667 LW
N
507 58.917 M
502.66 58.917 L
S
GR
GS
[0.75 0 0 0.75 49.94987 253.56251] CT
0.149 GC
/Times-Roman 18.667 F
GS
[1 0 0 1 0 0] CT
-25 7 moveto 
1 -1 scale
(-20) t 
GR
GR
GS
[0.75 0 0 0.75 49.94987 211.6875] CT
0.149 GC
/Times-Roman 18.667 F
GS
[1 0 0 1 0 0] CT
-10 7 moveto 
1 -1 scale
(0) t 
GR
GR
GS
[0.75 0 0 0.75 49.94987 169.8125] CT
0.149 GC
/Times-Roman 18.667 F
GS
[1 0 0 1 0 0] CT
-19 7 moveto 
1 -1 scale
(20) t 
GR
GR
GS
[0.75 0 0 0.75 49.94987 127.9375] CT
0.149 GC
/Times-Roman 18.667 F
GS
[1 0 0 1 0 0] CT
-19 7 moveto 
1 -1 scale
(40) t 
GR
GR
GS
[0.75 0 0 0.75 49.94987 86.0625] CT
0.149 GC
/Times-Roman 18.667 F
GS
[1 0 0 1 0 0] CT
-19 7 moveto 
1 -1 scale
(60) t 
GR
GR
GS
[0.75 0 0 0.75 49.94987 44.1875] CT
0.149 GC
/Times-Roman 18.667 F
GS
[1 0 0 1 0 0] CT
-19 7 moveto 
1 -1 scale
(80) t 
GR
GR
GS
[0 -0.75 0.75 0 28.19992 148.87489] CT
0.149 GC
/Times-Roman 20.533 F
GS
[1 0 0 1 0 0] CT
-54 -5 moveto 
1 -1 scale
(amplitude [-]) t 
GR
GR
GS
[0.75 0 0 0.75 0 0] CT
0 0.447 0.741 RC
1 LJ
1.333 LW
N
73 282.697 M
73.289 282.25 L
73.578 281.803 L
73.867 281.357 L
74.157 280.91 L
74.446 280.463 L
74.735 280.017 L
75.024 279.57 L
75.313 279.123 L
75.602 278.677 L
75.891 278.23 L
76.181 277.783 L
76.47 277.337 L
76.759 276.89 L
77.048 276.443 L
77.337 275.997 L
77.626 275.55 L
77.915 275.103 L
78.205 274.657 L
78.494 274.21 L
78.783 273.763 L
79.072 273.317 L
79.361 272.87 L
79.65 272.423 L
79.939 271.977 L
80.229 271.53 L
80.518 271.083 L
80.807 270.637 L
81.096 270.19 L
81.385 269.743 L
81.674 269.297 L
81.963 268.85 L
82.253 268.403 L
82.542 267.957 L
82.831 267.51 L
83.12 267.063 L
83.409 266.617 L
83.698 266.17 L
83.987 265.723 L
84.277 265.277 L
84.565 264.83 L
84.855 264.383 L
85.144 263.937 L
85.433 263.49 L
85.722 263.043 L
86.011 262.597 L
86.3 262.15 L
86.589 261.703 L
86.879 261.257 L
87.168 260.81 L
87.457 260.363 L
87.746 259.917 L
88.035 259.47 L
88.324 259.023 L
88.614 258.577 L
88.903 258.13 L
89.192 257.683 L
89.481 257.237 L
89.77 256.79 L
90.059 256.343 L
90.348 255.897 L
90.638 255.45 L
90.927 255.003 L
91.216 254.557 L
91.505 254.11 L
91.794 253.663 L
92.083 253.217 L
92.372 252.77 L
92.662 252.323 L
92.951 251.877 L
93.24 251.43 L
93.529 250.983 L
93.818 250.537 L
94.107 250.09 L
94.396 249.643 L
94.686 249.197 L
94.975 248.75 L
95.264 248.303 L
95.553 247.857 L
95.842 247.41 L
96.131 246.963 L
96.42 246.517 L
96.71 246.07 L
96.999 245.623 L
97.288 245.177 L
97.577 244.73 L
97.866 244.283 L
98.155 243.837 L
98.444 243.39 L
98.734 242.943 L
99.023 242.497 L
99.312 242.05 L
99.601 241.603 L
99.89 241.157 L
100.179 240.71 L
100.468 240.263 L
100.758 239.817 L
101.047 239.37 L
101.336 238.923 L
101.625 238.477 L
101.914 238.03 L
102.203 237.583 L
102.492 237.137 L
102.782 236.69 L
103.071 236.243 L
103.36 235.797 L
103.649 235.35 L
103.938 234.903 L
104.227 234.457 L
104.516 234.01 L
104.806 233.563 L
105.095 233.117 L
105.384 232.67 L
105.673 232.223 L
105.962 231.777 L
106.251 231.33 L
106.54 230.883 L
106.829 230.437 L
107.118 229.99 L
107.408 229.543 L
107.697 229.097 L
107.986 228.65 L
108.275 228.203 L
108.564 227.757 L
108.853 227.31 L
109.142 226.863 L
109.432 226.417 L
109.721 225.97 L
110.01 225.523 L
110.299 225.077 L
110.588 224.63 L
110.877 224.183 L
111.166 223.737 L
111.456 223.29 L
111.745 222.843 L
112.034 222.397 L
112.323 221.95 L
112.612 221.503 L
112.901 221.057 L
113.19 220.61 L
113.48 220.163 L
113.769 219.717 L
114.058 219.27 L
114.347 218.823 L
114.636 218.377 L
114.925 217.93 L
115.215 217.483 L
115.504 217.037 L
115.793 216.59 L
116.082 216.143 L
116.371 215.697 L
116.66 215.25 L
116.949 214.803 L
117.239 214.357 L
117.528 213.91 L
117.817 213.463 L
118.106 213.017 L
118.395 212.57 L
118.684 212.123 L
118.973 211.677 L
119.263 211.23 L
119.552 210.783 L
119.841 210.337 L
120.13 209.89 L
120.419 209.443 L
120.708 208.997 L
120.997 208.55 L
121.287 208.103 L
121.576 207.657 L
121.865 207.21 L
122.154 206.763 L
122.443 206.317 L
122.732 205.87 L
123.021 205.423 L
123.311 204.977 L
123.6 204.53 L
123.889 204.083 L
124.178 203.637 L
124.467 203.19 L
124.756 202.743 L
125.045 202.297 L
125.335 201.85 L
125.624 201.403 L
125.913 200.957 L
126.202 200.51 L
126.491 200.063 L
126.78 199.617 L
127.069 199.17 L
127.359 198.723 L
127.647 198.277 L
127.937 197.83 L
128.226 197.383 L
128.515 196.937 L
128.804 196.49 L
129.093 196.043 L
129.382 195.597 L
129.671 195.15 L
129.961 194.703 L
130.25 194.257 L
130.539 193.81 L
130.828 193.363 L
131.117 192.917 L
131.406 192.47 L
131.695 192.023 L
131.985 191.577 L
132.274 191.13 L
132.563 190.683 L
132.852 190.237 L
133.141 189.79 L
133.43 189.343 L
133.719 188.897 L
134.009 188.45 L
134.298 188.003 L
134.587 187.557 L
134.876 187.11 L
135.165 186.663 L
135.454 186.217 L
135.743 185.77 L
136.033 185.323 L
136.322 184.877 L
136.611 184.43 L
136.9 183.983 L
137.189 183.537 L
137.478 183.09 L
137.767 182.643 L
138.057 182.197 L
138.346 181.75 L
138.635 181.303 L
138.924 180.857 L
139.213 180.41 L
139.502 179.963 L
139.791 179.517 L
140.081 179.07 L
140.37 178.623 L
140.659 178.177 L
140.948 177.73 L
141.237 177.283 L
141.526 176.837 L
141.816 176.39 L
142.105 175.943 L
142.394 175.497 L
142.683 175.05 L
142.972 174.603 L
143.261 174.157 L
143.55 173.71 L
143.84 173.263 L
144.129 172.817 L
144.418 172.37 L
144.707 171.923 L
144.996 171.477 L
145.285 171.03 L
145.574 170.583 L
145.864 170.137 L
146.153 169.69 L
146.442 169.243 L
146.731 168.797 L
147.02 168.35 L
147.309 167.903 L
147.598 167.457 L
147.888 167.01 L
148.176 166.563 L
148.466 166.117 L
148.755 165.67 L
149.044 165.223 L
149.333 164.777 L
149.622 164.33 L
149.911 163.883 L
150.2 163.437 L
150.49 162.99 L
150.779 162.543 L
151.068 162.097 L
151.357 161.65 L
151.646 161.203 L
151.935 160.757 L
152.224 160.31 L
152.514 159.863 L
152.803 159.417 L
153.092 158.97 L
153.381 158.523 L
153.67 158.077 L
153.959 157.63 L
154.248 157.183 L
154.538 156.737 L
154.827 156.29 L
155.116 155.843 L
155.405 155.397 L
155.694 154.95 L
155.983 154.503 L
156.272 154.057 L
156.562 153.61 L
156.851 153.163 L
157.14 152.717 L
157.429 152.27 L
157.718 151.823 L
158.007 151.377 L
158.296 150.93 L
158.586 150.483 L
158.875 150.037 L
159.164 149.59 L
159.453 149.143 L
159.742 148.697 L
160.031 148.25 L
160.32 147.803 L
160.61 147.357 L
160.899 146.91 L
161.188 146.463 L
161.477 146.017 L
161.766 145.57 L
162.055 145.123 L
162.344 144.677 L
162.634 144.23 L
162.923 143.783 L
163.212 143.337 L
163.501 142.89 L
163.79 142.443 L
164.079 141.997 L
164.368 141.55 L
164.658 141.103 L
164.947 140.657 L
165.236 140.21 L
165.525 139.763 L
165.814 139.317 L
166.103 138.87 L
166.392 138.423 L
166.682 137.977 L
166.971 137.53 L
167.26 137.083 L
167.549 136.637 L
167.838 136.19 L
168.127 135.743 L
168.417 135.297 L
168.706 134.85 L
168.995 134.403 L
169.284 133.957 L
169.573 133.51 L
169.862 133.063 L
170.151 132.617 L
170.441 132.17 L
170.729 131.723 L
171.019 131.277 L
171.308 130.83 L
171.597 130.383 L
171.886 129.937 L
172.175 129.49 L
172.464 129.043 L
172.753 128.597 L
173.043 128.15 L
173.332 127.703 L
173.621 127.257 L
173.91 126.81 L
174.199 126.363 L
174.488 125.917 L
174.777 125.47 L
175.067 125.023 L
175.356 124.577 L
175.645 124.13 L
175.934 123.683 L
176.223 123.237 L
176.512 122.79 L
176.801 122.343 L
177.091 121.897 L
177.38 121.45 L
177.669 121.003 L
177.958 120.557 L
178.247 120.11 L
178.536 119.663 L
178.825 119.217 L
179.115 118.77 L
179.404 118.323 L
179.693 117.877 L
179.982 117.43 L
180.271 116.983 L
180.56 116.537 L
180.849 116.09 L
181.139 115.643 L
181.428 115.197 L
181.717 114.75 L
182.006 115.197 L
182.295 115.643 L
182.584 116.09 L
182.873 116.537 L
183.163 116.983 L
183.452 117.43 L
183.741 117.877 L
184.03 118.323 L
184.319 118.77 L
184.608 119.217 L
184.897 119.663 L
185.187 120.11 L
185.476 120.557 L
185.765 121.003 L
186.054 121.45 L
186.343 121.897 L
186.632 122.343 L
186.921 122.79 L
187.211 123.237 L
187.5 123.683 L
187.789 124.13 L
188.078 124.577 L
188.367 125.023 L
188.656 125.47 L
188.945 125.917 L
189.235 126.363 L
189.524 126.81 L
189.813 127.257 L
190.102 127.703 L
190.391 128.15 L
190.68 128.597 L
190.969 129.043 L
191.258 129.49 L
191.548 129.937 L
191.837 130.383 L
192.126 130.83 L
192.415 131.277 L
192.704 131.723 L
192.993 132.17 L
193.282 132.617 L
193.572 133.063 L
193.861 133.51 L
194.15 133.957 L
194.439 134.403 L
194.728 134.85 L
195.017 135.297 L
195.306 135.743 L
195.596 136.19 L
195.885 136.637 L
196.174 137.083 L
196.463 137.53 L
196.752 137.977 L
197.041 138.423 L
197.33 138.87 L
197.62 139.317 L
197.909 139.763 L
198.198 140.21 L
198.487 140.657 L
198.776 141.103 L
199.065 141.55 L
199.354 141.997 L
199.644 142.443 L
199.933 142.89 L
200.222 143.337 L
200.511 143.783 L
200.8 144.23 L
201.089 144.677 L
201.378 145.123 L
201.668 145.57 L
201.957 146.017 L
202.246 146.463 L
202.535 146.91 L
202.824 147.357 L
203.113 147.803 L
203.402 148.25 L
203.692 148.697 L
203.981 149.143 L
204.27 149.59 L
204.559 150.037 L
204.848 150.483 L
205.137 150.93 L
205.426 151.377 L
205.716 151.823 L
206.005 152.27 L
206.294 152.717 L
206.583 153.163 L
206.872 153.61 L
207.161 154.057 L
207.45 154.503 L
207.74 154.95 L
208.029 155.397 L
208.318 155.843 L
208.607 156.29 L
208.896 156.737 L
209.185 157.183 L
209.474 157.63 L
209.764 158.077 L
210.053 158.523 L
210.342 158.97 L
210.631 159.417 L
210.92 159.863 L
211.209 160.31 L
211.498 160.757 L
211.788 161.203 L
212.076 161.65 L
212.366 162.097 L
212.655 162.543 L
212.944 162.99 L
213.233 163.437 L
213.522 163.883 L
213.811 164.33 L
214.101 164.777 L
214.39 165.223 L
214.679 165.67 L
214.968 166.117 L
215.257 166.563 L
215.546 167.01 L
215.835 167.457 L
216.125 167.903 L
216.414 168.35 L
216.703 168.797 L
216.992 169.243 L
217.281 169.69 L
217.57 170.137 L
217.859 170.583 L
218.149 171.03 L
218.438 171.477 L
218.727 171.923 L
219.016 172.37 L
219.305 172.817 L
219.594 173.263 L
219.883 173.71 L
220.173 174.157 L
220.462 174.603 L
220.751 175.05 L
221.04 175.497 L
221.329 175.943 L
221.618 176.39 L
221.907 176.837 L
222.197 177.283 L
222.486 177.73 L
222.775 178.177 L
223.064 178.623 L
223.353 179.07 L
223.642 179.517 L
223.931 179.963 L
224.221 180.41 L
224.51 180.857 L
224.799 181.303 L
225.088 181.75 L
225.377 182.197 L
225.666 182.643 L
225.955 183.09 L
226.245 183.537 L
226.534 183.983 L
226.823 184.43 L
227.112 184.877 L
227.401 185.323 L
227.69 185.77 L
227.979 186.217 L
228.269 186.663 L
228.558 187.11 L
228.847 187.557 L
229.136 188.003 L
229.425 188.45 L
229.714 188.897 L
230.003 189.343 L
230.293 189.79 L
230.582 190.237 L
230.871 190.683 L
231.16 191.13 L
231.449 191.577 L
231.738 192.023 L
232.027 192.47 L
232.317 192.917 L
232.605 193.363 L
232.895 193.81 L
233.184 194.257 L
233.473 194.703 L
233.762 195.15 L
234.051 195.597 L
234.34 196.043 L
234.629 196.49 L
234.919 196.937 L
235.208 197.383 L
235.497 197.83 L
235.786 198.277 L
236.075 198.723 L
236.364 199.17 L
236.653 199.617 L
236.943 200.063 L
237.232 200.51 L
237.521 200.957 L
237.81 201.403 L
238.099 201.85 L
238.388 202.297 L
238.677 202.743 L
238.967 203.19 L
239.256 203.637 L
239.545 204.083 L
239.834 204.53 L
240.123 204.977 L
240.412 205.423 L
240.702 205.87 L
240.991 206.317 L
241.28 206.763 L
241.569 207.21 L
241.858 207.657 L
242.147 208.103 L
242.436 208.55 L
242.726 208.997 L
243.015 209.443 L
243.304 209.89 L
243.593 210.337 L
243.882 210.783 L
244.171 211.23 L
244.46 211.677 L
244.75 212.123 L
245.039 212.57 L
245.328 213.017 L
245.617 213.463 L
245.906 213.91 L
246.195 214.357 L
246.484 214.803 L
246.774 215.25 L
247.063 215.697 L
247.352 216.143 L
247.641 216.59 L
247.93 217.037 L
248.219 217.483 L
248.508 217.93 L
248.798 218.377 L
249.087 218.823 L
249.376 219.27 L
249.665 219.717 L
249.954 220.163 L
250.243 220.61 L
250.532 221.057 L
250.822 221.503 L
251.111 221.95 L
251.4 222.397 L
251.689 222.843 L
251.978 223.29 L
252.267 223.737 L
252.556 224.183 L
252.846 224.63 L
253.135 225.077 L
253.424 225.523 L
253.713 225.97 L
254.002 226.417 L
254.291 226.863 L
254.58 227.31 L
254.869 227.757 L
255.158 228.203 L
255.448 228.65 L
255.737 229.097 L
256.026 229.543 L
256.315 229.99 L
256.604 230.437 L
256.893 230.883 L
257.182 231.33 L
257.472 231.777 L
257.761 232.223 L
258.05 232.67 L
258.339 233.117 L
258.628 233.563 L
258.917 234.01 L
259.206 234.457 L
259.496 234.903 L
259.785 235.35 L
260.074 235.797 L
260.363 236.243 L
260.652 236.69 L
260.941 237.137 L
261.23 237.583 L
261.52 238.03 L
261.809 238.477 L
262.098 238.923 L
262.387 239.37 L
262.676 239.817 L
262.965 240.263 L
263.254 240.71 L
263.544 241.157 L
263.833 241.603 L
264.122 242.05 L
264.411 242.497 L
264.7 242.943 L
264.989 243.39 L
265.278 243.837 L
265.568 244.283 L
265.857 244.73 L
266.146 245.177 L
266.435 245.623 L
266.724 246.07 L
267.013 246.517 L
267.302 246.963 L
267.592 247.41 L
267.881 247.857 L
268.17 248.303 L
268.459 248.75 L
268.748 249.197 L
269.037 249.643 L
269.327 250.09 L
269.616 250.537 L
269.905 250.983 L
270.194 251.43 L
270.483 251.877 L
270.772 252.323 L
271.061 252.77 L
271.351 253.217 L
271.64 253.663 L
271.929 254.11 L
272.218 254.557 L
272.507 255.003 L
272.796 255.45 L
273.085 255.897 L
273.375 256.343 L
273.664 256.79 L
273.953 257.237 L
274.242 257.683 L
274.531 258.13 L
274.82 258.577 L
275.109 259.023 L
275.398 259.47 L
275.688 259.917 L
275.977 260.363 L
276.266 260.81 L
276.555 261.257 L
276.844 261.703 L
277.133 262.15 L
277.422 262.597 L
277.711 263.043 L
278.001 263.49 L
278.29 263.937 L
278.579 264.383 L
278.868 264.83 L
279.157 265.277 L
279.446 265.723 L
279.735 266.17 L
280.025 266.617 L
280.314 267.063 L
280.603 267.51 L
280.892 267.957 L
281.181 268.403 L
281.47 268.85 L
281.759 269.297 L
282.049 269.743 L
282.338 270.19 L
282.627 270.637 L
282.916 271.083 L
283.205 271.53 L
283.494 271.977 L
283.783 272.423 L
284.073 272.87 L
284.362 273.317 L
284.651 273.763 L
284.94 274.21 L
285.229 274.657 L
285.518 275.103 L
285.807 275.55 L
286.097 275.997 L
286.386 276.443 L
286.675 276.89 L
286.964 277.337 L
287.253 277.783 L
287.542 278.23 L
287.831 278.677 L
288.121 279.123 L
288.41 279.57 L
288.699 280.017 L
288.988 280.463 L
289.277 280.91 L
289.566 281.357 L
289.855 281.803 L
290.145 282.25 L
290.434 282.697 L
290.723 283.143 L
291.012 283.59 L
291.301 284.037 L
291.59 284.483 L
291.879 284.93 L
292.169 285.377 L
292.458 285.823 L
292.747 286.27 L
293.036 286.717 L
293.325 287.163 L
293.614 287.61 L
293.903 288.057 L
294.193 288.503 L
294.482 288.95 L
294.771 289.397 L
295.06 289.843 L
295.349 290.29 L
295.638 290.737 L
295.928 291.183 L
296.216 291.63 L
296.506 292.077 L
296.795 292.523 L
297.084 292.97 L
297.373 293.417 L
297.662 293.863 L
297.951 294.31 L
298.24 294.757 L
298.53 295.203 L
298.819 295.65 L
299.108 296.097 L
299.397 296.543 L
299.686 296.99 L
299.975 297.437 L
300.264 297.883 L
300.554 298.33 L
300.843 298.777 L
301.132 299.223 L
301.421 299.67 L
301.71 300.117 L
301.999 300.563 L
302.288 301.01 L
302.578 301.457 L
302.867 301.903 L
303.156 302.35 L
303.445 302.797 L
303.734 303.243 L
304.023 303.69 L
304.312 304.137 L
304.602 304.583 L
304.891 305.03 L
305.18 305.477 L
305.469 305.923 L
305.758 306.37 L
306.047 306.817 L
306.336 307.263 L
306.626 307.71 L
306.915 308.157 L
307.204 308.603 L
307.493 309.05 L
307.782 309.497 L
308.071 309.943 L
308.36 310.39 L
308.65 310.837 L
308.939 311.283 L
309.228 311.73 L
309.517 312.177 L
309.806 312.623 L
310.095 313.07 L
310.384 313.517 L
310.674 313.963 L
310.963 314.41 L
311.252 314.857 L
311.541 315.303 L
311.83 315.75 L
312.119 316.197 L
312.408 316.643 L
312.698 317.09 L
312.987 317.537 L
313.276 317.983 L
313.565 318.43 L
313.854 318.877 L
314.143 319.323 L
314.432 319.77 L
314.722 320.217 L
315.011 320.663 L
315.3 321.11 L
315.589 321.557 L
315.878 322.003 L
316.167 322.45 L
316.456 322.897 L
316.746 323.343 L
317.035 323.79 L
317.324 324.237 L
317.613 324.683 L
317.902 325.13 L
318.191 325.577 L
318.48 326.023 L
318.769 326.47 L
319.059 326.917 L
319.348 327.363 L
319.637 327.81 L
319.926 328.257 L
320.215 328.703 L
320.504 329.15 L
320.793 329.597 L
321.083 330.043 L
321.372 330.49 L
321.661 330.937 L
321.95 331.383 L
322.239 331.83 L
322.528 332.277 L
322.817 332.723 L
323.107 333.17 L
323.396 333.617 L
323.685 334.063 L
323.974 334.51 L
324.263 334.957 L
324.552 335.403 L
324.841 335.85 L
325.131 336.297 L
325.42 336.743 L
325.709 337.19 L
325.998 337.637 L
326.287 338.083 L
326.576 337.637 L
326.865 337.19 L
327.155 336.743 L
327.444 336.297 L
327.733 335.85 L
328.022 335.403 L
328.311 334.957 L
328.6 334.51 L
328.889 334.063 L
329.179 333.617 L
329.468 333.17 L
329.757 332.723 L
330.046 332.277 L
330.335 331.83 L
330.624 331.383 L
330.913 330.937 L
331.203 330.49 L
331.492 330.043 L
331.781 329.597 L
332.07 329.15 L
332.359 328.703 L
332.648 328.257 L
332.937 327.81 L
333.227 327.363 L
333.516 326.917 L
333.805 326.47 L
334.094 326.023 L
334.383 325.577 L
334.672 325.13 L
334.961 324.683 L
335.251 324.237 L
335.54 323.79 L
335.829 323.343 L
336.118 322.897 L
336.407 322.45 L
336.696 322.003 L
336.985 321.557 L
337.275 321.11 L
337.564 320.663 L
337.853 320.217 L
338.142 319.77 L
338.431 319.323 L
338.72 318.877 L
339.009 318.43 L
339.298 317.983 L
339.587 317.537 L
339.877 317.09 L
340.166 316.643 L
340.455 316.197 L
340.744 315.75 L
341.033 315.303 L
341.322 314.857 L
341.612 314.41 L
341.901 313.963 L
342.19 313.517 L
342.479 313.07 L
342.768 312.623 L
343.057 312.177 L
343.346 311.73 L
343.636 311.283 L
343.925 310.837 L
344.214 310.39 L
344.503 309.943 L
344.792 309.497 L
345.081 309.05 L
345.37 308.603 L
345.66 308.157 L
345.949 307.71 L
346.238 307.263 L
346.527 306.817 L
346.816 306.37 L
347.105 305.923 L
347.394 305.477 L
347.684 305.03 L
347.973 304.583 L
348.262 304.137 L
348.551 303.69 L
348.84 303.243 L
349.129 302.797 L
349.418 302.35 L
349.708 301.903 L
349.997 301.457 L
350.286 301.01 L
350.575 300.563 L
350.864 300.117 L
351.153 299.67 L
351.442 299.223 L
351.732 298.777 L
352.021 298.33 L
352.31 297.883 L
352.599 297.437 L
352.888 296.99 L
353.177 296.543 L
353.466 296.097 L
353.756 295.65 L
354.045 295.203 L
354.334 294.757 L
354.623 294.31 L
354.912 293.863 L
355.201 293.417 L
355.49 292.97 L
355.78 292.523 L
356.069 292.077 L
356.358 291.63 L
356.647 291.183 L
356.936 290.737 L
357.225 290.29 L
357.514 289.843 L
357.804 289.397 L
358.092 288.95 L
358.382 288.503 L
358.671 288.057 L
358.96 287.61 L
359.249 287.163 L
359.538 286.717 L
359.827 286.27 L
360.116 285.823 L
360.406 285.377 L
360.695 284.93 L
360.984 284.483 L
361.273 284.037 L
361.562 283.59 L
361.851 283.143 L
362.14 282.697 L
362.43 282.25 L
362.719 281.803 L
363.008 281.357 L
363.297 280.91 L
363.586 280.463 L
363.875 280.017 L
364.164 279.57 L
364.454 279.123 L
364.743 278.677 L
365.032 278.23 L
365.321 277.783 L
365.61 277.337 L
365.899 276.89 L
366.188 276.443 L
366.478 275.997 L
366.767 275.55 L
367.056 275.103 L
367.345 274.657 L
367.634 274.21 L
367.923 273.763 L
368.213 273.317 L
368.502 272.87 L
368.791 272.423 L
369.08 271.977 L
369.369 271.53 L
369.658 271.083 L
369.947 270.637 L
370.237 270.19 L
370.526 269.743 L
370.815 269.297 L
371.104 268.85 L
371.393 268.403 L
371.682 267.957 L
371.971 267.51 L
372.261 267.063 L
372.55 266.617 L
372.839 266.17 L
373.128 265.723 L
373.417 265.277 L
373.706 264.83 L
373.995 264.383 L
374.285 263.937 L
374.574 263.49 L
374.863 263.043 L
375.152 262.597 L
375.441 262.15 L
375.73 261.703 L
376.019 261.257 L
376.309 260.81 L
376.598 260.363 L
376.887 259.917 L
377.176 259.47 L
377.465 259.023 L
377.754 258.577 L
378.043 258.13 L
378.333 257.683 L
378.622 257.237 L
378.911 256.79 L
379.2 256.343 L
379.489 255.897 L
379.778 255.45 L
380.067 255.003 L
380.357 254.557 L
380.645 254.11 L
380.935 253.663 L
381.224 253.217 L
381.513 252.77 L
381.802 252.323 L
382.091 251.877 L
382.38 251.43 L
382.669 250.983 L
382.959 250.537 L
383.248 250.09 L
383.537 249.643 L
383.826 249.197 L
384.115 248.75 L
384.404 248.303 L
384.693 247.857 L
384.983 247.41 L
385.272 246.963 L
385.561 246.517 L
385.85 246.07 L
386.139 245.623 L
386.428 245.177 L
386.717 244.73 L
387.007 244.283 L
387.296 243.837 L
387.585 243.39 L
387.874 242.943 L
388.163 242.497 L
388.452 242.05 L
388.741 241.603 L
389.031 241.157 L
389.32 240.71 L
389.609 240.263 L
389.898 239.817 L
390.187 239.37 L
390.476 238.923 L
390.765 238.477 L
391.055 238.03 L
391.344 237.583 L
391.633 237.137 L
391.922 236.69 L
392.211 236.243 L
392.5 235.797 L
392.789 235.35 L
393.079 234.903 L
393.368 234.457 L
393.657 234.01 L
393.946 233.563 L
394.235 233.117 L
394.524 232.67 L
394.814 232.223 L
395.103 231.777 L
395.392 231.33 L
395.681 230.883 L
395.97 230.437 L
396.259 229.99 L
396.548 229.543 L
396.838 229.097 L
397.127 228.65 L
397.416 228.203 L
397.705 227.757 L
397.994 227.31 L
398.283 226.863 L
398.572 226.417 L
398.862 225.97 L
399.151 225.523 L
399.44 225.077 L
399.729 224.63 L
400.018 224.183 L
400.307 223.737 L
400.596 223.29 L
400.886 222.843 L
401.174 222.397 L
401.464 221.95 L
401.753 221.503 L
402.042 221.057 L
402.331 220.61 L
402.62 220.163 L
402.909 219.717 L
403.198 219.27 L
403.488 218.823 L
403.777 218.377 L
404.066 217.93 L
404.355 217.483 L
404.644 217.037 L
404.933 216.59 L
405.222 216.143 L
405.512 215.697 L
405.801 215.25 L
406.09 214.803 L
406.379 214.357 L
406.668 213.91 L
406.957 213.463 L
407.246 213.017 L
407.536 212.57 L
407.825 212.123 L
408.114 211.677 L
408.403 211.23 L
408.692 210.783 L
408.981 210.337 L
409.27 209.89 L
409.56 209.443 L
409.849 208.997 L
410.138 208.55 L
410.427 208.103 L
410.716 207.657 L
411.005 207.21 L
411.294 206.763 L
411.584 206.317 L
411.873 205.87 L
412.162 205.423 L
412.451 204.977 L
412.74 204.53 L
413.029 204.083 L
413.318 203.637 L
413.608 203.19 L
413.897 202.743 L
414.186 202.297 L
414.475 201.85 L
414.764 201.403 L
415.053 200.957 L
415.342 200.51 L
415.632 200.063 L
415.921 199.617 L
416.21 199.17 L
416.499 198.723 L
416.788 198.277 L
417.077 197.83 L
417.366 197.383 L
417.656 196.937 L
417.945 196.49 L
418.234 196.043 L
418.523 195.597 L
418.812 195.15 L
419.101 194.703 L
419.39 194.257 L
419.68 193.81 L
419.969 193.363 L
420.258 192.917 L
420.547 192.47 L
420.836 192.023 L
421.125 191.577 L
421.415 191.13 L
421.704 190.683 L
421.993 190.237 L
422.282 189.79 L
422.571 189.343 L
422.86 188.897 L
423.149 188.45 L
423.439 188.003 L
423.727 187.557 L
424.017 187.11 L
424.306 186.663 L
424.595 186.217 L
424.884 185.77 L
425.173 185.323 L
425.462 184.877 L
425.751 184.43 L
426.041 183.983 L
426.33 183.537 L
426.619 183.09 L
426.908 182.643 L
427.197 182.197 L
427.486 181.75 L
427.775 181.303 L
428.065 180.857 L
428.354 180.41 L
428.643 179.963 L
428.932 179.517 L
429.221 179.07 L
429.51 178.623 L
429.799 178.177 L
430.089 177.73 L
430.378 177.283 L
430.667 176.837 L
430.956 176.39 L
431.245 175.943 L
431.534 175.497 L
431.823 175.05 L
432.113 174.603 L
432.402 174.157 L
432.691 173.71 L
432.98 173.263 L
433.269 172.817 L
433.558 172.37 L
433.847 171.923 L
434.137 171.477 L
434.426 171.03 L
434.715 170.583 L
435.004 170.137 L
435.293 169.69 L
435.582 169.243 L
435.871 168.797 L
436.161 168.35 L
436.45 167.903 L
436.739 167.457 L
437.028 167.01 L
437.317 166.563 L
437.606 166.117 L
437.895 165.67 L
438.185 165.223 L
438.474 164.777 L
438.763 164.33 L
439.052 163.883 L
439.341 163.437 L
439.63 162.99 L
439.919 162.543 L
440.209 162.097 L
440.498 161.65 L
440.787 161.203 L
441.076 160.757 L
441.365 160.31 L
441.654 159.863 L
441.943 159.417 L
442.233 158.97 L
442.522 158.523 L
442.811 158.077 L
443.1 157.63 L
443.389 157.183 L
443.678 156.737 L
443.967 156.29 L
444.257 155.843 L
444.546 155.397 L
444.835 154.95 L
445.124 154.503 L
445.413 154.057 L
445.702 153.61 L
445.991 153.163 L
446.28 152.717 L
446.57 152.27 L
446.859 151.823 L
447.148 151.377 L
447.437 150.93 L
447.726 150.483 L
448.015 150.037 L
448.304 149.59 L
448.594 149.143 L
448.883 148.697 L
449.172 148.25 L
449.461 147.803 L
449.75 147.357 L
450.039 146.91 L
450.328 146.463 L
450.618 146.017 L
450.907 145.57 L
451.196 145.123 L
451.485 144.677 L
451.774 144.23 L
452.063 143.783 L
452.352 143.337 L
452.642 142.89 L
452.931 142.443 L
453.22 141.997 L
453.509 141.55 L
453.798 141.103 L
454.087 140.657 L
454.376 140.21 L
454.666 139.763 L
454.955 139.317 L
455.244 138.87 L
455.533 138.423 L
455.822 137.977 L
456.111 137.53 L
456.4 137.083 L
456.69 136.637 L
456.979 136.19 L
457.268 135.743 L
457.557 135.297 L
457.846 134.85 L
458.135 134.403 L
458.424 133.957 L
458.714 133.51 L
459.003 133.063 L
459.292 132.617 L
459.581 132.17 L
459.87 131.723 L
460.159 131.277 L
460.448 130.83 L
460.738 130.383 L
461.027 129.937 L
461.316 129.49 L
461.605 129.043 L
461.894 128.597 L
462.183 128.15 L
462.472 127.703 L
462.762 127.257 L
463.051 126.81 L
463.34 126.363 L
463.629 125.917 L
463.918 125.47 L
464.207 125.023 L
464.496 124.577 L
464.785 124.13 L
465.074 123.683 L
465.364 123.237 L
465.653 122.79 L
465.942 122.343 L
466.231 121.897 L
466.52 121.45 L
466.809 121.003 L
467.099 120.557 L
467.388 120.11 L
467.677 119.663 L
467.966 119.217 L
468.255 118.77 L
468.544 118.323 L
468.833 117.877 L
469.123 117.43 L
469.412 116.983 L
469.701 116.537 L
469.99 116.09 L
470.279 115.643 L
470.568 115.197 L
470.857 114.75 L
471.147 115.197 L
471.436 115.643 L
471.725 116.09 L
472.014 116.537 L
472.303 116.983 L
472.592 117.43 L
472.881 117.877 L
473.171 118.323 L
473.46 118.77 L
473.749 119.217 L
474.038 119.663 L
474.327 120.11 L
474.616 120.557 L
474.905 121.003 L
475.195 121.45 L
475.484 121.897 L
475.773 122.343 L
476.062 122.79 L
476.351 123.237 L
476.64 123.683 L
476.929 124.13 L
477.219 124.577 L
477.508 125.023 L
477.797 125.47 L
478.086 125.917 L
478.375 126.363 L
478.664 126.81 L
478.953 127.257 L
479.243 127.703 L
479.532 128.15 L
479.821 128.597 L
480.11 129.043 L
480.399 129.49 L
480.688 129.937 L
480.977 130.383 L
481.267 130.83 L
481.556 131.277 L
481.845 131.723 L
482.134 132.17 L
482.423 132.617 L
482.712 133.063 L
483.001 133.51 L
483.291 133.957 L
483.58 134.403 L
483.869 134.85 L
484.158 135.297 L
484.447 135.743 L
484.736 136.19 L
485.025 136.637 L
485.315 137.083 L
485.603 137.53 L
485.893 137.977 L
486.182 138.423 L
486.471 138.87 L
486.76 139.317 L
487.049 139.763 L
487.339 140.21 L
487.627 140.657 L
487.917 141.103 L
488.206 141.55 L
488.495 141.997 L
488.784 142.443 L
489.073 142.89 L
489.362 143.337 L
489.651 143.783 L
489.941 144.23 L
490.23 144.677 L
490.519 145.123 L
490.808 145.57 L
491.097 146.017 L
491.386 146.463 L
491.675 146.91 L
491.965 147.357 L
492.254 147.803 L
492.543 148.25 L
492.832 148.697 L
493.121 149.143 L
493.41 149.59 L
493.7 150.037 L
493.989 150.483 L
494.278 150.93 L
494.567 151.377 L
494.856 151.823 L
495.145 152.27 L
495.434 152.717 L
495.724 153.163 L
496.013 153.61 L
496.302 154.057 L
496.591 154.503 L
496.88 154.95 L
497.169 155.397 L
497.458 155.843 L
497.748 156.29 L
498.037 156.737 L
498.326 157.183 L
498.615 157.63 L
498.904 158.077 L
499.193 158.523 L
499.482 158.97 L
499.772 159.417 L
500.061 159.863 L
500.35 160.31 L
500.639 160.757 L
500.928 161.203 L
501.217 161.65 L
501.506 162.097 L
501.796 162.543 L
502.085 162.99 L
502.374 163.437 L
502.663 163.883 L
502.952 164.33 L
503.241 164.777 L
503.53 165.223 L
503.82 165.67 L
504.109 166.117 L
504.398 166.563 L
504.687 167.01 L
504.976 167.457 L
505.265 167.903 L
505.554 168.35 L
505.844 168.797 L
506.133 169.243 L
506.422 169.69 L
506.711 170.137 L
S
GR
GS
[0.75 0 0 0.75 0 0] CT
0.851 0.325 0.098 RC
1 LJ
1.333 LW
N
73 274.271 M
73.289 273.77 L
73.578 273.272 L
73.867 272.775 L
74.157 272.281 L
74.446 271.788 L
74.735 271.298 L
75.024 270.81 L
75.313 270.324 L
75.602 269.841 L
75.891 269.359 L
76.181 268.88 L
76.47 268.404 L
76.759 267.93 L
77.048 267.458 L
77.337 266.988 L
77.626 266.521 L
77.915 266.057 L
78.205 265.595 L
78.494 265.135 L
78.783 264.678 L
79.072 264.223 L
79.361 263.771 L
79.65 263.321 L
79.939 262.874 L
80.229 262.429 L
80.518 261.986 L
80.807 261.546 L
81.096 261.109 L
81.385 260.673 L
81.674 260.241 L
81.963 259.81 L
82.253 259.382 L
82.542 258.956 L
82.831 258.533 L
83.12 258.111 L
83.409 257.692 L
83.698 257.276 L
83.987 256.861 L
84.277 256.449 L
84.565 256.039 L
84.855 255.631 L
85.144 255.225 L
85.433 254.821 L
85.722 254.419 L
86.011 254.019 L
86.3 253.621 L
86.589 253.225 L
86.879 252.831 L
87.168 252.439 L
87.457 252.049 L
87.746 251.661 L
88.035 251.274 L
88.324 250.889 L
88.614 250.506 L
88.903 250.124 L
89.192 249.744 L
89.481 249.366 L
89.77 248.989 L
90.059 248.614 L
90.348 248.24 L
90.638 247.868 L
90.927 247.497 L
91.216 247.127 L
91.505 246.759 L
91.794 246.392 L
92.083 246.027 L
92.372 245.662 L
92.662 245.299 L
92.951 244.937 L
93.24 244.576 L
93.529 244.217 L
93.818 243.858 L
94.107 243.5 L
94.396 243.143 L
94.686 242.787 L
94.975 242.433 L
95.264 242.079 L
95.553 241.725 L
95.842 241.373 L
96.131 241.021 L
96.42 240.67 L
96.71 240.32 L
96.999 239.971 L
97.288 239.622 L
97.577 239.274 L
97.866 238.926 L
98.155 238.579 L
98.444 238.232 L
98.734 237.886 L
99.023 237.54 L
99.312 237.195 L
99.601 236.85 L
99.89 236.505 L
100.179 236.161 L
100.468 235.817 L
100.758 235.473 L
101.047 235.129 L
101.336 234.786 L
101.625 234.443 L
101.914 234.1 L
102.203 233.757 L
102.492 233.414 L
102.782 233.071 L
103.071 232.729 L
103.36 232.386 L
103.649 232.043 L
103.938 231.7 L
104.227 231.358 L
104.516 231.015 L
104.806 230.672 L
105.095 230.329 L
105.384 229.985 L
105.673 229.642 L
105.962 229.298 L
106.251 228.955 L
106.54 228.61 L
106.829 228.266 L
107.118 227.921 L
107.408 227.576 L
107.697 227.231 L
107.986 226.886 L
108.275 226.54 L
108.564 226.193 L
108.853 225.847 L
109.142 225.499 L
109.432 225.152 L
109.721 224.804 L
110.01 224.455 L
110.299 224.106 L
110.588 223.757 L
110.877 223.407 L
111.166 223.057 L
111.456 222.706 L
111.745 222.354 L
112.034 222.002 L
112.323 221.649 L
112.612 221.296 L
112.901 220.942 L
113.19 220.587 L
113.48 220.232 L
113.769 219.877 L
114.058 219.52 L
114.347 219.163 L
114.636 218.805 L
114.925 218.447 L
115.215 218.088 L
115.504 217.728 L
115.793 217.367 L
116.082 217.006 L
116.371 216.644 L
116.66 216.281 L
116.949 215.918 L
117.239 215.553 L
117.528 215.188 L
117.817 214.823 L
118.106 214.456 L
118.395 214.089 L
118.684 213.721 L
118.973 213.352 L
119.263 212.982 L
119.552 212.611 L
119.841 212.24 L
120.13 211.868 L
120.419 211.495 L
120.708 211.121 L
120.997 210.747 L
121.287 210.371 L
121.576 209.995 L
121.865 209.618 L
122.154 209.24 L
122.443 208.861 L
122.732 208.481 L
123.021 208.101 L
123.311 207.72 L
123.6 207.337 L
123.889 206.954 L
124.178 206.57 L
124.467 206.186 L
124.756 205.8 L
125.045 205.414 L
125.335 205.026 L
125.624 204.638 L
125.913 204.249 L
126.202 203.859 L
126.491 203.468 L
126.78 203.077 L
127.069 202.684 L
127.359 202.291 L
127.647 201.896 L
127.937 201.501 L
128.226 201.105 L
128.515 200.709 L
128.804 200.311 L
129.093 199.912 L
129.382 199.513 L
129.671 199.113 L
129.961 198.712 L
130.25 198.31 L
130.539 197.907 L
130.828 197.504 L
131.117 197.099 L
131.406 196.694 L
131.695 196.288 L
131.985 195.881 L
132.274 195.473 L
132.563 195.065 L
132.852 194.655 L
133.141 194.245 L
133.43 193.834 L
133.719 193.422 L
134.009 193.009 L
134.298 192.596 L
134.587 192.182 L
134.876 191.767 L
135.165 191.351 L
135.454 190.934 L
135.743 190.517 L
136.033 190.098 L
136.322 189.679 L
136.611 189.26 L
136.9 188.839 L
137.189 188.418 L
137.478 187.996 L
137.767 187.573 L
138.057 187.15 L
138.346 186.725 L
138.635 186.3 L
138.924 185.875 L
139.213 185.448 L
139.502 185.021 L
139.791 184.593 L
140.081 184.164 L
140.37 183.735 L
140.659 183.305 L
140.948 182.874 L
141.237 182.443 L
141.526 182.011 L
141.816 181.578 L
142.105 181.144 L
142.394 180.71 L
142.683 180.275 L
142.972 179.84 L
143.261 179.404 L
143.55 178.967 L
143.84 178.53 L
144.129 178.092 L
144.418 177.653 L
144.707 177.214 L
144.996 176.774 L
145.285 176.333 L
145.574 175.892 L
145.864 175.45 L
146.153 175.008 L
146.442 174.565 L
146.731 174.121 L
147.02 173.677 L
147.309 173.233 L
147.598 172.787 L
147.888 172.342 L
148.176 171.895 L
148.466 171.448 L
148.755 171.001 L
149.044 170.553 L
149.333 170.104 L
149.622 169.655 L
149.911 169.206 L
150.2 168.756 L
150.49 168.305 L
150.779 167.854 L
151.068 167.403 L
151.357 166.951 L
151.646 166.498 L
151.935 166.045 L
152.224 165.591 L
152.514 165.138 L
152.803 164.683 L
153.092 164.228 L
153.381 163.773 L
153.67 163.317 L
153.959 162.861 L
154.248 162.404 L
154.538 161.947 L
154.827 161.49 L
155.116 161.032 L
155.405 160.574 L
155.694 160.115 L
155.983 159.656 L
156.272 159.196 L
156.562 158.736 L
156.851 158.276 L
157.14 157.815 L
157.429 157.354 L
157.718 156.893 L
158.007 156.431 L
158.296 155.969 L
158.586 155.507 L
158.875 155.044 L
159.164 154.581 L
159.453 154.117 L
159.742 153.654 L
160.031 153.19 L
160.32 152.725 L
160.61 152.261 L
160.899 151.796 L
161.188 151.33 L
161.477 150.865 L
161.766 150.399 L
162.055 149.933 L
162.344 149.466 L
162.634 148.999 L
162.923 148.532 L
163.212 148.065 L
163.501 147.598 L
163.79 147.13 L
164.079 146.662 L
164.368 146.193 L
164.658 145.725 L
164.947 145.256 L
165.236 144.787 L
165.525 144.318 L
165.814 143.849 L
166.103 143.379 L
166.392 142.909 L
166.682 142.439 L
166.971 141.969 L
167.26 141.498 L
167.549 141.028 L
167.838 140.557 L
168.127 140.086 L
168.417 139.615 L
168.706 139.143 L
168.995 138.672 L
169.284 138.2 L
169.573 137.728 L
169.862 137.256 L
170.151 136.784 L
170.441 136.312 L
170.729 135.839 L
171.019 135.367 L
171.308 134.894 L
171.597 134.421 L
171.886 133.948 L
172.175 133.475 L
172.464 133.002 L
172.753 132.528 L
173.043 132.055 L
173.332 131.581 L
173.621 131.108 L
173.91 130.634 L
174.199 130.16 L
174.488 129.686 L
174.777 129.212 L
175.067 128.738 L
175.356 128.263 L
175.645 127.789 L
175.934 127.315 L
176.223 126.84 L
176.512 126.366 L
176.801 125.891 L
177.091 125.416 L
177.38 124.941 L
177.669 124.467 L
177.958 123.992 L
178.247 123.517 L
178.536 123.042 L
178.825 122.567 L
179.115 122.092 L
179.404 121.618 L
179.693 121.147 L
179.982 120.68 L
180.271 120.222 L
180.56 119.778 L
180.849 119.354 L
181.139 118.956 L
181.428 118.589 L
181.717 118.259 L
182.006 117.973 L
182.295 117.732 L
182.584 117.534 L
182.873 117.378 L
183.163 117.263 L
183.452 117.186 L
183.741 117.147 L
184.03 117.144 L
184.319 117.175 L
184.608 117.24 L
184.897 117.336 L
185.187 117.463 L
185.476 117.619 L
185.765 117.803 L
186.054 118.051 L
186.343 118.307 L
186.632 118.583 L
186.921 118.876 L
187.211 119.185 L
187.5 119.514 L
187.789 119.864 L
188.078 120.236 L
188.367 120.626 L
188.656 121.033 L
188.945 121.456 L
189.235 121.896 L
189.524 122.352 L
189.813 122.823 L
190.102 123.307 L
190.391 123.803 L
190.68 124.312 L
190.969 124.832 L
191.258 125.363 L
191.548 125.904 L
191.837 126.456 L
192.126 127.016 L
192.415 127.586 L
192.704 128.163 L
192.993 128.748 L
193.282 129.34 L
193.572 129.938 L
193.861 130.543 L
194.15 131.153 L
194.439 131.769 L
194.728 132.389 L
195.017 133.014 L
195.306 133.643 L
195.596 134.276 L
195.885 134.912 L
196.174 135.55 L
196.463 136.19 L
196.752 136.833 L
197.041 137.477 L
197.33 138.122 L
197.62 138.769 L
197.909 139.417 L
198.198 140.065 L
198.487 140.714 L
198.776 141.363 L
199.065 142.012 L
199.354 142.661 L
199.644 143.309 L
199.933 143.958 L
200.222 144.605 L
200.511 145.252 L
200.8 145.896 L
201.089 146.539 L
201.378 147.18 L
201.668 147.819 L
201.957 148.456 L
202.246 149.091 L
202.535 149.723 L
202.824 150.354 L
203.113 150.982 L
203.402 151.607 L
203.692 152.23 L
203.981 152.85 L
204.27 153.468 L
204.559 154.082 L
204.848 154.694 L
205.137 155.302 L
205.426 155.907 L
205.716 156.509 L
206.005 157.108 L
206.294 157.704 L
206.583 158.296 L
206.872 158.886 L
207.161 159.471 L
207.45 160.053 L
207.74 160.631 L
208.029 161.206 L
208.318 161.777 L
208.607 162.345 L
208.896 162.908 L
209.185 163.469 L
209.474 164.025 L
209.764 164.578 L
210.053 165.128 L
210.342 165.673 L
210.631 166.215 L
210.92 166.754 L
211.209 167.289 L
211.498 167.82 L
211.788 168.347 L
212.076 168.871 L
212.366 169.391 L
212.655 169.908 L
212.944 170.421 L
213.233 170.931 L
213.522 171.437 L
213.811 171.939 L
214.101 172.438 L
214.39 172.934 L
214.679 173.426 L
214.968 173.915 L
215.257 174.401 L
215.546 174.883 L
215.835 175.362 L
216.125 175.838 L
216.414 176.31 L
216.703 176.78 L
216.992 177.246 L
217.281 177.709 L
217.57 178.169 L
217.859 178.625 L
218.149 179.079 L
218.438 179.53 L
218.727 179.978 L
219.016 180.423 L
219.305 180.865 L
219.594 181.304 L
219.883 181.741 L
220.173 182.175 L
220.462 182.606 L
220.751 183.035 L
221.04 183.461 L
221.329 183.885 L
221.618 184.306 L
221.907 184.725 L
222.197 185.141 L
222.486 185.555 L
222.775 185.967 L
223.064 186.376 L
223.353 186.783 L
223.642 187.189 L
223.931 187.592 L
224.221 187.992 L
224.51 188.391 L
224.799 188.788 L
225.088 189.183 L
225.377 189.577 L
225.666 189.968 L
225.955 190.358 L
226.245 190.745 L
226.534 191.131 L
226.823 191.516 L
227.112 191.899 L
227.401 192.28 L
227.69 192.66 L
227.979 193.038 L
228.269 193.415 L
228.558 193.79 L
228.847 194.165 L
229.136 194.537 L
229.425 194.909 L
229.714 195.279 L
230.003 195.648 L
230.293 196.016 L
230.582 196.383 L
230.871 196.749 L
231.16 197.114 L
231.449 197.478 L
231.738 197.841 L
232.027 198.203 L
232.317 198.565 L
232.605 198.925 L
232.895 199.285 L
233.184 199.643 L
233.473 200.001 L
233.762 200.359 L
234.051 200.715 L
234.34 201.071 L
234.629 201.427 L
234.919 201.782 L
235.208 202.136 L
235.497 202.49 L
235.786 202.843 L
236.075 203.196 L
236.364 203.549 L
236.653 203.901 L
236.943 204.253 L
237.232 204.605 L
237.521 204.957 L
237.81 205.308 L
238.099 205.659 L
238.388 206.01 L
238.677 206.36 L
238.967 206.711 L
239.256 207.061 L
239.545 207.412 L
239.834 207.762 L
240.123 208.113 L
240.412 208.463 L
240.702 208.813 L
240.991 209.164 L
241.28 209.514 L
241.569 209.865 L
241.858 210.216 L
242.147 210.567 L
242.436 210.918 L
242.726 211.269 L
243.015 211.621 L
243.304 211.972 L
243.593 212.324 L
243.882 212.677 L
244.171 213.029 L
244.46 213.382 L
244.75 213.735 L
245.039 214.089 L
245.328 214.443 L
245.617 214.797 L
245.906 215.152 L
246.195 215.507 L
246.484 215.863 L
246.774 216.219 L
247.063 216.575 L
247.352 216.932 L
247.641 217.289 L
247.93 217.647 L
248.219 218.006 L
248.508 218.365 L
248.798 218.724 L
249.087 219.084 L
249.376 219.445 L
249.665 219.806 L
249.954 220.168 L
250.243 220.53 L
250.532 220.893 L
250.822 221.257 L
251.111 221.621 L
251.4 221.986 L
251.689 222.352 L
251.978 222.718 L
252.267 223.085 L
252.556 223.453 L
252.846 223.821 L
253.135 224.19 L
253.424 224.559 L
253.713 224.93 L
254.002 225.301 L
254.291 225.673 L
254.58 226.045 L
254.869 226.419 L
255.158 226.793 L
255.448 227.167 L
255.737 227.543 L
256.026 227.919 L
256.315 228.296 L
256.604 228.674 L
256.893 229.052 L
257.182 229.432 L
257.472 229.812 L
257.761 230.193 L
258.05 230.574 L
258.339 230.957 L
258.628 231.34 L
258.917 231.724 L
259.206 232.109 L
259.496 232.495 L
259.785 232.881 L
260.074 233.268 L
260.363 233.656 L
260.652 234.045 L
260.941 234.435 L
261.23 234.825 L
261.52 235.216 L
261.809 235.608 L
262.098 236.001 L
262.387 236.395 L
262.676 236.789 L
262.965 237.184 L
263.254 237.58 L
263.544 237.977 L
263.833 238.375 L
264.122 238.773 L
264.411 239.173 L
264.7 239.573 L
264.989 239.974 L
265.278 240.375 L
265.568 240.778 L
265.857 241.181 L
266.146 241.585 L
266.435 241.99 L
266.724 242.396 L
267.013 242.802 L
267.302 243.209 L
267.592 243.617 L
267.881 244.026 L
268.17 244.435 L
268.459 244.846 L
268.748 245.257 L
269.037 245.669 L
269.327 246.081 L
269.616 246.495 L
269.905 246.909 L
270.194 247.324 L
270.483 247.739 L
270.772 248.156 L
271.061 248.573 L
271.351 248.99 L
271.64 249.409 L
271.929 249.828 L
272.218 250.248 L
272.507 250.669 L
272.796 251.091 L
273.085 251.513 L
273.375 251.936 L
273.664 252.359 L
273.953 252.784 L
274.242 253.209 L
274.531 253.634 L
274.82 254.061 L
275.109 254.488 L
275.398 254.916 L
275.688 255.344 L
275.977 255.773 L
276.266 256.203 L
276.555 256.633 L
276.844 257.065 L
277.133 257.496 L
277.422 257.929 L
277.711 258.362 L
278.001 258.795 L
278.29 259.23 L
278.579 259.664 L
278.868 260.1 L
279.157 260.536 L
279.446 260.973 L
279.735 261.41 L
280.025 261.848 L
280.314 262.287 L
280.603 262.726 L
280.892 263.165 L
281.181 263.606 L
281.47 264.047 L
281.759 264.488 L
282.049 264.93 L
282.338 265.373 L
282.627 265.816 L
282.916 266.259 L
283.205 266.703 L
283.494 267.148 L
283.783 267.593 L
284.073 268.039 L
284.362 268.485 L
284.651 268.932 L
284.94 269.379 L
285.229 269.827 L
285.518 270.275 L
285.807 270.724 L
286.097 271.173 L
286.386 271.623 L
286.675 272.073 L
286.964 272.524 L
287.253 272.975 L
287.542 273.427 L
287.831 273.879 L
288.121 274.331 L
288.41 274.784 L
288.699 275.237 L
288.988 275.691 L
289.277 276.145 L
289.566 276.6 L
289.855 277.055 L
290.145 277.51 L
290.434 277.966 L
290.723 278.422 L
291.012 278.879 L
291.301 279.336 L
291.59 279.793 L
291.879 280.251 L
292.169 280.709 L
292.458 281.167 L
292.747 281.626 L
293.036 282.085 L
293.325 282.545 L
293.614 283.005 L
293.903 283.465 L
294.193 283.926 L
294.482 284.386 L
294.771 284.848 L
295.06 285.309 L
295.349 285.771 L
295.638 286.233 L
295.928 286.695 L
296.216 287.158 L
296.506 287.621 L
296.795 288.085 L
297.084 288.548 L
297.373 289.012 L
297.662 289.476 L
297.951 289.94 L
298.24 290.405 L
298.53 290.87 L
298.819 291.335 L
299.108 291.801 L
299.397 292.266 L
299.686 292.732 L
299.975 293.198 L
300.264 293.665 L
300.554 294.131 L
300.843 294.598 L
301.132 295.065 L
301.421 295.532 L
301.71 296 L
301.999 296.467 L
302.288 296.935 L
302.578 297.403 L
302.867 297.872 L
303.156 298.34 L
303.445 298.809 L
303.734 299.277 L
304.023 299.746 L
304.312 300.215 L
304.602 300.685 L
304.891 301.154 L
305.18 301.624 L
305.469 302.094 L
305.758 302.563 L
306.047 303.034 L
306.336 303.504 L
306.626 303.974 L
306.915 304.445 L
307.204 304.915 L
307.493 305.386 L
307.782 305.857 L
308.071 306.328 L
308.36 306.799 L
308.65 307.27 L
308.939 307.741 L
309.228 308.213 L
309.517 308.684 L
309.806 309.156 L
310.095 309.627 L
310.384 310.099 L
310.674 310.571 L
310.963 311.043 L
311.252 311.515 L
311.541 311.987 L
311.83 312.459 L
312.119 312.932 L
312.408 313.404 L
312.698 313.876 L
312.987 314.349 L
313.276 314.821 L
313.565 315.294 L
313.854 315.766 L
314.143 316.239 L
314.432 316.712 L
314.722 317.185 L
315.011 317.657 L
315.3 318.13 L
315.589 318.603 L
315.878 319.076 L
316.167 319.549 L
316.456 320.022 L
316.746 320.495 L
317.035 320.968 L
317.324 321.441 L
317.613 321.914 L
317.902 322.387 L
318.191 322.86 L
318.48 323.333 L
318.769 323.806 L
319.059 324.279 L
319.348 324.752 L
319.637 325.225 L
319.926 325.698 L
320.215 326.171 L
320.504 326.644 L
320.793 327.117 L
321.083 327.59 L
321.372 328.063 L
321.661 328.536 L
321.95 329.009 L
322.239 329.482 L
322.528 329.955 L
322.817 330.428 L
323.107 330.901 L
323.396 331.374 L
323.685 331.846 L
323.974 332.318 L
324.263 332.787 L
324.552 333.251 L
324.841 333.706 L
325.131 334.148 L
325.42 334.569 L
325.709 334.965 L
325.998 335.329 L
326.287 335.655 L
326.576 335.939 L
326.865 336.177 L
327.155 336.372 L
327.444 336.525 L
327.733 336.637 L
328.022 336.71 L
328.311 336.746 L
328.6 336.746 L
328.889 336.711 L
329.179 336.643 L
329.468 336.533 L
329.757 336.389 L
330.046 336.223 L
330.335 336.03 L
330.624 335.811 L
330.913 335.567 L
331.203 335.299 L
331.492 335.009 L
331.781 334.695 L
332.07 334.36 L
332.359 334.005 L
332.648 333.631 L
332.937 333.239 L
333.227 332.828 L
333.516 332.398 L
333.805 331.952 L
334.094 331.49 L
334.383 331.016 L
334.672 330.529 L
334.961 330.029 L
335.251 329.516 L
335.54 328.992 L
335.829 328.457 L
336.118 327.911 L
336.407 327.355 L
336.696 326.79 L
336.985 326.216 L
337.275 325.634 L
337.564 325.045 L
337.853 324.448 L
338.142 323.845 L
338.431 323.236 L
338.72 322.621 L
339.009 322 L
339.298 321.375 L
339.587 320.745 L
339.877 320.111 L
340.166 319.473 L
340.455 318.833 L
340.744 318.191 L
341.033 317.546 L
341.322 316.898 L
341.612 316.249 L
341.901 315.599 L
342.19 314.947 L
342.479 314.294 L
342.768 313.641 L
343.057 312.987 L
343.346 312.333 L
343.636 311.679 L
343.925 311.025 L
344.214 310.372 L
344.503 309.72 L
344.792 309.068 L
345.081 308.417 L
345.37 307.768 L
345.66 307.12 L
345.949 306.474 L
346.238 305.83 L
346.527 305.187 L
346.816 304.547 L
347.105 303.909 L
347.394 303.273 L
347.684 302.639 L
347.973 302.008 L
348.262 301.38 L
348.551 300.754 L
348.84 300.131 L
349.129 299.511 L
349.418 298.894 L
349.708 298.28 L
349.997 297.67 L
350.286 297.062 L
350.575 296.458 L
350.864 295.857 L
351.153 295.259 L
351.442 294.665 L
351.732 294.074 L
352.021 293.487 L
352.31 292.903 L
352.599 292.323 L
352.888 291.746 L
353.177 291.173 L
353.466 290.603 L
353.756 290.038 L
354.045 289.475 L
354.334 288.917 L
354.623 288.362 L
354.912 287.811 L
355.201 287.263 L
355.49 286.719 L
355.78 286.179 L
356.069 285.642 L
356.358 285.109 L
356.647 284.58 L
356.936 284.054 L
357.225 283.532 L
357.514 283.013 L
357.804 282.498 L
358.092 281.987 L
358.382 281.479 L
358.671 280.974 L
358.96 280.473 L
359.249 279.976 L
359.538 279.481 L
359.827 278.99 L
360.116 278.502 L
360.406 278.017 L
360.695 277.534 L
360.984 277.052 L
361.273 276.573 L
361.562 276.096 L
361.851 275.62 L
362.14 275.146 L
362.43 274.674 L
362.719 274.204 L
363.008 273.736 L
363.297 273.271 L
363.586 272.807 L
363.875 272.345 L
364.164 271.886 L
364.454 271.429 L
364.743 270.974 L
365.032 270.521 L
365.321 270.071 L
365.61 269.623 L
365.899 269.177 L
366.188 268.734 L
366.478 268.293 L
366.767 267.854 L
367.056 267.417 L
367.345 266.983 L
367.634 266.552 L
367.923 266.122 L
368.213 265.695 L
368.502 265.27 L
368.791 264.848 L
369.08 264.427 L
369.369 264.009 L
369.658 263.594 L
369.947 263.18 L
370.237 262.769 L
370.526 262.36 L
370.815 261.953 L
371.104 261.548 L
371.393 261.145 L
371.682 260.745 L
371.971 260.346 L
372.261 259.95 L
372.55 259.555 L
372.839 259.162 L
373.128 258.772 L
373.417 258.383 L
373.706 257.996 L
373.995 257.611 L
374.285 257.227 L
374.574 256.846 L
374.863 256.466 L
375.152 256.088 L
375.441 255.711 L
375.73 255.336 L
376.019 254.963 L
376.309 254.591 L
376.598 254.22 L
376.887 253.851 L
377.176 253.484 L
377.465 253.117 L
377.754 252.752 L
378.043 252.389 L
378.333 252.026 L
378.622 251.665 L
378.911 251.305 L
379.2 250.946 L
379.489 250.589 L
379.778 250.232 L
380.067 249.876 L
380.357 249.521 L
380.645 249.167 L
380.935 248.814 L
381.224 248.462 L
381.513 248.111 L
381.802 247.76 L
382.091 247.411 L
382.38 247.061 L
382.669 246.713 L
382.959 246.365 L
383.248 246.018 L
383.537 245.671 L
383.826 245.325 L
384.115 244.979 L
384.404 244.634 L
384.693 244.289 L
384.983 243.944 L
385.272 243.6 L
385.561 243.256 L
385.85 242.913 L
386.139 242.569 L
386.428 242.226 L
386.717 241.883 L
387.007 241.54 L
387.296 241.197 L
387.585 240.855 L
387.874 240.512 L
388.163 240.169 L
388.452 239.827 L
388.741 239.484 L
389.031 239.141 L
389.32 238.798 L
389.609 238.455 L
389.898 238.112 L
390.187 237.769 L
390.476 237.425 L
390.765 237.081 L
391.055 236.737 L
391.344 236.393 L
391.633 236.048 L
391.922 235.703 L
392.211 235.358 L
392.5 235.012 L
392.789 234.666 L
393.079 234.32 L
393.368 233.972 L
393.657 233.625 L
393.946 233.277 L
394.235 232.929 L
394.524 232.58 L
394.814 232.23 L
395.103 231.88 L
395.392 231.529 L
395.681 231.178 L
395.97 230.826 L
396.259 230.473 L
396.548 230.12 L
396.838 229.766 L
397.127 229.412 L
397.416 229.057 L
397.705 228.701 L
397.994 228.344 L
398.283 227.987 L
398.572 227.628 L
398.862 227.27 L
399.151 226.91 L
399.44 226.549 L
399.729 226.188 L
400.018 225.826 L
400.307 225.463 L
400.596 225.099 L
400.886 224.735 L
401.174 224.369 L
401.464 224.003 L
401.753 223.636 L
402.042 223.268 L
402.331 222.899 L
402.62 222.529 L
402.909 222.159 L
403.198 221.787 L
403.488 221.414 L
403.777 221.041 L
404.066 220.667 L
404.355 220.291 L
404.644 219.915 L
404.933 219.538 L
405.222 219.16 L
405.512 218.781 L
405.801 218.401 L
406.09 218.02 L
406.379 217.638 L
406.668 217.255 L
406.957 216.871 L
407.246 216.486 L
407.536 216.101 L
407.825 215.714 L
408.114 215.326 L
408.403 214.938 L
408.692 214.548 L
408.981 214.157 L
409.27 213.766 L
409.56 213.373 L
409.849 212.979 L
410.138 212.585 L
410.427 212.189 L
410.716 211.793 L
411.005 211.395 L
411.294 210.997 L
411.584 210.598 L
411.873 210.197 L
412.162 209.796 L
412.451 209.394 L
412.74 208.99 L
413.029 208.586 L
413.318 208.181 L
413.608 207.775 L
413.897 207.368 L
414.186 206.96 L
414.475 206.551 L
414.764 206.141 L
415.053 205.73 L
415.342 205.318 L
415.632 204.905 L
415.921 204.492 L
416.21 204.077 L
416.499 203.661 L
416.788 203.245 L
417.077 202.828 L
417.366 202.409 L
417.656 201.99 L
417.945 201.57 L
418.234 201.149 L
418.523 200.727 L
418.812 200.305 L
419.101 199.881 L
419.39 199.457 L
419.68 199.031 L
419.969 198.605 L
420.258 198.178 L
420.547 197.75 L
420.836 197.321 L
421.125 196.892 L
421.415 196.462 L
421.704 196.03 L
421.993 195.598 L
422.282 195.165 L
422.571 194.732 L
422.86 194.297 L
423.149 193.862 L
423.439 193.426 L
423.727 192.989 L
424.017 192.552 L
424.306 192.113 L
424.595 191.674 L
424.884 191.235 L
425.173 190.794 L
425.462 190.353 L
425.751 189.911 L
426.041 189.468 L
426.33 189.024 L
426.619 188.58 L
426.908 188.135 L
427.197 187.69 L
427.486 187.244 L
427.775 186.797 L
428.065 186.349 L
428.354 185.901 L
428.643 185.452 L
428.932 185.002 L
429.221 184.552 L
429.51 184.101 L
429.799 183.65 L
430.089 183.198 L
430.378 182.745 L
430.667 182.292 L
430.956 181.838 L
431.245 181.383 L
431.534 180.928 L
431.823 180.473 L
432.113 180.016 L
432.402 179.56 L
432.691 179.102 L
432.98 178.644 L
433.269 178.186 L
433.558 177.727 L
433.847 177.267 L
434.137 176.807 L
434.426 176.347 L
434.715 175.886 L
435.004 175.425 L
435.293 174.963 L
435.582 174.5 L
435.871 174.037 L
436.161 173.574 L
436.45 173.11 L
436.739 172.646 L
437.028 172.181 L
437.317 171.716 L
437.606 171.25 L
437.895 170.784 L
438.185 170.318 L
438.474 169.851 L
438.763 169.384 L
439.052 168.916 L
439.341 168.448 L
439.63 167.98 L
439.919 167.511 L
440.209 167.042 L
440.498 166.572 L
440.787 166.102 L
441.076 165.632 L
441.365 165.162 L
441.654 164.691 L
441.943 164.22 L
442.233 163.748 L
442.522 163.276 L
442.811 162.804 L
443.1 162.332 L
443.389 161.859 L
443.678 161.386 L
443.967 160.913 L
444.257 160.439 L
444.546 159.966 L
444.835 159.492 L
445.124 159.017 L
445.413 158.543 L
445.702 158.068 L
445.991 157.593 L
446.28 157.118 L
446.57 156.642 L
446.859 156.166 L
447.148 155.69 L
447.437 155.214 L
447.726 154.738 L
448.015 154.261 L
448.304 153.785 L
448.594 153.308 L
448.883 152.831 L
449.172 152.353 L
449.461 151.876 L
449.75 151.398 L
450.039 150.921 L
450.328 150.443 L
450.618 149.965 L
450.907 149.486 L
451.196 149.008 L
451.485 148.53 L
451.774 148.051 L
452.063 147.572 L
452.352 147.094 L
452.642 146.615 L
452.931 146.136 L
453.22 145.657 L
453.509 145.177 L
453.798 144.698 L
454.087 144.219 L
454.376 143.739 L
454.666 143.26 L
454.955 142.78 L
455.244 142.3 L
455.533 141.82 L
455.822 141.341 L
456.111 140.861 L
456.4 140.381 L
456.69 139.901 L
456.979 139.421 L
457.268 138.941 L
457.557 138.461 L
457.846 137.981 L
458.135 137.5 L
458.424 137.02 L
458.714 136.54 L
459.003 136.06 L
459.292 135.58 L
459.581 135.099 L
459.87 134.619 L
460.159 134.139 L
460.448 133.659 L
460.738 133.179 L
461.027 132.698 L
461.316 132.218 L
461.605 131.738 L
461.894 131.258 L
462.183 130.778 L
462.472 130.298 L
462.762 129.818 L
463.051 129.338 L
463.34 128.858 L
463.629 128.378 L
463.918 127.898 L
464.207 127.418 L
464.496 126.938 L
464.785 126.458 L
465.074 125.979 L
465.364 125.499 L
465.653 125.02 L
465.942 124.54 L
466.231 124.061 L
466.52 123.581 L
466.809 123.102 L
467.099 122.623 L
467.388 122.144 L
467.677 121.665 L
467.966 121.186 L
468.255 120.708 L
468.544 120.231 L
468.833 119.758 L
469.123 119.293 L
469.412 118.838 L
469.701 118.401 L
469.99 117.986 L
470.279 117.6 L
470.568 117.247 L
470.857 116.935 L
471.147 116.667 L
471.436 116.447 L
471.725 116.273 L
472.014 116.141 L
472.303 116.052 L
472.592 116.003 L
472.881 115.993 L
473.171 116.019 L
473.46 116.081 L
473.749 116.177 L
474.038 116.305 L
474.327 116.465 L
474.616 116.656 L
474.905 116.919 L
475.195 117.192 L
475.484 117.479 L
475.773 117.785 L
476.062 118.107 L
476.351 118.449 L
476.64 118.811 L
476.929 119.196 L
477.219 119.6 L
477.508 120.021 L
477.797 120.46 L
478.086 120.914 L
478.375 121.385 L
478.664 121.871 L
478.953 122.371 L
479.243 122.883 L
479.532 123.407 L
479.821 123.943 L
480.11 124.489 L
480.399 125.046 L
480.688 125.612 L
480.977 126.187 L
481.267 126.771 L
481.556 127.362 L
481.845 127.96 L
482.134 128.565 L
482.423 129.176 L
482.712 129.793 L
483.001 130.415 L
483.291 131.041 L
483.58 131.672 L
483.869 132.306 L
484.158 132.945 L
484.447 133.586 L
484.736 134.23 L
485.025 134.875 L
485.315 135.522 L
485.603 136.17 L
485.893 136.82 L
486.182 137.47 L
486.471 138.12 L
486.76 138.771 L
487.049 139.421 L
487.339 140.072 L
487.627 140.722 L
487.917 141.371 L
488.206 142.019 L
488.495 142.666 L
488.784 143.312 L
489.073 143.957 L
489.362 144.6 L
489.651 145.24 L
489.941 145.878 L
490.23 146.514 L
490.519 147.147 L
490.808 147.777 L
491.097 148.404 L
491.386 149.029 L
491.675 149.65 L
491.965 150.269 L
492.254 150.884 L
492.543 151.497 L
492.832 152.106 L
493.121 152.711 L
493.41 153.313 L
493.7 153.912 L
493.989 154.507 L
494.278 155.098 L
494.567 155.685 L
494.856 156.269 L
495.145 156.849 L
495.434 157.426 L
495.724 157.999 L
496.013 158.567 L
496.302 159.132 L
496.591 159.693 L
496.88 160.25 L
497.169 160.802 L
497.458 161.351 L
497.748 161.896 L
498.037 162.437 L
498.326 162.974 L
498.615 163.507 L
498.904 164.036 L
499.193 164.561 L
499.482 165.082 L
499.772 165.599 L
500.061 166.113 L
500.35 166.622 L
500.639 167.128 L
500.928 167.63 L
501.217 168.129 L
501.506 168.623 L
501.796 169.114 L
502.085 169.601 L
502.374 170.085 L
502.663 170.565 L
502.952 171.041 L
503.241 171.514 L
503.53 171.984 L
503.82 172.45 L
504.109 172.912 L
504.398 173.372 L
504.687 173.828 L
504.976 174.281 L
505.265 174.731 L
505.554 175.177 L
505.844 175.621 L
506.133 176.061 L
506.422 176.498 L
506.711 176.933 L
S
GR
GS
[0.75 0 0 0.75 0 0] CT
1 GC
N
496 86 M
496 42 L
336 42 L
336 86 L
cp
f
GR
GS
[0.75 0 0 0.75 287.25 40.39888] CT
/Times-Roman 16.8 F
GS
[1 0 0 1 0 0] CT
0 6 moveto 
1 -1 scale
(reference) t 
GR
GR
GS
[0.75 0 0 0.75 0 0] CT
0 0.447 0.741 RC
1 LJ
1.333 LW
N
340 53.865 M
380 53.865 L
S
GR
GS
[0.75 0 0 0.75 287.25 55.60113] CT
/Times-Roman 16.8 F
GS
[1 0 0 1 0 0] CT
0 6 moveto 
1 -1 scale
(output with ILC) t 
GR
GR
GS
[0.75 0 0 0.75 0 0] CT
0.851 0.325 0.098 RC
1 LJ
1.333 LW
N
340 74.135 M
380 74.135 L
S
GR
GS
[0.75 0 0 0.75 0 0] CT
0.149 GC
10.0 ML
0.667 LW
N
336 86 M
336 42 L
496 42 L
496 86 L
cp
S
GR
%%Trailer
%%Pages: 1
%%EOF
