%!PS-Adobe-3.0 EPSF-3.0
%%Creator: (MATLAB, The Mathworks, Inc. Version 9.10.0.1669831 \(R2021a\) Update 2. Operating System: Windows 10)
%%Title: C:/Users/becka/Documents/Me_dokumenty/CVUT_FEjL/DIPLOMKA_V2/matlab/simple_experiments/ILC_experiments/ILC_1st_last_3s.eps
%%CreationDate: 2021-08-12T22:24:19
%%Pages: (atend)
%%BoundingBox:     0     0   420   315
%%LanguageLevel: 3
%%EndComments
%%BeginProlog
%%BeginResource: procset (Apache XML Graphics Std ProcSet) 1.2 0
%%Version: 1.2 0
%%Copyright: (Copyright 2001-2003,2010 The Apache Software Foundation. License terms: http://www.apache.org/licenses/LICENSE-2.0)
/bd{bind def}bind def
/ld{load def}bd
/GR/grestore ld
/GS/gsave ld
/RM/rmoveto ld
/C/curveto ld
/t/show ld
/L/lineto ld
/ML/setmiterlimit ld
/CT/concat ld
/f/fill ld
/N/newpath ld
/S/stroke ld
/CC/setcmykcolor ld
/A/ashow ld
/cp/closepath ld
/RC/setrgbcolor ld
/LJ/setlinejoin ld
/GC/setgray ld
/LW/setlinewidth ld
/M/moveto ld
/re {4 2 roll M
1 index 0 rlineto
0 exch rlineto
neg 0 rlineto
cp } bd
/_ctm matrix def
/_tm matrix def
/BT { _ctm currentmatrix pop matrix _tm copy pop 0 0 moveto } bd
/ET { _ctm setmatrix } bd
/iTm { _ctm setmatrix _tm concat } bd
/Tm { _tm astore pop iTm 0 0 moveto } bd
/ux 0.0 def
/uy 0.0 def
/F {
  /Tp exch def
  /Tf exch def
  Tf findfont Tp scalefont setfont
  /cf Tf def  /cs Tp def
} bd
/ULS {currentpoint /uy exch def /ux exch def} bd
/ULE {
  /Tcx currentpoint pop def
  gsave
  newpath
  cf findfont cs scalefont dup
  /FontMatrix get 0 get /Ts exch def /FontInfo get dup
  /UnderlinePosition get Ts mul /To exch def
  /UnderlineThickness get Ts mul /Tt exch def
  ux uy To add moveto  Tcx uy To add lineto
  Tt setlinewidth stroke
  grestore
} bd
/OLE {
  /Tcx currentpoint pop def
  gsave
  newpath
  cf findfont cs scalefont dup
  /FontMatrix get 0 get /Ts exch def /FontInfo get dup
  /UnderlinePosition get Ts mul /To exch def
  /UnderlineThickness get Ts mul /Tt exch def
  ux uy To add cs add moveto Tcx uy To add cs add lineto
  Tt setlinewidth stroke
  grestore
} bd
/SOE {
  /Tcx currentpoint pop def
  gsave
  newpath
  cf findfont cs scalefont dup
  /FontMatrix get 0 get /Ts exch def /FontInfo get dup
  /UnderlinePosition get Ts mul /To exch def
  /UnderlineThickness get Ts mul /Tt exch def
  ux uy To add cs 10 mul 26 idiv add moveto Tcx uy To add cs 10 mul 26 idiv add lineto
  Tt setlinewidth stroke
  grestore
} bd
/QT {
/Y22 exch store
/X22 exch store
/Y21 exch store
/X21 exch store
currentpoint
/Y21 load 2 mul add 3 div exch
/X21 load 2 mul add 3 div exch
/X21 load 2 mul /X22 load add 3 div
/Y21 load 2 mul /Y22 load add 3 div
/X22 load /Y22 load curveto
} bd
/SSPD {
dup length /d exch dict def
{
/v exch def
/k exch def
currentpagedevice k known {
/cpdv currentpagedevice k get def
v cpdv ne {
/upd false def
/nullv v type /nulltype eq def
/nullcpdv cpdv type /nulltype eq def
nullv nullcpdv or
{
/upd true def
} {
/sametype v type cpdv type eq def
sametype {
v type /arraytype eq {
/vlen v length def
/cpdvlen cpdv length def
vlen cpdvlen eq {
0 1 vlen 1 sub {
/i exch def
/obj v i get def
/cpdobj cpdv i get def
obj cpdobj ne {
/upd true def
exit
} if
} for
} {
/upd true def
} ifelse
} {
v type /dicttype eq {
v {
/dv exch def
/dk exch def
/cpddv cpdv dk get def
dv cpddv ne {
/upd true def
exit
} if
} forall
} {
/upd true def
} ifelse
} ifelse
} if
} ifelse
upd true eq {
d k v put
} if
} if
} if
} forall
d length 0 gt {
d setpagedevice
} if
} bd
/RE { % /NewFontName [NewEncodingArray] /FontName RE -
  findfont dup length dict begin
  {
    1 index /FID ne
    {def} {pop pop} ifelse
  } forall
  /Encoding exch def
  /FontName 1 index def
  currentdict definefont pop
  end
} bind def
%%EndResource
%%BeginResource: procset (Apache XML Graphics EPS ProcSet) 1.0 0
%%Version: 1.0 0
%%Copyright: (Copyright 2002-2003 The Apache Software Foundation. License terms: http://www.apache.org/licenses/LICENSE-2.0)
/BeginEPSF { %def
/b4_Inc_state save def         % Save state for cleanup
/dict_count countdictstack def % Count objects on dict stack
/op_count count 1 sub def      % Count objects on operand stack
userdict begin                 % Push userdict on dict stack
/showpage { } def              % Redefine showpage, { } = null proc
0 setgray 0 setlinecap         % Prepare graphics state
1 setlinewidth 0 setlinejoin
10 setmiterlimit [ ] 0 setdash newpath
/languagelevel where           % If level not equal to 1 then
{pop languagelevel             % set strokeadjust and
1 ne                           % overprint to their defaults.
{false setstrokeadjust false setoverprint
} if
} if
} bd
/EndEPSF { %def
count op_count sub {pop} repeat            % Clean up stacks
countdictstack dict_count sub {end} repeat
b4_Inc_state restore
} bd
%%EndResource
%FOPBeginFontDict
%%IncludeResource: font Courier-Oblique
%%IncludeResource: font Courier-BoldOblique
%%IncludeResource: font Courier-Bold
%%IncludeResource: font ZapfDingbats
%%IncludeResource: font Symbol
%%IncludeResource: font Helvetica
%%IncludeResource: font Helvetica-Oblique
%%IncludeResource: font Helvetica-Bold
%%IncludeResource: font Helvetica-BoldOblique
%%IncludeResource: font Times-Roman
%%IncludeResource: font Times-Italic
%%IncludeResource: font Times-Bold
%%IncludeResource: font Times-BoldItalic
%%IncludeResource: font Courier
%FOPEndFontDict
%%BeginResource: encoding WinAnsiEncoding
/WinAnsiEncoding [
/.notdef /.notdef /.notdef /.notdef /.notdef
/.notdef /.notdef /.notdef /.notdef /.notdef
/.notdef /.notdef /.notdef /.notdef /.notdef
/.notdef /.notdef /.notdef /.notdef /.notdef
/.notdef /.notdef /.notdef /.notdef /.notdef
/.notdef /.notdef /.notdef /.notdef /.notdef
/.notdef /.notdef /space /exclam /quotedbl
/numbersign /dollar /percent /ampersand /quotesingle
/parenleft /parenright /asterisk /plus /comma
/hyphen /period /slash /zero /one
/two /three /four /five /six
/seven /eight /nine /colon /semicolon
/less /equal /greater /question /at
/A /B /C /D /E
/F /G /H /I /J
/K /L /M /N /O
/P /Q /R /S /T
/U /V /W /X /Y
/Z /bracketleft /backslash /bracketright /asciicircum
/underscore /quoteleft /a /b /c
/d /e /f /g /h
/i /j /k /l /m
/n /o /p /q /r
/s /t /u /v /w
/x /y /z /braceleft /bar
/braceright /asciitilde /bullet /Euro /bullet
/quotesinglbase /florin /quotedblbase /ellipsis /dagger
/daggerdbl /circumflex /perthousand /Scaron /guilsinglleft
/OE /bullet /Zcaron /bullet /bullet
/quoteleft /quoteright /quotedblleft /quotedblright /bullet
/endash /emdash /asciitilde /trademark /scaron
/guilsinglright /oe /bullet /zcaron /Ydieresis
/space /exclamdown /cent /sterling /currency
/yen /brokenbar /section /dieresis /copyright
/ordfeminine /guillemotleft /logicalnot /sfthyphen /registered
/macron /degree /plusminus /twosuperior /threesuperior
/acute /mu /paragraph /middot /cedilla
/onesuperior /ordmasculine /guillemotright /onequarter /onehalf
/threequarters /questiondown /Agrave /Aacute /Acircumflex
/Atilde /Adieresis /Aring /AE /Ccedilla
/Egrave /Eacute /Ecircumflex /Edieresis /Igrave
/Iacute /Icircumflex /Idieresis /Eth /Ntilde
/Ograve /Oacute /Ocircumflex /Otilde /Odieresis
/multiply /Oslash /Ugrave /Uacute /Ucircumflex
/Udieresis /Yacute /Thorn /germandbls /agrave
/aacute /acircumflex /atilde /adieresis /aring
/ae /ccedilla /egrave /eacute /ecircumflex
/edieresis /igrave /iacute /icircumflex /idieresis
/eth /ntilde /ograve /oacute /ocircumflex
/otilde /odieresis /divide /oslash /ugrave
/uacute /ucircumflex /udieresis /yacute /thorn
/ydieresis
] def
%%EndResource
%FOPBeginFontReencode
/Courier-Oblique findfont
dup length dict begin
  {1 index /FID ne {def} {pop pop} ifelse} forall
  /Encoding WinAnsiEncoding def
  currentdict
end
/Courier-Oblique exch definefont pop
/Courier-BoldOblique findfont
dup length dict begin
  {1 index /FID ne {def} {pop pop} ifelse} forall
  /Encoding WinAnsiEncoding def
  currentdict
end
/Courier-BoldOblique exch definefont pop
/Courier-Bold findfont
dup length dict begin
  {1 index /FID ne {def} {pop pop} ifelse} forall
  /Encoding WinAnsiEncoding def
  currentdict
end
/Courier-Bold exch definefont pop
/Helvetica findfont
dup length dict begin
  {1 index /FID ne {def} {pop pop} ifelse} forall
  /Encoding WinAnsiEncoding def
  currentdict
end
/Helvetica exch definefont pop
/Helvetica-Oblique findfont
dup length dict begin
  {1 index /FID ne {def} {pop pop} ifelse} forall
  /Encoding WinAnsiEncoding def
  currentdict
end
/Helvetica-Oblique exch definefont pop
/Helvetica-Bold findfont
dup length dict begin
  {1 index /FID ne {def} {pop pop} ifelse} forall
  /Encoding WinAnsiEncoding def
  currentdict
end
/Helvetica-Bold exch definefont pop
/Helvetica-BoldOblique findfont
dup length dict begin
  {1 index /FID ne {def} {pop pop} ifelse} forall
  /Encoding WinAnsiEncoding def
  currentdict
end
/Helvetica-BoldOblique exch definefont pop
/Times-Roman findfont
dup length dict begin
  {1 index /FID ne {def} {pop pop} ifelse} forall
  /Encoding WinAnsiEncoding def
  currentdict
end
/Times-Roman exch definefont pop
/Times-Italic findfont
dup length dict begin
  {1 index /FID ne {def} {pop pop} ifelse} forall
  /Encoding WinAnsiEncoding def
  currentdict
end
/Times-Italic exch definefont pop
/Times-Bold findfont
dup length dict begin
  {1 index /FID ne {def} {pop pop} ifelse} forall
  /Encoding WinAnsiEncoding def
  currentdict
end
/Times-Bold exch definefont pop
/Times-BoldItalic findfont
dup length dict begin
  {1 index /FID ne {def} {pop pop} ifelse} forall
  /Encoding WinAnsiEncoding def
  currentdict
end
/Times-BoldItalic exch definefont pop
/Courier findfont
dup length dict begin
  {1 index /FID ne {def} {pop pop} ifelse} forall
  /Encoding WinAnsiEncoding def
  currentdict
end
/Courier exch definefont pop
%FOPEndFontReencode
%%EndProlog
%%Page: 1 1
%%PageBoundingBox: 0 0 420 315
%%BeginPageSetup
[1 0 0 -1 0 315] CT
%%EndPageSetup
GS
[0.75 0 0 0.75 0 0] CT
1 GC
N
0 0 560 420 re
f
GR
GS
[0.75 0 0 0.75 0 0] CT
1 GC
N
0 0 560 420 re
f
GR
GS
[0.75 0 0 0.75 0 0] CT
1 GC
N
73 366 M
507 366 L
507 31 L
73 31 L
cp
f
GR
GS
[0.75 0 0 0.75 0 0] CT
0.149 GC
2 setlinecap
1 LJ
0.667 LW
N
73 366 M
507 366 L
S
GR
GS
[0.75 0 0 0.75 0 0] CT
0.149 GC
2 setlinecap
1 LJ
0.667 LW
N
73 31 M
507 31 L
S
GR
GS
[0.75 0 0 0.75 0 0] CT
0.149 GC
2 setlinecap
1 LJ
0.667 LW
N
73 366 M
73 361.66 L
S
GR
GS
[0.75 0 0 0.75 0 0] CT
0.149 GC
2 setlinecap
1 LJ
0.667 LW
N
217.667 366 M
217.667 361.66 L
S
GR
GS
[0.75 0 0 0.75 0 0] CT
0.149 GC
2 setlinecap
1 LJ
0.667 LW
N
362.333 366 M
362.333 361.66 L
S
GR
GS
[0.75 0 0 0.75 0 0] CT
0.149 GC
2 setlinecap
1 LJ
0.667 LW
N
507 366 M
507 361.66 L
S
GR
GS
[0.75 0 0 0.75 0 0] CT
0.149 GC
2 setlinecap
1 LJ
0.667 LW
N
73 31 M
73 35.34 L
S
GR
GS
[0.75 0 0 0.75 0 0] CT
0.149 GC
2 setlinecap
1 LJ
0.667 LW
N
217.667 31 M
217.667 35.34 L
S
GR
GS
[0.75 0 0 0.75 0 0] CT
0.149 GC
2 setlinecap
1 LJ
0.667 LW
N
362.333 31 M
362.333 35.34 L
S
GR
GS
[0.75 0 0 0.75 0 0] CT
0.149 GC
2 setlinecap
1 LJ
0.667 LW
N
507 31 M
507 35.34 L
S
GR
GS
[0.75 0 0 0.75 54.75 279.3] CT
0.149 GC
/Times-Roman 18.667 F
GS
[1 0 0 1 0 0] CT
-16.5 18 moveto 
1 -1 scale
(98.5) t 
GR
GR
GS
[0.75 0 0 0.75 163.25 279.3] CT
0.149 GC
/Times-Roman 18.667 F
GS
[1 0 0 1 0 0] CT
-9.5 18 moveto 
1 -1 scale
(99) t 
GR
GR
GS
[0.75 0 0 0.75 271.75001 279.3] CT
0.149 GC
/Times-Roman 18.667 F
GS
[1 0 0 1 0 0] CT
-16.5 18 moveto 
1 -1 scale
(99.5) t 
GR
GR
GS
[0.75 0 0 0.75 380.25 279.3] CT
0.149 GC
/Times-Roman 18.667 F
GS
[1 0 0 1 0 0] CT
-14 18 moveto 
1 -1 scale
(100) t 
GR
GR
GS
[0.75 0 0 0.75 217.5 297] CT
0.149 GC
/Times-Roman 20.533 F
GS
[1 0 0 1 0 0] CT
-32 19 moveto 
1 -1 scale
(time [s]) t 
GR
GR
GS
[0.75 0 0 0.75 0 0] CT
0.149 GC
2 setlinecap
1 LJ
0.667 LW
N
73 366 M
73 31 L
S
GR
GS
[0.75 0 0 0.75 0 0] CT
0.149 GC
2 setlinecap
1 LJ
0.667 LW
N
507 366 M
507 31 L
S
GR
GS
[0.75 0 0 0.75 0 0] CT
0.149 GC
2 setlinecap
1 LJ
0.667 LW
N
73 338.083 M
77.34 338.083 L
S
GR
GS
[0.75 0 0 0.75 0 0] CT
0.149 GC
2 setlinecap
1 LJ
0.667 LW
N
73 282.25 M
77.34 282.25 L
S
GR
GS
[0.75 0 0 0.75 0 0] CT
0.149 GC
2 setlinecap
1 LJ
0.667 LW
N
73 226.417 M
77.34 226.417 L
S
GR
GS
[0.75 0 0 0.75 0 0] CT
0.149 GC
2 setlinecap
1 LJ
0.667 LW
N
73 170.583 M
77.34 170.583 L
S
GR
GS
[0.75 0 0 0.75 0 0] CT
0.149 GC
2 setlinecap
1 LJ
0.667 LW
N
73 114.75 M
77.34 114.75 L
S
GR
GS
[0.75 0 0 0.75 0 0] CT
0.149 GC
2 setlinecap
1 LJ
0.667 LW
N
73 58.917 M
77.34 58.917 L
S
GR
GS
[0.75 0 0 0.75 0 0] CT
0.149 GC
2 setlinecap
1 LJ
0.667 LW
N
507 338.083 M
502.66 338.083 L
S
GR
GS
[0.75 0 0 0.75 0 0] CT
0.149 GC
2 setlinecap
1 LJ
0.667 LW
N
507 282.25 M
502.66 282.25 L
S
GR
GS
[0.75 0 0 0.75 0 0] CT
0.149 GC
2 setlinecap
1 LJ
0.667 LW
N
507 226.417 M
502.66 226.417 L
S
GR
GS
[0.75 0 0 0.75 0 0] CT
0.149 GC
2 setlinecap
1 LJ
0.667 LW
N
507 170.583 M
502.66 170.583 L
S
GR
GS
[0.75 0 0 0.75 0 0] CT
0.149 GC
2 setlinecap
1 LJ
0.667 LW
N
507 114.75 M
502.66 114.75 L
S
GR
GS
[0.75 0 0 0.75 0 0] CT
0.149 GC
2 setlinecap
1 LJ
0.667 LW
N
507 58.917 M
502.66 58.917 L
S
GR
GS
[0.75 0 0 0.75 49.95048 253.56251] CT
0.149 GC
/Times-Roman 18.667 F
GS
[1 0 0 1 0 0] CT
-25 7 moveto 
1 -1 scale
(-20) t 
GR
GR
GS
[0.75 0 0 0.75 49.95048 211.6875] CT
0.149 GC
/Times-Roman 18.667 F
GS
[1 0 0 1 0 0] CT
-10 7 moveto 
1 -1 scale
(0) t 
GR
GR
GS
[0.75 0 0 0.75 49.95048 169.8125] CT
0.149 GC
/Times-Roman 18.667 F
GS
[1 0 0 1 0 0] CT
-19 7 moveto 
1 -1 scale
(20) t 
GR
GR
GS
[0.75 0 0 0.75 49.95048 127.9375] CT
0.149 GC
/Times-Roman 18.667 F
GS
[1 0 0 1 0 0] CT
-19 7 moveto 
1 -1 scale
(40) t 
GR
GR
GS
[0.75 0 0 0.75 49.95048 86.0625] CT
0.149 GC
/Times-Roman 18.667 F
GS
[1 0 0 1 0 0] CT
-19 7 moveto 
1 -1 scale
(60) t 
GR
GR
GS
[0.75 0 0 0.75 49.95048 44.1875] CT
0.149 GC
/Times-Roman 18.667 F
GS
[1 0 0 1 0 0] CT
-19 7 moveto 
1 -1 scale
(80) t 
GR
GR
GS
[0 -0.75 0.75 0 28.19949 148.87489] CT
0.149 GC
/Times-Roman 20.533 F
GS
[1 0 0 1 0 0] CT
-54 -5 moveto 
1 -1 scale
(amplitude [-]) t 
GR
GR
GS
[0.75 0 0 0.75 0 0] CT
0 0.447 0.741 RC
1 LJ
1.333 LW
N
72.948 170.503 M
73 170.583 L
73.289 171.03 L
73.578 171.477 L
73.868 171.923 L
74.157 172.37 L
74.446 172.817 L
74.735 173.263 L
75.026 173.71 L
75.316 174.157 L
75.605 174.603 L
75.894 175.05 L
76.183 175.497 L
76.472 175.943 L
76.761 176.39 L
77.051 176.837 L
77.34 177.283 L
77.629 177.73 L
77.918 178.177 L
78.207 178.623 L
78.497 179.07 L
78.786 179.517 L
79.077 179.963 L
79.366 180.41 L
79.655 180.857 L
79.945 181.303 L
80.234 181.75 L
80.523 182.197 L
80.812 182.643 L
81.101 183.09 L
81.39 183.537 L
81.68 183.983 L
81.969 184.43 L
82.258 184.877 L
82.547 185.323 L
82.836 185.77 L
83.128 186.217 L
83.417 186.663 L
83.706 187.11 L
83.995 187.557 L
84.284 188.003 L
84.574 188.45 L
84.863 188.897 L
85.152 189.343 L
85.441 189.79 L
85.73 190.237 L
86.019 190.683 L
86.309 191.13 L
86.598 191.577 L
86.887 192.023 L
87.178 192.47 L
87.468 192.917 L
87.757 193.363 L
88.046 193.81 L
88.335 194.257 L
88.624 194.703 L
88.913 195.15 L
89.203 195.597 L
89.492 196.043 L
89.781 196.49 L
90.07 196.937 L
90.359 197.383 L
90.648 197.83 L
90.938 198.277 L
91.229 198.723 L
91.518 199.17 L
91.807 199.617 L
92.097 200.063 L
92.386 200.51 L
92.675 200.957 L
92.964 201.403 L
93.253 201.85 L
93.542 202.297 L
93.832 202.743 L
94.121 203.19 L
94.41 203.637 L
94.699 204.083 L
94.988 204.53 L
95.28 204.977 L
95.569 205.423 L
95.858 205.87 L
96.147 206.317 L
96.436 206.763 L
96.726 207.21 L
97.015 207.657 L
97.304 208.103 L
97.593 208.55 L
97.882 208.997 L
98.171 209.443 L
98.461 209.89 L
98.75 210.337 L
99.039 210.783 L
99.33 211.23 L
99.619 211.677 L
99.909 212.123 L
100.198 212.57 L
100.487 213.017 L
100.776 213.463 L
101.065 213.91 L
101.355 214.357 L
101.644 214.803 L
101.933 215.25 L
102.222 215.697 L
102.511 216.143 L
102.8 216.59 L
103.09 217.037 L
103.381 217.483 L
103.67 217.93 L
103.959 218.377 L
104.248 218.823 L
104.538 219.27 L
104.827 219.717 L
105.116 220.163 L
105.405 220.61 L
105.694 221.057 L
105.984 221.503 L
106.273 221.95 L
106.562 222.397 L
106.851 222.843 L
107.14 223.29 L
107.432 223.737 L
107.721 224.183 L
108.01 224.63 L
108.299 225.077 L
108.588 225.523 L
108.877 225.97 L
109.167 226.417 L
109.456 226.863 L
109.745 227.31 L
110.034 227.757 L
110.323 228.203 L
110.613 228.65 L
110.902 229.097 L
111.193 229.543 L
111.482 229.99 L
111.771 230.437 L
112.061 230.883 L
112.35 231.33 L
112.639 231.777 L
112.928 232.223 L
113.217 232.67 L
113.506 233.117 L
113.796 233.563 L
114.085 234.01 L
114.374 234.457 L
114.663 234.903 L
114.952 235.35 L
115.244 235.797 L
115.533 236.243 L
115.822 236.69 L
116.111 237.137 L
116.4 237.583 L
116.69 238.03 L
116.979 238.477 L
117.268 238.923 L
117.557 239.37 L
117.846 239.817 L
118.135 240.263 L
118.425 240.71 L
118.714 241.157 L
119.003 241.603 L
119.294 242.05 L
119.584 242.497 L
119.873 242.943 L
120.162 243.39 L
120.451 243.837 L
120.74 244.283 L
121.029 244.73 L
121.319 245.177 L
121.608 245.623 L
121.897 246.07 L
122.186 246.517 L
122.475 246.963 L
122.764 247.41 L
123.054 247.857 L
123.345 248.303 L
123.634 248.75 L
123.923 249.197 L
124.213 249.643 L
124.502 250.09 L
124.791 250.537 L
125.08 250.983 L
125.369 251.43 L
125.658 251.877 L
125.948 252.323 L
126.237 252.77 L
126.526 253.217 L
126.815 253.663 L
127.104 254.11 L
127.396 254.557 L
127.685 255.003 L
127.974 255.45 L
128.263 255.897 L
128.552 256.343 L
128.842 256.79 L
129.131 257.237 L
129.42 257.683 L
129.709 258.13 L
129.998 258.577 L
130.287 259.023 L
130.577 259.47 L
130.866 259.917 L
131.155 260.363 L
131.446 260.81 L
131.736 261.257 L
132.025 261.703 L
132.314 262.15 L
132.603 262.597 L
132.892 263.043 L
133.181 263.49 L
133.471 263.937 L
133.76 264.383 L
134.049 264.83 L
134.338 265.277 L
134.627 265.723 L
134.916 266.17 L
135.206 266.617 L
135.497 267.063 L
135.786 267.51 L
136.075 267.957 L
136.365 268.403 L
136.654 268.85 L
136.943 269.297 L
137.232 269.743 L
137.521 270.19 L
137.81 270.637 L
138.1 271.083 L
138.389 271.53 L
138.678 271.977 L
138.967 272.423 L
139.256 272.87 L
139.548 273.317 L
139.837 273.763 L
140.126 274.21 L
140.415 274.657 L
140.704 275.103 L
140.994 275.55 L
141.283 275.997 L
141.572 276.443 L
141.861 276.89 L
142.15 277.337 L
142.439 277.783 L
142.729 278.23 L
143.018 278.677 L
143.307 279.123 L
143.598 279.57 L
143.887 280.017 L
144.177 280.463 L
144.466 280.91 L
144.755 281.357 L
145.044 281.803 L
145.333 282.25 L
145.623 282.697 L
145.912 283.143 L
146.201 283.59 L
146.49 284.037 L
146.779 284.483 L
147.068 284.93 L
147.36 285.377 L
147.649 285.823 L
147.938 286.27 L
148.227 286.717 L
148.516 287.163 L
148.806 287.61 L
149.095 288.057 L
149.384 288.503 L
149.673 288.95 L
149.962 289.397 L
150.252 289.843 L
150.541 290.29 L
150.83 290.737 L
151.119 291.183 L
151.41 291.63 L
151.7 292.077 L
151.989 292.523 L
152.278 292.97 L
152.567 293.417 L
152.856 293.863 L
153.145 294.31 L
153.435 294.757 L
153.724 295.203 L
154.013 295.65 L
154.302 296.097 L
154.591 296.543 L
154.881 296.99 L
155.17 297.437 L
155.461 297.883 L
155.75 298.33 L
156.039 298.777 L
156.329 299.223 L
156.618 299.67 L
156.907 300.117 L
157.196 300.563 L
157.485 301.01 L
157.774 301.457 L
158.064 301.903 L
158.353 302.35 L
158.642 302.797 L
158.931 303.243 L
159.22 303.69 L
159.512 304.137 L
159.801 304.583 L
160.09 305.03 L
160.379 305.477 L
160.668 305.923 L
160.958 306.37 L
161.247 306.817 L
161.536 307.263 L
161.825 307.71 L
162.114 308.157 L
162.403 308.603 L
162.693 309.05 L
162.982 309.497 L
163.271 309.943 L
163.562 310.39 L
163.852 310.837 L
164.141 311.283 L
164.43 311.73 L
164.719 312.177 L
165.008 312.623 L
165.297 313.07 L
165.587 313.517 L
165.876 313.963 L
166.165 314.41 L
166.454 314.857 L
166.743 315.303 L
167.032 315.75 L
167.322 316.197 L
167.613 316.643 L
167.902 317.09 L
168.191 317.537 L
168.481 317.983 L
168.77 318.43 L
169.059 318.877 L
169.348 319.323 L
169.637 319.77 L
169.926 320.217 L
170.216 320.663 L
170.505 321.11 L
170.794 321.557 L
171.083 322.003 L
171.372 322.45 L
171.664 322.897 L
171.953 323.343 L
172.242 323.79 L
172.531 324.237 L
172.82 324.683 L
173.11 325.13 L
173.399 325.577 L
173.688 326.023 L
173.977 326.47 L
174.266 326.917 L
174.555 327.363 L
174.845 327.81 L
175.134 328.257 L
175.423 328.703 L
175.714 329.15 L
176.003 329.597 L
176.293 330.043 L
176.582 330.49 L
176.871 330.937 L
177.16 331.383 L
177.449 331.83 L
177.739 332.277 L
178.028 332.723 L
178.317 333.17 L
178.606 333.617 L
178.895 334.063 L
179.184 334.51 L
179.474 334.957 L
179.765 335.403 L
180.054 335.85 L
180.343 336.297 L
180.632 336.743 L
180.922 337.19 L
181.211 337.637 L
181.5 338.083 L
181.789 337.637 L
182.078 337.19 L
182.368 336.743 L
182.657 336.297 L
182.946 335.85 L
183.235 335.403 L
183.526 334.957 L
183.816 334.51 L
184.105 334.063 L
184.394 333.617 L
184.683 333.17 L
184.972 332.723 L
185.261 332.277 L
185.551 331.83 L
185.84 331.383 L
186.129 330.937 L
186.418 330.49 L
186.707 330.043 L
186.997 329.597 L
187.286 329.15 L
187.577 328.703 L
187.866 328.257 L
188.155 327.81 L
188.445 327.363 L
188.734 326.917 L
189.023 326.47 L
189.312 326.023 L
189.601 325.577 L
189.89 325.13 L
190.18 324.683 L
190.469 324.237 L
190.758 323.79 L
191.047 323.343 L
191.336 322.897 L
191.628 322.45 L
191.917 322.003 L
192.206 321.557 L
192.495 321.11 L
192.784 320.663 L
193.074 320.217 L
193.363 319.77 L
193.652 319.323 L
193.941 318.877 L
194.23 318.43 L
194.519 317.983 L
194.809 317.537 L
195.098 317.09 L
195.387 316.643 L
195.678 316.197 L
195.968 315.75 L
196.257 315.303 L
196.546 314.857 L
196.835 314.41 L
197.124 313.963 L
197.413 313.517 L
197.703 313.07 L
197.992 312.623 L
198.281 312.177 L
198.57 311.73 L
198.859 311.283 L
199.148 310.837 L
199.438 310.39 L
199.729 309.943 L
200.018 309.497 L
200.307 309.05 L
200.597 308.603 L
200.886 308.157 L
201.175 307.71 L
201.464 307.263 L
201.753 306.817 L
202.042 306.37 L
202.332 305.923 L
202.621 305.477 L
202.91 305.03 L
203.199 304.583 L
203.488 304.137 L
203.78 303.69 L
204.069 303.243 L
204.358 302.797 L
204.647 302.35 L
204.936 301.903 L
205.226 301.457 L
205.515 301.01 L
205.804 300.563 L
206.093 300.117 L
206.382 299.67 L
206.671 299.223 L
206.961 298.777 L
207.25 298.33 L
207.539 297.883 L
207.83 297.437 L
208.119 296.99 L
208.409 296.543 L
208.698 296.097 L
208.987 295.65 L
209.276 295.203 L
209.565 294.757 L
209.855 294.31 L
210.144 293.863 L
210.433 293.417 L
210.722 292.97 L
211.011 292.523 L
211.3 292.077 L
211.59 291.63 L
211.881 291.183 L
212.17 290.737 L
212.459 290.29 L
212.748 289.843 L
213.038 289.397 L
213.327 288.95 L
213.616 288.503 L
213.905 288.057 L
214.194 287.61 L
214.484 287.163 L
214.773 286.717 L
215.062 286.27 L
215.351 285.823 L
215.64 285.377 L
215.932 284.93 L
216.221 284.483 L
216.51 284.037 L
216.799 283.59 L
217.088 283.143 L
217.377 282.697 L
217.667 282.25 L
217.956 281.803 L
218.245 281.357 L
218.534 280.91 L
218.823 280.463 L
219.113 280.017 L
219.402 279.57 L
219.693 279.123 L
219.982 278.677 L
220.271 278.23 L
220.561 277.783 L
220.85 277.337 L
221.139 276.89 L
221.428 276.443 L
221.717 275.997 L
222.006 275.55 L
222.296 275.103 L
222.585 274.657 L
222.874 274.21 L
223.163 273.763 L
223.452 273.317 L
223.744 272.87 L
224.033 272.423 L
224.322 271.977 L
224.611 271.53 L
224.9 271.083 L
225.19 270.637 L
225.479 270.19 L
225.768 269.743 L
226.057 269.297 L
226.346 268.85 L
226.635 268.403 L
226.925 267.957 L
227.214 267.51 L
227.503 267.063 L
227.794 266.617 L
228.084 266.17 L
228.373 265.723 L
228.662 265.277 L
228.951 264.83 L
229.24 264.383 L
229.529 263.937 L
229.819 263.49 L
230.108 263.043 L
230.397 262.597 L
230.686 262.15 L
230.975 261.703 L
231.264 261.257 L
231.554 260.81 L
231.845 260.363 L
232.134 259.917 L
232.423 259.47 L
232.713 259.023 L
233.002 258.577 L
233.291 258.13 L
233.58 257.683 L
233.869 257.237 L
234.158 256.79 L
234.448 256.343 L
234.737 255.897 L
235.026 255.45 L
235.315 255.003 L
235.604 254.557 L
235.896 254.11 L
236.185 253.663 L
236.474 253.217 L
236.763 252.77 L
237.052 252.323 L
237.342 251.877 L
237.631 251.43 L
237.92 250.983 L
238.209 250.537 L
238.498 250.09 L
238.787 249.643 L
239.077 249.197 L
239.366 248.75 L
239.655 248.303 L
239.946 247.857 L
240.236 247.41 L
240.525 246.963 L
240.814 246.517 L
241.103 246.07 L
241.392 245.623 L
241.681 245.177 L
241.971 244.73 L
242.26 244.283 L
242.549 243.837 L
242.838 243.39 L
243.127 242.943 L
243.416 242.497 L
243.706 242.05 L
243.997 241.603 L
244.286 241.157 L
244.575 240.71 L
244.865 240.263 L
245.154 239.817 L
245.443 239.37 L
245.732 238.923 L
246.021 238.477 L
246.31 238.03 L
246.6 237.583 L
246.889 237.137 L
247.178 236.69 L
247.467 236.243 L
247.756 235.797 L
248.048 235.35 L
248.337 234.903 L
248.626 234.457 L
248.915 234.01 L
249.204 233.563 L
249.494 233.117 L
249.783 232.67 L
250.072 232.223 L
250.361 231.777 L
250.65 231.33 L
250.939 230.883 L
251.229 230.437 L
251.518 229.99 L
251.807 229.543 L
252.098 229.097 L
252.387 228.65 L
252.677 228.203 L
252.966 227.757 L
253.255 227.31 L
253.544 226.863 L
253.833 226.417 L
254.123 225.97 L
254.412 225.523 L
254.701 225.077 L
254.99 224.63 L
255.279 224.183 L
255.568 223.737 L
255.86 223.29 L
256.149 222.843 L
256.438 222.397 L
256.727 221.95 L
257.016 221.503 L
257.306 221.057 L
257.595 220.61 L
257.884 220.163 L
258.173 219.717 L
258.462 219.27 L
258.751 218.823 L
259.041 218.377 L
259.33 217.93 L
259.619 217.483 L
259.91 217.037 L
260.2 216.59 L
260.489 216.143 L
260.778 215.697 L
261.067 215.25 L
261.356 214.803 L
261.645 214.357 L
261.935 213.91 L
262.224 213.463 L
262.513 213.017 L
262.802 212.57 L
263.091 212.123 L
263.38 211.677 L
263.67 211.23 L
263.961 210.783 L
264.25 210.337 L
264.539 209.89 L
264.829 209.443 L
265.118 208.997 L
265.407 208.55 L
265.696 208.103 L
265.985 207.657 L
266.274 207.21 L
266.564 206.763 L
266.853 206.317 L
267.142 205.87 L
267.431 205.423 L
267.72 204.977 L
268.012 204.53 L
268.301 204.083 L
268.59 203.637 L
268.879 203.19 L
269.168 202.743 L
269.458 202.297 L
269.747 201.85 L
270.036 201.403 L
270.325 200.957 L
270.614 200.51 L
270.903 200.063 L
271.193 199.617 L
271.482 199.17 L
271.771 198.723 L
272.062 198.277 L
272.352 197.83 L
272.641 197.383 L
272.93 196.937 L
273.219 196.49 L
273.508 196.043 L
273.797 195.597 L
274.087 195.15 L
274.376 194.703 L
274.665 194.257 L
274.954 193.81 L
275.243 193.363 L
275.532 192.917 L
275.822 192.47 L
276.113 192.023 L
276.402 191.577 L
276.691 191.13 L
276.981 190.683 L
277.27 190.237 L
277.559 189.79 L
277.848 189.343 L
278.137 188.897 L
278.426 188.45 L
278.716 188.003 L
279.005 187.557 L
279.294 187.11 L
279.583 186.663 L
279.872 186.217 L
280.164 185.77 L
280.453 185.323 L
280.742 184.877 L
281.031 184.43 L
281.32 183.983 L
281.61 183.537 L
281.899 183.09 L
282.188 182.643 L
282.477 182.197 L
282.766 181.75 L
283.055 181.303 L
283.345 180.857 L
283.634 180.41 L
283.923 179.963 L
284.214 179.517 L
284.503 179.07 L
284.793 178.623 L
285.082 178.177 L
285.371 177.73 L
285.66 177.283 L
285.949 176.837 L
286.239 176.39 L
286.528 175.943 L
286.817 175.497 L
287.106 175.05 L
287.395 174.603 L
287.684 174.157 L
287.974 173.71 L
288.265 173.263 L
288.554 172.817 L
288.843 172.37 L
289.132 171.923 L
289.422 171.477 L
289.711 171.03 L
290 170.583 L
290.289 170.137 L
290.578 169.69 L
290.868 169.243 L
291.157 168.797 L
291.446 168.35 L
291.735 167.903 L
292.026 167.457 L
292.316 167.01 L
292.605 166.563 L
292.894 166.117 L
293.183 165.67 L
293.472 165.223 L
293.761 164.777 L
294.051 164.33 L
294.34 163.883 L
294.629 163.437 L
294.918 162.99 L
295.207 162.543 L
295.497 162.097 L
295.786 161.65 L
296.077 161.203 L
296.366 160.757 L
296.655 160.31 L
296.945 159.863 L
297.234 159.417 L
297.523 158.97 L
297.812 158.523 L
298.101 158.077 L
298.39 157.63 L
298.68 157.183 L
298.969 156.737 L
299.258 156.29 L
299.547 155.843 L
299.836 155.397 L
300.128 154.95 L
300.417 154.503 L
300.706 154.057 L
300.995 153.61 L
301.284 153.163 L
301.574 152.717 L
301.863 152.27 L
302.152 151.823 L
302.441 151.377 L
302.73 150.93 L
303.019 150.483 L
303.309 150.037 L
303.598 149.59 L
303.887 149.143 L
304.178 148.697 L
304.468 148.25 L
304.757 147.803 L
305.046 147.357 L
305.335 146.91 L
305.624 146.463 L
305.913 146.017 L
306.203 145.57 L
306.492 145.123 L
306.781 144.677 L
307.07 144.23 L
307.359 143.783 L
307.648 143.337 L
307.938 142.89 L
308.229 142.443 L
308.518 141.997 L
308.807 141.55 L
309.097 141.103 L
309.386 140.657 L
309.675 140.21 L
309.964 139.763 L
310.253 139.317 L
310.542 138.87 L
310.832 138.423 L
311.121 137.977 L
311.41 137.53 L
311.699 137.083 L
311.988 136.637 L
312.28 136.19 L
312.569 135.743 L
312.858 135.297 L
313.147 134.85 L
313.436 134.403 L
313.726 133.957 L
314.015 133.51 L
314.304 133.063 L
314.593 132.617 L
314.882 132.17 L
315.171 131.723 L
315.461 131.277 L
315.75 130.83 L
316.039 130.383 L
316.33 129.937 L
316.62 129.49 L
316.909 129.043 L
317.198 128.597 L
317.487 128.15 L
317.776 127.703 L
318.065 127.257 L
318.355 126.81 L
318.644 126.363 L
318.933 125.917 L
319.222 125.47 L
319.511 125.023 L
319.8 124.577 L
320.09 124.13 L
320.381 123.683 L
320.67 123.237 L
320.959 122.79 L
321.249 122.343 L
321.538 121.897 L
321.827 121.45 L
322.116 121.003 L
322.405 120.557 L
322.694 120.11 L
322.984 119.663 L
323.273 119.217 L
323.562 118.77 L
323.851 118.323 L
324.14 117.877 L
324.432 117.43 L
324.721 116.983 L
325.01 116.537 L
325.299 116.09 L
325.588 115.643 L
325.878 115.197 L
326.167 114.75 L
326.456 115.197 L
326.745 115.643 L
327.034 116.09 L
327.323 116.537 L
327.613 116.983 L
327.902 117.43 L
328.193 117.877 L
328.482 118.323 L
328.771 118.77 L
329.061 119.217 L
329.35 119.663 L
329.639 120.11 L
329.928 120.557 L
330.217 121.003 L
330.507 121.45 L
330.796 121.897 L
331.085 122.343 L
331.374 122.79 L
331.663 123.237 L
331.952 123.683 L
332.244 124.13 L
332.533 124.577 L
332.822 125.023 L
333.111 125.47 L
333.4 125.917 L
333.69 126.363 L
333.979 126.81 L
334.268 127.257 L
334.557 127.703 L
334.846 128.15 L
335.135 128.597 L
335.425 129.043 L
335.714 129.49 L
336.003 129.937 L
336.294 130.383 L
336.584 130.83 L
336.873 131.277 L
337.162 131.723 L
337.451 132.17 L
337.74 132.617 L
338.029 133.063 L
338.319 133.51 L
338.608 133.957 L
338.897 134.403 L
339.186 134.85 L
339.475 135.297 L
339.764 135.743 L
340.054 136.19 L
340.345 136.637 L
340.634 137.083 L
340.923 137.53 L
341.213 137.977 L
341.502 138.423 L
341.791 138.87 L
342.08 139.317 L
342.369 139.763 L
342.658 140.21 L
342.948 140.657 L
343.237 141.103 L
343.526 141.55 L
343.815 141.997 L
344.104 142.443 L
344.396 142.89 L
344.685 143.337 L
344.974 143.783 L
345.263 144.23 L
345.552 144.677 L
345.842 145.123 L
346.131 145.57 L
346.42 146.017 L
346.709 146.463 L
346.998 146.91 L
347.287 147.357 L
347.577 147.803 L
347.866 148.25 L
348.155 148.697 L
348.446 149.143 L
348.736 149.59 L
349.025 150.037 L
349.314 150.483 L
349.603 150.93 L
349.892 151.377 L
350.181 151.823 L
350.471 152.27 L
350.76 152.717 L
351.049 153.163 L
351.338 153.61 L
351.627 154.057 L
351.916 154.503 L
352.206 154.95 L
352.497 155.397 L
352.786 155.843 L
353.075 156.29 L
353.365 156.737 L
353.654 157.183 L
353.943 157.63 L
354.232 158.077 L
354.521 158.523 L
354.81 158.97 L
355.1 159.417 L
355.389 159.863 L
355.678 160.31 L
355.967 160.757 L
356.256 161.203 L
356.548 161.65 L
356.837 162.097 L
357.126 162.543 L
357.415 162.99 L
357.704 163.437 L
357.993 163.883 L
358.283 164.33 L
358.572 164.777 L
358.861 165.223 L
359.15 165.67 L
359.439 166.117 L
359.729 166.563 L
360.018 167.01 L
360.307 167.457 L
360.598 167.903 L
360.887 168.35 L
361.177 168.797 L
361.466 169.243 L
361.755 169.69 L
362.044 170.137 L
362.333 170.583 L
362.622 171.03 L
362.912 171.477 L
363.201 171.923 L
363.49 172.37 L
363.779 172.817 L
364.068 173.263 L
364.36 173.71 L
364.649 174.157 L
364.938 174.603 L
365.227 175.05 L
365.516 175.497 L
365.806 175.943 L
366.095 176.39 L
366.384 176.837 L
366.673 177.283 L
366.962 177.73 L
367.251 178.177 L
367.541 178.623 L
367.83 179.07 L
368.119 179.517 L
368.41 179.963 L
368.7 180.41 L
368.989 180.857 L
369.278 181.303 L
369.567 181.75 L
369.856 182.197 L
370.145 182.643 L
370.435 183.09 L
370.724 183.537 L
371.013 183.983 L
371.302 184.43 L
371.591 184.877 L
371.88 185.323 L
372.17 185.77 L
372.461 186.217 L
372.75 186.663 L
373.039 187.11 L
373.329 187.557 L
373.618 188.003 L
373.907 188.45 L
374.196 188.897 L
374.485 189.343 L
374.774 189.79 L
375.064 190.237 L
375.353 190.683 L
375.642 191.13 L
375.931 191.577 L
376.22 192.023 L
376.512 192.47 L
376.801 192.917 L
377.09 193.363 L
377.379 193.81 L
377.668 194.257 L
377.958 194.703 L
378.247 195.15 L
378.536 195.597 L
378.825 196.043 L
379.114 196.49 L
379.403 196.937 L
379.693 197.383 L
379.982 197.83 L
380.271 198.277 L
380.562 198.723 L
380.852 199.17 L
381.141 199.617 L
381.43 200.063 L
381.719 200.51 L
382.008 200.957 L
382.297 201.403 L
382.587 201.85 L
382.876 202.297 L
383.165 202.743 L
383.454 203.19 L
383.743 203.637 L
384.032 204.083 L
384.322 204.53 L
384.613 204.977 L
384.902 205.423 L
385.191 205.87 L
385.481 206.317 L
385.77 206.763 L
386.059 207.21 L
386.348 207.657 L
386.637 208.103 L
386.926 208.55 L
387.216 208.997 L
387.505 209.443 L
387.794 209.89 L
388.083 210.337 L
388.372 210.783 L
388.664 211.23 L
388.953 211.677 L
389.242 212.123 L
389.531 212.57 L
389.82 213.017 L
390.11 213.463 L
390.399 213.91 L
390.688 214.357 L
390.977 214.803 L
391.266 215.25 L
391.555 215.697 L
391.845 216.143 L
392.134 216.59 L
392.423 217.037 L
392.714 217.483 L
393.003 217.93 L
393.293 218.377 L
393.582 218.823 L
393.871 219.27 L
394.16 219.717 L
394.449 220.163 L
394.739 220.61 L
395.028 221.057 L
395.317 221.503 L
395.606 221.95 L
395.895 222.397 L
396.184 222.843 L
396.474 223.29 L
396.765 223.737 L
397.054 224.183 L
397.343 224.63 L
397.632 225.077 L
397.922 225.523 L
398.211 225.97 L
398.5 226.417 L
398.789 226.863 L
399.078 227.31 L
399.368 227.757 L
399.657 228.203 L
399.946 228.65 L
400.235 229.097 L
400.526 229.543 L
400.816 229.99 L
401.105 230.437 L
401.394 230.883 L
401.683 231.33 L
401.972 231.777 L
402.261 232.223 L
402.551 232.67 L
402.84 233.117 L
403.129 233.563 L
403.418 234.01 L
403.707 234.457 L
403.997 234.903 L
404.286 235.35 L
404.577 235.797 L
404.866 236.243 L
405.155 236.69 L
405.445 237.137 L
405.734 237.583 L
406.023 238.03 L
406.312 238.477 L
406.601 238.923 L
406.89 239.37 L
407.18 239.817 L
407.469 240.263 L
407.758 240.71 L
408.047 241.157 L
408.336 241.603 L
408.628 242.05 L
408.917 242.497 L
409.206 242.943 L
409.495 243.39 L
409.784 243.837 L
410.074 244.283 L
410.363 244.73 L
410.652 245.177 L
410.941 245.623 L
411.23 246.07 L
411.519 246.517 L
411.809 246.963 L
412.098 247.41 L
412.387 247.857 L
412.678 248.303 L
412.968 248.75 L
413.257 249.197 L
413.546 249.643 L
413.835 250.09 L
414.124 250.537 L
414.413 250.983 L
414.703 251.43 L
414.992 251.877 L
415.281 252.323 L
415.57 252.77 L
415.859 253.217 L
416.148 253.663 L
416.438 254.11 L
416.729 254.557 L
417.018 255.003 L
417.307 255.45 L
417.597 255.897 L
417.886 256.343 L
418.175 256.79 L
418.464 257.237 L
418.753 257.683 L
419.042 258.13 L
419.332 258.577 L
419.621 259.023 L
419.91 259.47 L
420.199 259.917 L
420.488 260.363 L
420.78 260.81 L
421.069 261.257 L
421.358 261.703 L
421.647 262.15 L
421.936 262.597 L
422.226 263.043 L
422.515 263.49 L
422.804 263.937 L
423.093 264.383 L
423.382 264.83 L
423.671 265.277 L
423.961 265.723 L
424.25 266.17 L
424.539 266.617 L
424.83 267.063 L
425.12 267.51 L
425.409 267.957 L
425.698 268.403 L
425.987 268.85 L
426.276 269.297 L
426.565 269.743 L
426.855 270.19 L
427.144 270.637 L
427.433 271.083 L
427.722 271.53 L
428.011 271.977 L
428.3 272.423 L
428.59 272.87 L
428.881 273.317 L
429.17 273.763 L
429.459 274.21 L
429.749 274.657 L
430.038 275.103 L
430.327 275.55 L
430.616 275.997 L
430.905 276.443 L
431.194 276.89 L
431.484 277.337 L
431.773 277.783 L
432.062 278.23 L
432.351 278.677 L
432.64 279.123 L
432.932 279.57 L
433.221 280.017 L
433.51 280.463 L
433.799 280.91 L
434.088 281.357 L
434.378 281.803 L
434.667 282.25 L
434.956 282.697 L
435.245 283.143 L
435.534 283.59 L
435.823 284.037 L
436.113 284.483 L
436.402 284.93 L
436.693 285.377 L
436.982 285.823 L
437.271 286.27 L
437.561 286.717 L
437.85 287.163 L
438.139 287.61 L
438.428 288.057 L
438.717 288.503 L
439.007 288.95 L
439.296 289.397 L
439.585 289.843 L
439.874 290.29 L
440.163 290.737 L
440.452 291.183 L
440.744 291.63 L
441.033 292.077 L
441.322 292.523 L
441.611 292.97 L
441.9 293.417 L
442.19 293.863 L
442.479 294.31 L
442.768 294.757 L
443.057 295.203 L
443.346 295.65 L
443.635 296.097 L
443.925 296.543 L
444.214 296.99 L
444.503 297.437 L
444.794 297.883 L
445.084 298.33 L
445.373 298.777 L
445.662 299.223 L
445.951 299.67 L
446.24 300.117 L
446.529 300.563 L
446.819 301.01 L
447.108 301.457 L
447.397 301.903 L
447.686 302.35 L
447.975 302.797 L
448.264 303.243 L
448.554 303.69 L
448.845 304.137 L
449.134 304.583 L
449.423 305.03 L
449.713 305.477 L
450.002 305.923 L
450.291 306.37 L
450.58 306.817 L
450.869 307.263 L
451.158 307.71 L
451.448 308.157 L
451.737 308.603 L
452.026 309.05 L
452.315 309.497 L
452.604 309.943 L
452.896 310.39 L
453.185 310.837 L
453.474 311.283 L
453.763 311.73 L
454.052 312.177 L
454.342 312.623 L
454.631 313.07 L
454.92 313.517 L
455.209 313.963 L
455.498 314.41 L
455.787 314.857 L
456.077 315.303 L
456.366 315.75 L
456.655 316.197 L
456.946 316.643 L
457.236 317.09 L
457.525 317.537 L
457.814 317.983 L
458.103 318.43 L
458.392 318.877 L
458.681 319.323 L
458.971 319.77 L
459.26 320.217 L
459.549 320.663 L
459.838 321.11 L
460.127 321.557 L
460.416 322.003 L
460.706 322.45 L
460.997 322.897 L
461.286 323.343 L
461.575 323.79 L
461.865 324.237 L
462.154 324.683 L
462.443 325.13 L
462.732 325.577 L
463.021 326.023 L
463.31 326.47 L
463.6 326.917 L
463.889 327.363 L
464.178 327.81 L
464.467 328.257 L
464.756 328.703 L
465.048 329.15 L
465.337 329.597 L
465.626 330.043 L
465.915 330.49 L
466.204 330.937 L
466.493 331.383 L
466.783 331.83 L
467.072 332.277 L
467.361 332.723 L
467.65 333.17 L
467.939 333.617 L
468.229 334.063 L
468.518 334.51 L
468.807 334.957 L
469.098 335.403 L
469.387 335.85 L
469.677 336.297 L
469.966 336.743 L
470.255 337.19 L
470.544 337.637 L
470.833 338.083 L
471.122 337.637 L
471.412 337.19 L
471.701 336.743 L
471.99 336.297 L
472.279 335.85 L
472.568 335.403 L
472.86 334.957 L
473.149 334.51 L
473.438 334.063 L
473.727 333.617 L
474.016 333.17 L
474.306 332.723 L
474.595 332.277 L
474.884 331.83 L
475.173 331.383 L
475.462 330.937 L
475.751 330.49 L
476.041 330.043 L
476.33 329.597 L
476.619 329.15 L
476.91 328.703 L
477.2 328.257 L
477.489 327.81 L
477.778 327.363 L
478.067 326.917 L
478.356 326.47 L
478.645 326.023 L
478.935 325.577 L
479.224 325.13 L
479.513 324.683 L
479.802 324.237 L
480.091 323.79 L
480.38 323.343 L
480.67 322.897 L
480.961 322.45 L
481.25 322.003 L
481.539 321.557 L
481.829 321.11 L
482.118 320.663 L
482.407 320.217 L
482.696 319.77 L
482.985 319.323 L
483.274 318.877 L
483.564 318.43 L
483.853 317.983 L
484.142 317.537 L
484.431 317.09 L
484.72 316.643 L
485.012 316.197 L
485.301 315.75 L
485.59 315.303 L
485.879 314.857 L
486.168 314.41 L
486.458 313.963 L
486.747 313.517 L
487.036 313.07 L
487.325 312.623 L
487.614 312.177 L
487.903 311.73 L
488.193 311.283 L
488.482 310.837 L
488.771 310.39 L
489.062 309.943 L
489.352 309.497 L
489.641 309.05 L
489.93 308.603 L
490.219 308.157 L
490.508 307.71 L
490.797 307.263 L
491.087 306.817 L
491.376 306.37 L
491.665 305.923 L
491.954 305.477 L
492.243 305.03 L
492.532 304.583 L
492.822 304.137 L
493.113 303.69 L
493.402 303.243 L
493.691 302.797 L
493.981 302.35 L
494.27 301.903 L
494.559 301.457 L
494.848 301.01 L
495.137 300.563 L
495.426 300.117 L
495.716 299.67 L
496.005 299.223 L
496.294 298.777 L
496.583 298.33 L
496.872 297.883 L
497.164 297.437 L
497.453 296.99 L
497.742 296.543 L
498.031 296.097 L
498.32 295.65 L
498.61 295.203 L
498.899 294.757 L
499.188 294.31 L
499.477 293.863 L
499.766 293.417 L
500.055 292.97 L
500.345 292.523 L
500.634 292.077 L
500.923 291.63 L
501.214 291.183 L
501.503 290.737 L
501.793 290.29 L
502.082 289.843 L
502.371 289.397 L
502.66 288.95 L
502.949 288.503 L
503.239 288.057 L
503.528 287.61 L
503.817 287.163 L
504.106 286.717 L
504.395 286.27 L
504.684 285.823 L
504.974 285.377 L
505.265 284.93 L
505.554 284.483 L
505.843 284.037 L
506.132 283.59 L
506.422 283.143 L
506.711 282.697 L
S
GR
GS
[0.75 0 0 0.75 0 0] CT
0.851 0.325 0.098 RC
1 LJ
1.333 LW
N
72.948 170.706 M
73 170.796 L
73.289 171.297 L
73.578 171.798 L
73.868 172.298 L
74.157 172.797 L
74.446 173.295 L
74.735 173.792 L
75.026 174.288 L
75.316 174.782 L
75.605 175.275 L
75.894 175.766 L
76.183 176.255 L
76.472 176.744 L
76.761 177.23 L
77.051 177.714 L
77.34 178.197 L
77.629 178.678 L
77.918 179.157 L
78.207 179.634 L
78.497 180.109 L
78.786 180.583 L
79.077 181.054 L
79.366 181.523 L
79.655 181.99 L
79.945 182.455 L
80.234 182.917 L
80.523 183.378 L
80.812 183.837 L
81.101 184.294 L
81.39 184.748 L
81.68 185.201 L
81.969 185.651 L
82.258 186.099 L
82.547 186.546 L
82.836 186.99 L
83.128 187.433 L
83.417 187.874 L
83.706 188.312 L
83.995 188.749 L
84.284 189.185 L
84.574 189.618 L
84.863 190.05 L
85.152 190.48 L
85.441 190.909 L
85.73 191.336 L
86.019 191.762 L
86.309 192.186 L
86.598 192.609 L
86.887 193.031 L
87.178 193.451 L
87.468 193.871 L
87.757 194.289 L
88.046 194.706 L
88.335 195.123 L
88.624 195.538 L
88.913 195.953 L
89.203 196.367 L
89.492 196.78 L
89.781 197.192 L
90.07 197.604 L
90.359 198.016 L
90.648 198.427 L
90.938 198.838 L
91.229 199.248 L
91.518 199.659 L
91.807 200.069 L
92.097 200.479 L
92.386 200.889 L
92.675 201.299 L
92.964 201.709 L
93.253 202.12 L
93.542 202.53 L
93.832 202.941 L
94.121 203.352 L
94.41 203.763 L
94.699 204.175 L
94.988 204.588 L
95.28 205.001 L
95.569 205.414 L
95.858 205.828 L
96.147 206.243 L
96.436 206.658 L
96.726 207.074 L
97.015 207.491 L
97.304 207.909 L
97.593 208.328 L
97.882 208.747 L
98.171 209.167 L
98.461 209.589 L
98.75 210.011 L
99.039 210.434 L
99.33 210.858 L
99.619 211.283 L
99.909 211.709 L
100.198 212.137 L
100.487 212.565 L
100.776 212.994 L
101.065 213.425 L
101.355 213.856 L
101.644 214.289 L
101.933 214.723 L
102.222 215.158 L
102.511 215.594 L
102.8 216.031 L
103.09 216.469 L
103.381 216.908 L
103.67 217.348 L
103.959 217.79 L
104.248 218.232 L
104.538 218.676 L
104.827 219.121 L
105.116 219.566 L
105.405 220.013 L
105.694 220.461 L
105.984 220.91 L
106.273 221.359 L
106.562 221.81 L
106.851 222.262 L
107.14 222.714 L
107.432 223.168 L
107.721 223.622 L
108.01 224.077 L
108.299 224.534 L
108.588 224.99 L
108.877 225.448 L
109.167 225.906 L
109.456 226.366 L
109.745 226.825 L
110.034 227.286 L
110.323 227.747 L
110.613 228.209 L
110.902 228.671 L
111.193 229.134 L
111.482 229.598 L
111.771 230.061 L
112.061 230.526 L
112.35 230.991 L
112.639 231.456 L
112.928 231.922 L
113.217 232.387 L
113.506 232.854 L
113.796 233.32 L
114.085 233.787 L
114.374 234.254 L
114.663 234.721 L
114.952 235.189 L
115.244 235.656 L
115.533 236.124 L
115.822 236.592 L
116.111 237.059 L
116.4 237.527 L
116.69 237.995 L
116.979 238.463 L
117.268 238.93 L
117.557 239.398 L
117.846 239.865 L
118.135 240.333 L
118.425 240.8 L
118.714 241.267 L
119.003 241.734 L
119.294 242.2 L
119.584 242.666 L
119.873 243.132 L
120.162 243.598 L
120.451 244.063 L
120.74 244.528 L
121.029 244.993 L
121.319 245.457 L
121.608 245.921 L
121.897 246.385 L
122.186 246.848 L
122.475 247.311 L
122.764 247.773 L
123.054 248.235 L
123.345 248.696 L
123.634 249.157 L
123.923 249.617 L
124.213 250.077 L
124.502 250.536 L
124.791 250.995 L
125.08 251.453 L
125.369 251.911 L
125.658 252.368 L
125.948 252.825 L
126.237 253.281 L
126.526 253.736 L
126.815 254.191 L
127.104 254.645 L
127.396 255.099 L
127.685 255.552 L
127.974 256.005 L
128.263 256.457 L
128.552 256.908 L
128.842 257.359 L
129.131 257.809 L
129.42 258.259 L
129.709 258.708 L
129.998 259.157 L
130.287 259.605 L
130.577 260.053 L
130.866 260.5 L
131.155 260.946 L
131.446 261.392 L
131.736 261.837 L
132.025 262.282 L
132.314 262.727 L
132.603 263.171 L
132.892 263.614 L
133.181 264.057 L
133.471 264.499 L
133.76 264.941 L
134.049 265.383 L
134.338 265.824 L
134.627 266.264 L
134.916 266.704 L
135.206 267.144 L
135.497 267.584 L
135.786 268.023 L
136.075 268.461 L
136.365 268.9 L
136.654 269.337 L
136.943 269.775 L
137.232 270.212 L
137.521 270.649 L
137.81 271.086 L
138.1 271.522 L
138.389 271.958 L
138.678 272.394 L
138.967 272.83 L
139.256 273.265 L
139.548 273.7 L
139.837 274.135 L
140.126 274.57 L
140.415 275.005 L
140.704 275.439 L
140.994 275.873 L
141.283 276.308 L
141.572 276.742 L
141.861 277.176 L
142.15 277.61 L
142.439 278.043 L
142.729 278.477 L
143.018 278.911 L
143.307 279.344 L
143.598 279.778 L
143.887 280.212 L
144.177 280.645 L
144.466 281.079 L
144.755 281.512 L
145.044 281.946 L
145.333 282.38 L
145.623 282.814 L
145.912 283.247 L
146.201 283.681 L
146.49 284.115 L
146.779 284.549 L
147.068 284.984 L
147.36 285.418 L
147.649 285.853 L
147.938 286.287 L
148.227 286.722 L
148.516 287.157 L
148.806 287.592 L
149.095 288.027 L
149.384 288.463 L
149.673 288.899 L
149.962 289.335 L
150.252 289.771 L
150.541 290.207 L
150.83 290.644 L
151.119 291.08 L
151.41 291.517 L
151.7 291.955 L
151.989 292.392 L
152.278 292.83 L
152.567 293.268 L
152.856 293.706 L
153.145 294.145 L
153.435 294.584 L
153.724 295.023 L
154.013 295.462 L
154.302 295.902 L
154.591 296.342 L
154.881 296.782 L
155.17 297.223 L
155.461 297.664 L
155.75 298.105 L
156.039 298.546 L
156.329 298.988 L
156.618 299.43 L
156.907 299.872 L
157.196 300.315 L
157.485 300.758 L
157.774 301.201 L
158.064 301.645 L
158.353 302.088 L
158.642 302.533 L
158.931 302.977 L
159.22 303.422 L
159.512 303.867 L
159.801 304.312 L
160.09 304.758 L
160.379 305.203 L
160.668 305.65 L
160.958 306.096 L
161.247 306.543 L
161.536 306.99 L
161.825 307.437 L
162.114 307.884 L
162.403 308.332 L
162.693 308.78 L
162.982 309.229 L
163.271 309.677 L
163.562 310.126 L
163.852 310.575 L
164.141 311.024 L
164.43 311.473 L
164.719 311.923 L
165.008 312.372 L
165.297 312.821 L
165.587 313.27 L
165.876 313.719 L
166.165 314.166 L
166.454 314.611 L
166.743 315.055 L
167.032 315.496 L
167.322 315.934 L
167.613 316.368 L
167.902 316.798 L
168.191 317.221 L
168.481 317.639 L
168.77 318.051 L
169.059 318.455 L
169.348 318.852 L
169.637 319.243 L
169.926 319.628 L
170.216 320.009 L
170.505 320.388 L
170.794 320.77 L
171.083 321.157 L
171.372 321.553 L
171.664 321.961 L
171.953 322.383 L
172.242 322.819 L
172.531 323.269 L
172.82 323.731 L
173.11 324.202 L
173.399 324.68 L
173.688 325.161 L
173.977 325.642 L
174.266 326.122 L
174.555 326.599 L
174.845 327.071 L
175.134 327.536 L
175.423 327.995 L
175.714 328.445 L
176.003 328.886 L
176.293 329.317 L
176.582 329.736 L
176.871 330.142 L
177.16 330.535 L
177.449 330.913 L
177.739 331.277 L
178.028 331.623 L
178.317 331.952 L
178.606 332.26 L
178.895 332.546 L
179.184 332.808 L
179.474 333.043 L
179.765 333.25 L
180.054 333.426 L
180.343 333.571 L
180.632 333.682 L
180.922 333.754 L
181.211 333.785 L
181.5 333.78 L
181.789 333.726 L
182.078 333.65 L
182.368 333.535 L
182.657 333.382 L
182.946 333.195 L
183.235 332.976 L
183.526 332.728 L
183.816 332.454 L
184.105 332.156 L
184.394 331.837 L
184.683 331.498 L
184.972 331.142 L
185.261 330.77 L
185.551 330.384 L
185.84 329.986 L
186.129 329.577 L
186.418 329.158 L
186.707 328.732 L
186.997 328.298 L
187.286 327.858 L
187.577 327.414 L
187.866 326.965 L
188.155 326.514 L
188.445 326.061 L
188.734 325.606 L
189.023 325.151 L
189.312 324.695 L
189.601 324.24 L
189.89 323.786 L
190.18 323.334 L
190.469 322.883 L
190.758 322.435 L
191.047 321.989 L
191.336 321.546 L
191.628 321.107 L
191.917 320.67 L
192.206 320.237 L
192.495 319.807 L
192.784 319.381 L
193.074 318.958 L
193.363 318.539 L
193.652 318.124 L
193.941 317.712 L
194.23 317.303 L
194.519 316.898 L
194.809 316.496 L
195.098 316.097 L
195.387 315.701 L
195.678 315.308 L
195.968 314.917 L
196.257 314.529 L
196.546 314.143 L
196.835 313.759 L
197.124 313.377 L
197.413 312.996 L
197.703 312.616 L
197.992 312.238 L
198.281 311.86 L
198.57 311.482 L
198.859 311.105 L
199.148 310.729 L
199.438 310.352 L
199.729 309.974 L
200.018 309.596 L
200.307 309.217 L
200.597 308.837 L
200.886 308.456 L
201.175 308.073 L
201.464 307.688 L
201.753 307.302 L
202.042 306.913 L
202.332 306.522 L
202.621 306.128 L
202.91 305.732 L
203.199 305.334 L
203.488 304.932 L
203.78 304.527 L
204.069 304.119 L
204.358 303.709 L
204.647 303.295 L
204.936 302.878 L
205.226 302.458 L
205.515 302.035 L
205.804 301.608 L
206.093 301.179 L
206.382 300.747 L
206.671 300.312 L
206.961 299.874 L
207.25 299.433 L
207.539 298.988 L
207.83 298.541 L
208.119 298.091 L
208.409 297.638 L
208.698 297.182 L
208.987 296.722 L
209.276 296.26 L
209.565 295.795 L
209.855 295.327 L
210.144 294.856 L
210.433 294.382 L
210.722 293.905 L
211.011 293.425 L
211.3 292.943 L
211.59 292.458 L
211.881 291.971 L
212.17 291.482 L
212.459 290.99 L
212.748 290.496 L
213.038 290.001 L
213.327 289.503 L
213.616 289.004 L
213.905 288.504 L
214.194 288.002 L
214.484 287.499 L
214.773 286.995 L
215.062 286.491 L
215.351 285.986 L
215.64 285.48 L
215.932 284.974 L
216.221 284.468 L
216.51 283.962 L
216.799 283.456 L
217.088 282.95 L
217.377 282.445 L
217.667 281.94 L
217.956 281.437 L
218.245 280.934 L
218.534 280.432 L
218.823 279.932 L
219.113 279.433 L
219.402 278.935 L
219.693 278.439 L
219.982 277.944 L
220.271 277.451 L
220.561 276.96 L
220.85 276.471 L
221.139 275.984 L
221.428 275.498 L
221.717 275.015 L
222.006 274.534 L
222.296 274.055 L
222.585 273.578 L
222.874 273.104 L
223.163 272.632 L
223.452 272.162 L
223.744 271.694 L
224.033 271.229 L
224.322 270.766 L
224.611 270.305 L
224.9 269.846 L
225.19 269.39 L
225.479 268.936 L
225.768 268.484 L
226.057 268.035 L
226.346 267.587 L
226.635 267.142 L
226.925 266.698 L
227.214 266.257 L
227.503 265.818 L
227.794 265.381 L
228.084 264.945 L
228.373 264.511 L
228.662 264.08 L
228.951 263.649 L
229.24 263.221 L
229.529 262.794 L
229.819 262.368 L
230.108 261.944 L
230.397 261.521 L
230.686 261.1 L
230.975 260.68 L
231.264 260.261 L
231.554 259.843 L
231.845 259.426 L
232.134 259.01 L
232.423 258.594 L
232.713 258.18 L
233.002 257.766 L
233.291 257.353 L
233.58 256.941 L
233.869 256.529 L
234.158 256.117 L
234.448 255.706 L
234.737 255.295 L
235.026 254.884 L
235.315 254.474 L
235.604 254.063 L
235.896 253.653 L
236.185 253.242 L
236.474 252.832 L
236.763 252.421 L
237.052 252.01 L
237.342 251.599 L
237.631 251.188 L
237.92 250.776 L
238.209 250.364 L
238.498 249.952 L
238.787 249.539 L
239.077 249.125 L
239.366 248.711 L
239.655 248.296 L
239.946 247.881 L
240.236 247.465 L
240.525 247.048 L
240.814 246.63 L
241.103 246.212 L
241.392 245.792 L
241.681 245.372 L
241.971 244.951 L
242.26 244.53 L
242.549 244.107 L
242.838 243.683 L
243.127 243.259 L
243.416 242.833 L
243.706 242.407 L
243.997 241.979 L
244.286 241.551 L
244.575 241.121 L
244.865 240.691 L
245.154 240.259 L
245.443 239.827 L
245.732 239.393 L
246.021 238.959 L
246.31 238.523 L
246.6 238.087 L
246.889 237.649 L
247.178 237.21 L
247.467 236.771 L
247.756 236.33 L
248.048 235.889 L
248.337 235.446 L
248.626 235.003 L
248.915 234.558 L
249.204 234.113 L
249.494 233.667 L
249.783 233.219 L
250.072 232.771 L
250.361 232.322 L
250.65 231.872 L
250.939 231.422 L
251.229 230.97 L
251.518 230.518 L
251.807 230.065 L
252.098 229.611 L
252.387 229.157 L
252.677 228.701 L
252.966 228.245 L
253.255 227.789 L
253.544 227.331 L
253.833 226.873 L
254.123 226.415 L
254.412 225.956 L
254.701 225.496 L
254.99 225.036 L
255.279 224.576 L
255.568 224.114 L
255.86 223.653 L
256.149 223.191 L
256.438 222.729 L
256.727 222.266 L
257.016 221.803 L
257.306 221.339 L
257.595 220.876 L
257.884 220.412 L
258.173 219.948 L
258.462 219.483 L
258.751 219.019 L
259.041 218.554 L
259.33 218.089 L
259.619 217.624 L
259.91 217.159 L
260.2 216.694 L
260.489 216.228 L
260.778 215.763 L
261.067 215.298 L
261.356 214.833 L
261.645 214.367 L
261.935 213.902 L
262.224 213.437 L
262.513 212.972 L
262.802 212.507 L
263.091 212.043 L
263.38 211.578 L
263.67 211.114 L
263.961 210.65 L
264.25 210.186 L
264.539 209.722 L
264.829 209.259 L
265.118 208.796 L
265.407 208.333 L
265.696 207.87 L
265.985 207.408 L
266.274 206.946 L
266.564 206.484 L
266.853 206.023 L
267.142 205.562 L
267.431 205.101 L
267.72 204.641 L
268.012 204.181 L
268.301 203.722 L
268.59 203.263 L
268.879 202.805 L
269.168 202.346 L
269.458 201.889 L
269.747 201.432 L
270.036 200.975 L
270.325 200.518 L
270.614 200.063 L
270.903 199.607 L
271.193 199.152 L
271.482 198.698 L
271.771 198.244 L
272.062 197.79 L
272.352 197.337 L
272.641 196.885 L
272.93 196.433 L
273.219 195.981 L
273.508 195.53 L
273.797 195.079 L
274.087 194.629 L
274.376 194.179 L
274.665 193.73 L
274.954 193.281 L
275.243 192.833 L
275.532 192.385 L
275.822 191.938 L
276.113 191.491 L
276.402 191.045 L
276.691 190.599 L
276.981 190.153 L
277.27 189.708 L
277.559 189.263 L
277.848 188.819 L
278.137 188.375 L
278.426 187.932 L
278.716 187.489 L
279.005 187.046 L
279.294 186.604 L
279.583 186.162 L
279.872 185.72 L
280.164 185.279 L
280.453 184.838 L
280.742 184.398 L
281.031 183.958 L
281.32 183.518 L
281.61 183.078 L
281.899 182.639 L
282.188 182.2 L
282.477 181.761 L
282.766 181.323 L
283.055 180.885 L
283.345 180.447 L
283.634 180.009 L
283.923 179.572 L
284.214 179.135 L
284.503 178.697 L
284.793 178.261 L
285.082 177.824 L
285.371 177.388 L
285.66 176.951 L
285.949 176.515 L
286.239 176.079 L
286.528 175.643 L
286.817 175.207 L
287.106 174.772 L
287.395 174.336 L
287.684 173.901 L
287.974 173.465 L
288.265 173.03 L
288.554 172.594 L
288.843 172.159 L
289.132 171.724 L
289.422 171.288 L
289.711 170.853 L
290 170.418 L
290.289 169.983 L
290.578 169.547 L
290.868 169.112 L
291.157 168.677 L
291.446 168.241 L
291.735 167.806 L
292.026 167.37 L
292.316 166.935 L
292.605 166.499 L
292.894 166.063 L
293.183 165.627 L
293.472 165.191 L
293.761 164.755 L
294.051 164.319 L
294.34 163.882 L
294.629 163.446 L
294.918 163.009 L
295.207 162.572 L
295.497 162.135 L
295.786 161.698 L
296.077 161.26 L
296.366 160.823 L
296.655 160.385 L
296.945 159.947 L
297.234 159.509 L
297.523 159.07 L
297.812 158.632 L
298.101 158.193 L
298.39 157.754 L
298.68 157.314 L
298.969 156.875 L
299.258 156.435 L
299.547 155.995 L
299.836 155.555 L
300.128 155.115 L
300.417 154.674 L
300.706 154.233 L
300.995 153.792 L
301.284 153.35 L
301.574 152.909 L
301.863 152.467 L
302.152 152.024 L
302.441 151.582 L
302.73 151.139 L
303.019 150.696 L
303.309 150.253 L
303.598 149.81 L
303.887 149.366 L
304.178 148.922 L
304.468 148.477 L
304.757 148.033 L
305.046 147.588 L
305.335 147.143 L
305.624 146.698 L
305.913 146.252 L
306.203 145.806 L
306.492 145.36 L
306.781 144.914 L
307.07 144.468 L
307.359 144.021 L
307.648 143.574 L
307.938 143.127 L
308.229 142.679 L
308.518 142.231 L
308.807 141.784 L
309.097 141.336 L
309.386 140.888 L
309.675 140.44 L
309.964 139.992 L
310.253 139.545 L
310.542 139.099 L
310.832 138.654 L
311.121 138.21 L
311.41 137.769 L
311.699 137.331 L
311.988 136.896 L
312.28 136.465 L
312.569 136.038 L
312.858 135.617 L
313.147 135.2 L
313.436 134.788 L
313.726 134.381 L
314.015 133.979 L
314.304 133.581 L
314.593 133.186 L
314.882 132.794 L
315.171 132.402 L
315.461 132.011 L
315.75 131.617 L
316.039 131.22 L
316.33 130.817 L
316.62 130.408 L
316.909 129.99 L
317.198 129.562 L
317.487 129.125 L
317.776 128.678 L
318.065 128.222 L
318.355 127.759 L
318.644 127.289 L
318.933 126.816 L
319.222 126.341 L
319.511 125.866 L
319.8 125.393 L
320.09 124.924 L
320.381 124.461 L
320.67 124.006 L
320.959 123.561 L
321.249 123.126 L
321.538 122.704 L
321.827 122.296 L
322.116 121.903 L
322.405 121.526 L
322.694 121.168 L
322.984 120.829 L
323.273 120.513 L
323.562 120.219 L
323.851 119.951 L
324.14 119.711 L
324.432 119.499 L
324.721 119.319 L
325.01 119.172 L
325.299 119.061 L
325.588 118.989 L
325.878 118.962 L
326.167 118.986 L
326.456 119.056 L
326.745 119.165 L
327.034 119.312 L
327.323 119.492 L
327.613 119.689 L
327.902 119.915 L
328.193 120.171 L
328.482 120.453 L
328.771 120.758 L
329.061 121.084 L
329.35 121.43 L
329.639 121.793 L
329.928 122.171 L
330.217 122.562 L
330.507 122.966 L
330.796 123.38 L
331.085 123.802 L
331.374 124.232 L
331.663 124.669 L
331.952 125.111 L
332.244 125.557 L
332.533 126.006 L
332.822 126.457 L
333.111 126.91 L
333.4 127.363 L
333.69 127.817 L
333.979 128.27 L
334.268 128.721 L
334.557 129.172 L
334.846 129.62 L
335.135 130.066 L
335.425 130.509 L
335.714 130.95 L
336.003 131.387 L
336.294 131.821 L
336.584 132.251 L
336.873 132.678 L
337.162 133.101 L
337.451 133.52 L
337.74 133.935 L
338.029 134.347 L
338.319 134.755 L
338.608 135.16 L
338.897 135.561 L
339.186 135.958 L
339.475 136.353 L
339.764 136.744 L
340.054 137.132 L
340.345 137.518 L
340.634 137.902 L
340.923 138.283 L
341.213 138.662 L
341.502 139.04 L
341.791 139.416 L
342.08 139.791 L
342.369 140.165 L
342.658 140.538 L
342.948 140.911 L
343.237 141.284 L
343.526 141.657 L
343.815 142.03 L
344.104 142.403 L
344.396 142.778 L
344.685 143.153 L
344.974 143.53 L
345.263 143.908 L
345.552 144.288 L
345.842 144.669 L
346.131 145.053 L
346.42 145.439 L
346.709 145.828 L
346.998 146.219 L
347.287 146.612 L
347.577 147.009 L
347.866 147.408 L
348.155 147.811 L
348.446 148.217 L
348.736 148.626 L
349.025 149.038 L
349.314 149.454 L
349.603 149.873 L
349.892 150.296 L
350.181 150.722 L
350.471 151.152 L
350.76 151.586 L
351.049 152.023 L
351.338 152.464 L
351.627 152.908 L
351.916 153.355 L
352.206 153.806 L
352.497 154.261 L
352.786 154.719 L
353.075 155.18 L
353.365 155.644 L
353.654 156.111 L
353.943 156.582 L
354.232 157.055 L
354.521 157.531 L
354.81 158.009 L
355.1 158.491 L
355.389 158.974 L
355.678 159.46 L
355.967 159.948 L
356.256 160.438 L
356.548 160.931 L
356.837 161.424 L
357.126 161.92 L
357.415 162.417 L
357.704 162.915 L
357.993 163.414 L
358.283 163.915 L
358.572 164.416 L
358.861 164.919 L
359.15 165.421 L
359.439 165.925 L
359.729 166.428 L
360.018 166.932 L
360.307 167.436 L
360.598 167.94 L
360.887 168.443 L
361.177 168.947 L
361.466 169.45 L
361.755 169.952 L
362.044 170.454 L
362.333 170.954 L
362.622 171.454 L
362.912 171.953 L
363.201 172.451 L
363.49 172.947 L
363.779 173.443 L
364.068 173.936 L
364.36 174.429 L
364.649 174.919 L
364.938 175.408 L
365.227 175.896 L
365.516 176.382 L
365.806 176.865 L
366.095 177.347 L
366.384 177.827 L
366.673 178.305 L
366.962 178.782 L
367.251 179.256 L
367.541 179.728 L
367.83 180.198 L
368.119 180.666 L
368.41 181.131 L
368.7 181.595 L
368.989 182.057 L
369.278 182.516 L
369.567 182.973 L
369.856 183.428 L
370.145 183.882 L
370.435 184.333 L
370.724 184.781 L
371.013 185.228 L
371.302 185.673 L
371.591 186.116 L
371.88 186.557 L
372.17 186.996 L
372.461 187.434 L
372.75 187.869 L
373.039 188.303 L
373.329 188.734 L
373.618 189.165 L
373.907 189.593 L
374.196 190.02 L
374.485 190.446 L
374.774 190.87 L
375.064 191.293 L
375.353 191.714 L
375.642 192.135 L
375.931 192.554 L
376.22 192.972 L
376.512 193.388 L
376.801 193.804 L
377.09 194.219 L
377.379 194.633 L
377.668 195.047 L
377.958 195.459 L
378.247 195.871 L
378.536 196.283 L
378.825 196.694 L
379.114 197.104 L
379.403 197.515 L
379.693 197.924 L
379.982 198.334 L
380.271 198.744 L
380.562 199.153 L
380.852 199.562 L
381.141 199.972 L
381.43 200.381 L
381.719 200.791 L
382.008 201.201 L
382.297 201.611 L
382.587 202.021 L
382.876 202.432 L
383.165 202.843 L
383.454 203.255 L
383.743 203.667 L
384.032 204.08 L
384.322 204.494 L
384.613 204.908 L
384.902 205.323 L
385.191 205.738 L
385.481 206.155 L
385.77 206.572 L
386.059 206.99 L
386.348 207.409 L
386.637 207.829 L
386.926 208.25 L
387.216 208.672 L
387.505 209.095 L
387.794 209.519 L
388.083 209.943 L
388.372 210.369 L
388.664 210.796 L
388.953 211.225 L
389.242 211.654 L
389.531 212.084 L
389.82 212.516 L
390.11 212.948 L
390.399 213.382 L
390.688 213.817 L
390.977 214.253 L
391.266 214.69 L
391.555 215.128 L
391.845 215.568 L
392.134 216.008 L
392.423 216.45 L
392.714 216.893 L
393.003 217.337 L
393.293 217.782 L
393.582 218.228 L
393.871 218.675 L
394.16 219.123 L
394.449 219.572 L
394.739 220.022 L
395.028 220.473 L
395.317 220.925 L
395.606 221.378 L
395.895 221.832 L
396.184 222.287 L
396.474 222.742 L
396.765 223.199 L
397.054 223.656 L
397.343 224.114 L
397.632 224.573 L
397.922 225.033 L
398.211 225.493 L
398.5 225.954 L
398.789 226.416 L
399.078 226.878 L
399.368 227.341 L
399.657 227.804 L
399.946 228.268 L
400.235 228.733 L
400.526 229.198 L
400.816 229.663 L
401.105 230.129 L
401.394 230.595 L
401.683 231.061 L
401.972 231.528 L
402.261 231.995 L
402.551 232.462 L
402.84 232.93 L
403.129 233.397 L
403.418 233.865 L
403.707 234.333 L
403.997 234.801 L
404.286 235.269 L
404.577 235.737 L
404.866 236.205 L
405.155 236.673 L
405.445 237.141 L
405.734 237.609 L
406.023 238.077 L
406.312 238.544 L
406.601 239.012 L
406.89 239.479 L
407.18 239.946 L
407.469 240.413 L
407.758 240.88 L
408.047 241.346 L
408.336 241.812 L
408.628 242.278 L
408.917 242.743 L
409.206 243.208 L
409.495 243.673 L
409.784 244.137 L
410.074 244.601 L
410.363 245.064 L
410.652 245.527 L
410.941 245.99 L
411.23 246.452 L
411.519 246.913 L
411.809 247.374 L
412.098 247.835 L
412.387 248.295 L
412.678 248.754 L
412.968 249.213 L
413.257 249.672 L
413.546 250.13 L
413.835 250.587 L
414.124 251.044 L
414.413 251.5 L
414.703 251.955 L
414.992 252.41 L
415.281 252.865 L
415.57 253.319 L
415.859 253.772 L
416.148 254.224 L
416.438 254.676 L
416.729 255.128 L
417.018 255.579 L
417.307 256.029 L
417.597 256.479 L
417.886 256.928 L
418.175 257.377 L
418.464 257.825 L
418.753 258.272 L
419.042 258.719 L
419.332 259.165 L
419.621 259.611 L
419.91 260.056 L
420.199 260.501 L
420.488 260.945 L
420.78 261.389 L
421.069 261.832 L
421.358 262.275 L
421.647 262.717 L
421.936 263.159 L
422.226 263.6 L
422.515 264.041 L
422.804 264.481 L
423.093 264.921 L
423.382 265.361 L
423.671 265.8 L
423.961 266.239 L
424.25 266.677 L
424.539 267.115 L
424.83 267.553 L
425.12 267.99 L
425.409 268.427 L
425.698 268.864 L
425.987 269.3 L
426.276 269.736 L
426.565 270.172 L
426.855 270.608 L
427.144 271.043 L
427.433 271.478 L
427.722 271.913 L
428.011 272.348 L
428.3 272.782 L
428.59 273.216 L
428.881 273.651 L
429.17 274.085 L
429.459 274.519 L
429.749 274.952 L
430.038 275.386 L
430.327 275.82 L
430.616 276.253 L
430.905 276.687 L
431.194 277.12 L
431.484 277.554 L
431.773 277.987 L
432.062 278.421 L
432.351 278.854 L
432.64 279.288 L
432.932 279.721 L
433.221 280.155 L
433.51 280.588 L
433.799 281.022 L
434.088 281.456 L
434.378 281.889 L
434.667 282.323 L
434.956 282.757 L
435.245 283.192 L
435.534 283.626 L
435.823 284.06 L
436.113 284.495 L
436.402 284.93 L
436.693 285.365 L
436.982 285.8 L
437.271 286.235 L
437.561 286.671 L
437.85 287.107 L
438.139 287.543 L
438.428 287.979 L
438.717 288.415 L
439.007 288.852 L
439.296 289.289 L
439.585 289.726 L
439.874 290.163 L
440.163 290.601 L
440.452 291.039 L
440.744 291.477 L
441.033 291.916 L
441.322 292.354 L
441.611 292.794 L
441.9 293.233 L
442.19 293.673 L
442.479 294.112 L
442.768 294.553 L
443.057 294.993 L
443.346 295.434 L
443.635 295.875 L
443.925 296.317 L
444.214 296.758 L
444.503 297.2 L
444.794 297.643 L
445.084 298.086 L
445.373 298.528 L
445.662 298.972 L
445.951 299.415 L
446.24 299.859 L
446.529 300.303 L
446.819 300.748 L
447.108 301.193 L
447.397 301.638 L
447.686 302.083 L
447.975 302.529 L
448.264 302.975 L
448.554 303.421 L
448.845 303.868 L
449.134 304.315 L
449.423 304.762 L
449.713 305.209 L
450.002 305.657 L
450.291 306.105 L
450.58 306.553 L
450.869 307.002 L
451.158 307.45 L
451.448 307.899 L
451.737 308.349 L
452.026 308.798 L
452.315 309.248 L
452.604 309.698 L
452.896 310.148 L
453.185 310.598 L
453.474 311.049 L
453.763 311.499 L
454.052 311.95 L
454.342 312.4 L
454.631 312.85 L
454.92 313.3 L
455.209 313.749 L
455.498 314.196 L
455.787 314.642 L
456.077 315.086 L
456.366 315.527 L
456.655 315.964 L
456.946 316.396 L
457.236 316.824 L
457.525 317.246 L
457.814 317.662 L
458.103 318.072 L
458.392 318.474 L
458.681 318.87 L
458.971 319.26 L
459.26 319.645 L
459.549 320.028 L
459.838 320.412 L
460.127 320.799 L
460.416 321.194 L
460.706 321.6 L
460.997 322.018 L
461.286 322.451 L
461.575 322.898 L
461.865 323.358 L
462.154 323.828 L
462.443 324.306 L
462.732 324.788 L
463.021 325.273 L
463.31 325.757 L
463.6 326.238 L
463.889 326.715 L
464.178 327.186 L
464.467 327.651 L
464.756 328.108 L
465.048 328.556 L
465.337 328.994 L
465.626 329.421 L
465.915 329.836 L
466.204 330.238 L
466.493 330.627 L
466.783 331.001 L
467.072 331.36 L
467.361 331.701 L
467.65 332.024 L
467.939 332.326 L
468.229 332.605 L
468.518 332.86 L
468.807 333.088 L
469.098 333.287 L
469.387 333.457 L
469.677 333.595 L
469.966 333.697 L
470.255 333.762 L
470.544 333.789 L
470.833 333.754 L
471.122 333.705 L
471.412 333.625 L
471.701 333.504 L
471.99 333.346 L
472.279 333.154 L
472.568 332.93 L
472.86 332.679 L
473.149 332.401 L
473.438 332.1 L
473.727 331.778 L
474.016 331.437 L
474.306 331.079 L
474.595 330.706 L
474.884 330.32 L
475.173 329.921 L
475.462 329.513 L
475.751 329.095 L
476.041 328.669 L
476.33 328.237 L
476.619 327.8 L
476.91 327.358 L
477.2 326.913 L
477.489 326.465 L
477.778 326.016 L
478.067 325.565 L
478.356 325.114 L
478.645 324.664 L
478.935 324.214 L
479.224 323.765 L
479.513 323.318 L
479.802 322.874 L
480.091 322.431 L
480.38 321.991 L
480.67 321.554 L
480.961 321.121 L
481.25 320.69 L
481.539 320.263 L
481.829 319.839 L
482.118 319.419 L
482.407 319.002 L
482.696 318.589 L
482.985 318.178 L
483.274 317.772 L
483.564 317.368 L
483.853 316.968 L
484.142 316.57 L
484.431 316.176 L
484.72 315.784 L
485.012 315.394 L
485.301 315.007 L
485.59 314.621 L
485.879 314.238 L
486.168 313.856 L
486.458 313.475 L
486.747 313.096 L
487.036 312.717 L
487.325 312.339 L
487.614 311.961 L
487.903 311.584 L
488.193 311.206 L
488.482 310.828 L
488.771 310.45 L
489.062 310.071 L
489.352 309.69 L
489.641 309.309 L
489.93 308.926 L
490.219 308.541 L
490.508 308.155 L
490.797 307.766 L
491.087 307.376 L
491.376 306.982 L
491.665 306.587 L
491.954 306.188 L
492.243 305.787 L
492.532 305.382 L
492.822 304.975 L
493.113 304.564 L
493.402 304.15 L
493.691 303.733 L
493.981 303.313 L
494.27 302.89 L
494.559 302.463 L
494.848 302.034 L
495.137 301.601 L
495.426 301.166 L
495.716 300.727 L
496.005 300.285 L
496.294 299.84 L
496.583 299.393 L
496.872 298.942 L
497.164 298.489 L
497.453 298.032 L
497.742 297.572 L
498.031 297.11 L
498.32 296.645 L
498.61 296.176 L
498.899 295.705 L
499.188 295.231 L
499.477 294.754 L
499.766 294.275 L
500.055 293.793 L
500.345 293.308 L
500.634 292.821 L
500.923 292.332 L
501.214 291.841 L
501.503 291.347 L
501.793 290.852 L
502.082 290.354 L
502.371 289.855 L
502.66 289.355 L
502.949 288.854 L
503.239 288.351 L
503.528 287.847 L
503.817 287.343 L
504.106 286.837 L
504.395 286.332 L
504.684 285.826 L
504.974 285.32 L
505.265 284.814 L
505.554 284.308 L
505.843 283.803 L
506.132 283.298 L
506.422 282.793 L
506.711 282.29 L
S
GR
GS
[0.75 0 0 0.75 0 0] CT
1 GC
N
496 86 M
496 42 L
336 42 L
336 86 L
cp
f
GR
GS
[0.75 0 0 0.75 287.25 40.39888] CT
/Times-Roman 16.8 F
GS
[1 0 0 1 0 0] CT
0 6 moveto 
1 -1 scale
(reference) t 
GR
GR
GS
[0.75 0 0 0.75 0 0] CT
0 0.447 0.741 RC
1 LJ
1.333 LW
N
340 53.865 M
380 53.865 L
S
GR
GS
[0.75 0 0 0.75 287.25 55.60113] CT
/Times-Roman 16.8 F
GS
[1 0 0 1 0 0] CT
0 6 moveto 
1 -1 scale
(output with ILC) t 
GR
GR
GS
[0.75 0 0 0.75 0 0] CT
0.851 0.325 0.098 RC
1 LJ
1.333 LW
N
340 74.135 M
380 74.135 L
S
GR
GS
[0.75 0 0 0.75 0 0] CT
0.149 GC
10.0 ML
0.667 LW
N
336 86 M
336 42 L
496 42 L
496 86 L
cp
S
GR
%%Trailer
%%Pages: 1
%%EOF
